"","NMDS1","NMDS2","month","zone","treatment","zonetreat"
"GR00B_2",-2.11184614934064,0.10405838759256,1,"mid","SGR","midSGR"
"01B_2",-2.0122163774023,-0.189388964485261,1,"mid","SGA","midSGA"
"02B_2",0.562213579590505,0.0626662681829191,1,"mid","CGA","midCGA"
"GR01B_2",-1.48053595998405,0.407348387710454,1,"mid","SGR","midSGR"
"03B_2",0.660105481426933,0.504601775347498,1,"mid","CGA","midCGA"
"04B_2",-1.33502279406617,0.143468191711667,1,"mid","SGA","midSGA"
"GR02B_2",-2.11184228602871,0.104075355254706,1,"mid","SGR","midSGR"
"05B_2",-0.654975943733536,-0.676156902448126,1,"mid","SGA","midSGA"
"06B_2",0.574504833502378,0.189300314836754,1,"mid","CGA","midCGA"
"12B_2",0.935084014820475,-0.0681251967898271,1,"mid","CGA","midCGA"
"11B_2",-2.11184614912601,0.104058388516612,1,"mid","SGA","midSGA"
"GR05B_2",-2.11184226087602,0.104075464447424,1,"mid","SGR","midSGR"
"10B_2",0.507337108382311,0.409710733600911,1,"mid","CGA","midCGA"
"09B_2",-0.856105977651508,1.488717239938,1,"mid","SGA","midSGA"
"GR04B_2",-1.48053756822632,0.407344515912785,1,"mid","SGR","midSGR"
"08B_2",-1.3108517678037,-1.33936758239744,1,"mid","SGA","midSGA"
"07B_2",1.50218558390356,0.0135009747276726,1,"mid","CGA","midCGA"
"GR03B_2",-2.11184222344812,0.104075626636754,1,"mid","SGR","midSGR"
"GR00B_3",-1.0562574017492,-0.258279038785229,2,"mid","SGR","midSGR"
"01B_3",-0.683526230305034,-0.162642222941673,2,"mid","SGA","midSGA"
"02B_3",0.761022070751434,0.140372604216031,2,"mid","CGA","midCGA"
"GR01B_3",-0.964172534520873,-0.359892867595888,2,"mid","SGR","midSGR"
"03B_3",0.620345181751318,0.48714177678187,2,"mid","CGA","midCGA"
"04B_3",-0.22811504357312,0.0304084691378966,2,"mid","SGA","midSGA"
"GR02B_3",-0.501245167489407,-0.840758075464029,2,"mid","SGR","midSGR"
"05B_3",-0.528278519744491,-0.0840764013055404,2,"mid","SGA","midSGA"
"06B_3",0.655622092201849,0.236495769256529,2,"mid","CGA","midCGA"
"12B_3",0.94098228184283,0.0710185972377618,2,"mid","CGA","midCGA"
"11B_3",-0.392723255123379,-0.54947009297431,2,"mid","SGA","midSGA"
"GR05B_3",-0.229266604212298,-0.425195439906754,2,"mid","SGR","midSGR"
"10B_3",0.944289339482534,0.690964348076633,2,"mid","CGA","midCGA"
"09B_3",-0.0724896285835217,-0.350280252534792,2,"mid","SGA","midSGA"
"GR04B_3",-0.268832957674363,-0.851726501154453,2,"mid","SGR","midSGR"
"GR03B_3",0.444493137245715,-0.828449548786043,2,"mid","SGR","midSGR"
"07B_3",1.16435570776732,-0.598118249493644,2,"mid","CGA","midCGA"
"08B_3",-0.48743264277927,-0.884949288442392,2,"mid","SGA","midSGA"
"08B_5",0.799233509228488,-0.468645366966649,3,"mid","SGA","midSGA"
"07B_5",1.27198404430688,-0.622753845551102,3,"mid","CGA","midCGA"
"GR03B_5",0.719898740941251,-0.606539401441183,3,"mid","SGR","midSGR"
"11B_5",0.405905967328461,0.0106439717070817,3,"mid","SGA","midSGA"
"12B_5",1.31992901076994,-0.112893579959505,3,"mid","CGA","midCGA"
"GR05B_5",0.514979930421191,0.645200941981945,3,"mid","SGR","midSGR"
"10B_5",0.988727365907524,0.324227702629137,3,"mid","CGA","midCGA"
"09B_5",0.425379987641823,0.293196654685138,3,"mid","SGA","midSGA"
"GR04B_5",0.2541392033512,1.00489921014201,3,"mid","SGR","midSGR"
"GR02B_5",-0.261294144850625,0.106292721886368,3,"mid","SGR","midSGR"
"GR01B_5",-0.25246196940379,-0.252157391323218,3,"mid","SGR","midSGR"
"GR00B_5",0.157512148782754,-0.262505178044237,3,"mid","SGR","midSGR"
"01B_5",0.298930150802215,-0.194709232843672,3,"mid","SGA","midSGA"
"02B_5",0.75645062542131,-0.168992094808189,3,"mid","CGA","midCGA"
"03B_5",0.653078531948695,0.0869111602497279,3,"mid","CGA","midCGA"
"04B_5",0.27816017284328,0.0379463155532274,3,"mid","SGA","midSGA"
"06B_5",0.588597633555252,-0.247414536083922,3,"mid","CGA","midCGA"
"05B_5",-0.0496938272257262,0.233967687578362,3,"mid","SGA","midSGA"
"GR00B_7",-0.392388301077142,-0.137540332066426,4,"mid","SGR","midSGR"
"01B_7",0.357470286315738,-0.484596166097683,4,"mid","SGA","midSGA"
"02B_7",0.738317136439838,-0.0834300595031953,4,"mid","CGA","midCGA"
"GR01B_7",-0.299097102458691,0.326439074050926,4,"mid","SGR","midSGR"
"03B_7",0.481440919170971,0.286510029332185,4,"mid","SGA","midSGA"
"04B_7",0.0548761896382542,0.458480126699731,4,"mid","CGA","midCGA"
"GR02B_7",-0.708779691953961,0.338502096754567,4,"mid","SGR","midSGR"
"05B_7",-0.0823065941349216,0.416321467508963,4,"mid","SGA","midSGA"
"06B_7",0.263718365060401,-0.0239611256179322,4,"mid","CGA","midCGA"
"GR03B_7",0.151665745820612,-0.351384160163583,4,"mid","SGR","midSGR"
"07B_7",1.39864474391654,-0.522998439715034,4,"mid","CGA","midCGA"
"08B_7",0.907423217906682,-0.355832074410471,4,"mid","SGA","midSGA"
"GR04B_7",0.117276044748136,1.2065309740199,4,"mid","SGR","midSGR"
"09B_7",0.468731017548799,0.764355716648134,4,"mid","SGA","midSGA"
"10B_7",0.850488494572384,0.413336010875157,4,"mid","CGA","midCGA"
"GR05B_7",0.204110249748357,0.59025238659007,4,"mid","SGR","midSGR"
"11B_7",0.149789450916184,0.304609746041449,4,"mid","SGA","midSGA"
"12B_7",1.29842777682457,-0.288797573956122,4,"mid","CGA","midCGA"
