"","NMDS1","NMDS2","month","zone","treatment","zonetreat"
"01C_2",-1.60319533876129,0.0473457828099707,1,"high","SGA","highSGA"
"02C_2",0.307956156717106,-0.560695371443046,1,"high","CGA","highCGA"
"GR01C_2",-1.60319529647382,0.0473470904547873,1,"high","SGR","highSGR"
"03C_2",0.391331772463861,-0.163133344707893,1,"high","CGA","highCGA"
"04C_2",-1.60319533184953,0.0473459965428078,1,"high","SGA","highSGA"
"GR02C_2",-0.869481425918786,-0.346027672773944,1,"high","SGR","highSGR"
"05C_2",0.308607080743041,-1.28876112661416,1,"high","SGA","highSGA"
"06C_2",0.499838237126692,0.409843960510991,1,"high","CGA","highCGA"
"GR03C_2",-1.60319535824639,0.0473451802660654,1,"high","SGR","highSGR"
"07C_2",0.67738568978847,-0.524250911890996,1,"high","CGA","highCGA"
"08C_2",-1.60319534143346,0.0473457001779092,1,"high","SGA","highSGA"
"12C_2",0.0432881781949551,-0.507585370944651,1,"high","CGA","highCGA"
"10C_2",0.252038521452233,0.209695774705912,1,"high","CGA","highCGA"
"GR00C_3",-1.60319533166612,0.0473460022144616,2,"high","SGR","highSGR"
"01C_3",-1.60319533547453,0.0473458844467111,2,"high","SGA","highSGA"
"02C_3",-0.110630119679277,-0.386089726801652,2,"high","CGA","highCGA"
"GR01C_3",-0.603236785147479,-0.794966946151163,2,"high","SGR","highSGR"
"03C_3",0.312474432349911,-0.580837419283605,2,"high","CGA","highCGA"
"04C_3",1.55737298813721,0.19790362046869,2,"high","SGA","highSGA"
"GR04C_3",0.689857287715346,1.29495559529647,2,"high","SGR","highSGR"
"10C_3",0.156084920788109,0.15208824957044,2,"high","CGA","highCGA"
"11C_3",-1.60319529628727,0.0473470962232972,2,"high","SGA","highSGA"
"12C_3",-0.0218731803980031,0.138860460483159,2,"high","CGA","highCGA"
"07C_3",-0.0856897099647894,-0.18109931438363,2,"high","CGA","highCGA"
"06C_3",0.491957320438137,0.36163663227092,2,"high","CGA","highCGA"
"05C_3",-0.643748775521221,0.126128094641471,2,"high","SGA","highSGA"
"GR03C_3",0.870504077036809,-0.793710813756713,2,"high","SGR","highSGR"
"12C_5",0.0997868189222784,-0.377717286945868,3,"high","CGA","highCGA"
"11C_5",-0.276304221946408,0.431532355867484,3,"high","SGA","highSGA"
"GR05C_5",-0.53437459419723,0.439093041024153,3,"high","SGR","highSGR"
"GR04C_5",0.300351941797467,0.765955109872965,3,"high","SGR","highSGR"
"09C_5",1.08759801863906,0.303585115247214,3,"high","SGA","highSGA"
"10C_5",0.165698754368694,0.380269406288754,3,"high","CGA","highCGA"
"GR00C_5",0.506244013534303,-0.696571630981525,3,"high","SGR","highSGR"
"01C_5",0.739993784120386,-0.281154710968731,3,"high","SGA","highSGA"
"02C_5",0.353737174136026,-0.0410544744911875,3,"high","CGA","highCGA"
"GR01C_5",0.494449139697585,0.60944435493645,3,"high","SGR","highSGR"
"03C_5",0.190811926111794,-0.330250229154867,3,"high","CGA","highCGA"
"04C_5",1.04497103201416,-0.384587457196151,3,"high","SGA","highSGA"
"GR02C_5",0.232080394625466,0.550859213093438,3,"high","SGR","highSGR"
"05C_5",0.0646352332191246,0.247111316988194,3,"high","SGA","highSGA"
"06C_5",0.527599653740653,0.469326556267998,3,"high","CGA","highCGA"
"07C_5",0.528611320582573,-0.291344951905707,3,"high","CGA","highCGA"
"08C_5",0.830276382825636,-0.575043180085756,3,"high","SGA","highSGA"
"GR03C_5",-0.124879478948724,-0.067646321789707,3,"high","SGR","highSGR"
"GR00C_7",-0.210737503253844,0.123160556559417,4,"high","SGR","highSGR"
"01C_7",0.409024993436882,0.103345159734668,4,"high","SGA","highSGA"
"02C_7",0.158242181985301,-0.0299120315711232,4,"high","CGA","highCGA"
"GR01C_7",-0.100244551385281,0.728036415055692,4,"high","SGR","highSGR"
"03C_7",0.11876912270991,-0.0227026600766106,4,"high","CGA","highCGA"
"04C_7",0.0868141306468293,-0.127194928381128,4,"high","SGA","highSGA"
"GR02C_7",0.0123060978644564,0.725355820609677,4,"high","SGR","highSGR"
"05C_7",0.0113028193893911,0.270190006476187,4,"high","SGA","highSGA"
"06C_7",0.527530196682354,0.437660940602929,4,"high","CGA","highCGA"
"GR03C_7",0.513706249686328,-0.0524989090942899,4,"high","SGR","highSGR"
"07C_7",0.194515640528341,-0.0929273430892565,4,"high","CGA","highCGA"
"08C_7",0.770602598660243,0.530124093394209,4,"high","SGA","highSGA"
"GR04C_7",-0.311635844294593,0.735950820810111,4,"high","SGR","highSGR"
"09C_7",1.1461754306504,-0.0587564260419364,4,"high","SGA","highSGA"
"10C_7",-0.172277869182442,0.839057215141027,4,"high","CGA","highCGA"
"GR05C_7",-0.456947538721661,-1.12132633123436,4,"high","SGR","highSGR"
"11C_7",-0.0785854702796868,-0.626690054236297,4,"high","SGA","highSGA"
"12C_7",-0.248322014495673,-0.655401673058671,4,"high","CGA","highCGA"
