,NMDS1,NMDS2,month,zone,treatment
GR00B_2,-0.1864670803,-2.193913062,1,mid,SGR
GR00A_2,0.5264238568,-1.1088192053,1,low,SGR
01C_2,1.0495353998,-0.7873444409,1,high,SGA
01B_2,0.0521724648,-2.0143248992,1,mid,SGA
01A_2,-2.2669549918,-0.4266718836,1,low,SGA
02C_2,0.8683207938,0.6067765059,1,high,CGA
02B_2,0.0292008559,0.1394119305,1,mid,CGA
02A_2,-0.6270591165,0.2914327179,1,low,CGA
GR01C_2,1.0495353998,-0.7873444409,1,high,SGR
GR01B_2,0.4916148913,-1.128676953,1,mid,SGR
GR01A_2,-0.182730899,-1.3716056171,1,low,SGR
03C_2,1.1613370274,0.4906027132,1,high,CGA
03B_2,0.3556962016,0.0577238606,1,mid,CGA
03A_2,-1.2130651526,0.2873982871,1,low,CGA
04A_2,-0.0264924702,-1.4473426487,1,low,SGA
GR02A_2,-0.1864670803,-2.193913062,1,low,SGR
05A_2,0.99146584,-3.2347885402,1,low,SGA
08A_2,-0.1864670803,-2.193913062,1,low,SGA
07A_2,-0.6509280974,0.3066627171,1,low,CGA
GR03A_2,-0.2631384551,-1.3590336829,1,low,SGR
06A_2,-0.7229527533,0.6036506325,1,low,CGA
04C_2,1.0495353998,-0.7873444409,1,high,SGA
04B_2,-0.1404146305,-1.3758142977,1,mid,SGA
GR02C_2,1.1933863948,-0.4225890429,1,high,SGR
GR02B_2,-0.1864670803,-2.193913062,1,mid,SGR
05C_2,2.1840333821,0.2145900257,1,high,SGA
05B_2,-0.1715589391,-1.1854897147,1,mid,SGA
06C_2,1.1698516426,0.5542126278,1,high,CGA
06B_2,0.1633025239,0.1633858704,1,mid,CGA
GR03C_2,1.0495353998,-0.7873444409,1,high,SGR
07C_2,0.9173865257,0.9090995098,1,high,CGA
08C_2,1.0495353998,-0.7873444409,1,high,SGA
GR04A_2,-0.5031939211,-0.9585951567,1,low,SGR
09A_2,1.0495353998,-0.7873444409,1,low,SGA
10A_2,-0.6157169772,0.4023021837,1,low,CGA
GR05A_2,-0.1864670803,-2.193913062,1,low,SGR
11A_2,-2.065266647,-0.6843721716,1,low,SGA
12A_2,-0.6159157447,0.5121931384,1,low,CGA
12C_2,0.7161156607,0.1600283453,1,high,CGA
10C_2,0.7155879059,0.2617131193,1,high,CGA
12B_2,-0.2224186221,0.5878210558,1,mid,CGA
11B_2,-0.1864670803,-2.193913062,1,mid,SGA
GR05B_2,-0.1864670803,-2.193913062,1,mid,SGR
10B_2,0.1909998767,0.3328859771,1,mid,CGA
09B_2,1.0495353998,-0.7873444409,1,mid,SGA
GR04B_2,0.4681131903,-1.142882862,1,mid,SGR
08B_2,-1.2769899675,-1.5628469428,1,mid,SGA
07B_2,-0.1020551104,1.1295802378,1,mid,CGA
GR03B_2,-0.1864670803,-2.193913062,1,mid,SGR
GR00A_3,-0.1605989339,-0.7851333951,2,low,SGR
01A_3,-1.2452781354,-0.1644673231,2,low,SGA
02A_3,-0.7790151806,0.5368509394,2,low,CGA
GR01A_3,-0.0335737252,-0.5076576309,2,low,SGR
03A_3,-1.2721474387,0.4799817298,2,low,CGA
04A_3,-0.8990945122,-0.4977525902,2,low,SGA
GR02A_3,-0.9814908353,0.0124641949,2,low,SGR
05A_3,-0.7621242622,-0.2850528468,2,low,SGA
06A_3,-1.0114544166,0.6205078956,2,low,CGA
GR00B_3,-0.5714477385,-1.1707451981,2,mid,SGR
01B_3,-0.2156207727,-1.0050739477,2,mid,SGA
02B_3,-0.0034605939,0.5001030671,2,mid,CGA
GR01B_3,-0.4817586949,-1.1493240392,2,mid,SGR
03B_3,0.3283720208,0.0839659002,2,mid,CGA
04B_3,0.3295093551,-0.4211681471,2,mid,SGA
GR02B_3,-0.6303605226,-0.9840946836,2,mid,SGR
05B_3,0.3195392574,-0.6057355936,2,mid,SGA
06B_3,0.0774351215,0.1492133697,2,mid,CGA
GR00C_3,1.0495353998,-0.7873444409,2,high,SGR
01C_3,1.0495353998,-0.7873444409,2,high,SGA
02C_3,1.0079838146,0.1297762746,2,high,CGA
GR01C_3,0.6114072988,-0.5305218955,2,high,SGR
03C_3,0.8206416038,0.6154395496,2,high,CGA
04C_3,1.5244784128,0.2653984725,2,high,SGA
GR03A_3,-0.2257337028,-0.3256266442,2,low,SGR
07A_3,-1.0079166668,0.4005596419,2,low,CGA
08A_3,-0.5639662205,-0.5136503231,2,low,SGA
GR04A_3,-0.922132648,-0.0709979913,2,low,SGR
09A_3,-0.7333911409,-0.1125701023,2,low,SGA
10A_3,-1.0796451593,-0.077160921,2,low,CGA
GR05A_3,-1.095686839,-0.6155186421,2,low,SGR
11A_3,-0.752680609,-0.6340180186,2,low,SGA
12A_3,-1.4969933915,0.4510370101,2,low,CGA
12B_3,-0.1672867308,0.5169796682,2,mid,CGA
11B_3,-0.0514841373,-0.8290921919,2,mid,SGA
GR05B_3,-0.4496287784,-0.6402591671,2,mid,SGR
10B_3,-0.0838920038,0.9826936244,2,mid,CGA
09B_3,-0.3150556343,-0.4879655509,2,mid,SGA
GR04B_3,-0.4839119386,-0.866633908,2,mid,SGR
GR04C_3,2.2166574212,0.5042471145,2,high,SGR
10C_3,0.9520601583,0.2537996585,2,high,CGA
GR05C_3,-0.1864670803,-2.193913062,2,high,SGR
11C_3,1.0495353998,-0.7873444409,2,high,SGA
12C_3,0.9481697574,0.1326614799,2,high,CGA
07C_3,1.1547551079,-0.009140214,2,high,CGA
06C_3,1.1540072598,0.5583909347,2,high,CGA
GR03B_3,-0.924927333,-0.3012916996,2,mid,SGR
07B_3,-1.1633321274,0.1146017504,2,mid,CGA
08B_3,-0.68441901,-1.0070213794,2,mid,SGA
05C_3,1.1930534577,-0.305919078,2,high,SGA
GR03C_3,0.5944713707,1.0854815588,2,high,SGR
GR00A_5,-0.7419194804,-0.0322509604,3,low,SGR
01A_5,-0.5603703497,0.3707257319,3,low,SGA
02A_5,-0.9575544375,0.2111000214,3,low,CGA
GR01A_5,-0.3303808771,0.0013399683,3,low,SGR
03A_5,-0.573626261,0.5453615972,3,low,CGA
04A_5,-0.844676424,0.0547953467,3,low,SGA
GR02A_5,-0.6819289703,0.5089769603,3,low,SGR
05A_5,-0.834602692,0.3712476512,3,low,SGA
06A_5,-0.705410042,0.6466261239,3,low,CGA
GR03A_5,-0.5307500873,0.5296975477,3,low,SGR
08B_5,-0.5884293209,0.2207154179,3,mid,SGA
07B_5,-0.9325472744,0.8784254247,3,mid,CGA
GR03B_5,-0.8248850681,0.1555495062,3,mid,SGR
07A_5,-0.7344028292,0.3616140494,3,low,CGA
08A_5,-1.0867277267,0.2884767474,3,low,SGA
GR04A_5,-0.5549516497,0.1508107982,3,low,SGR
09A_5,-0.5540405605,0.2639045688,3,low,SGA
10A_5,-0.9472886975,0.6009140708,3,low,CGA
GR05A_5,-0.4248299821,0.4983539896,3,low,SGR
11A_5,-0.9178590628,0.8944341549,3,low,SGA
12A_5,-0.9491079548,0.5678539557,3,low,CGA
11B_5,-0.0583472467,-0.0680879638,3,mid,SGA
12B_5,-0.2766423985,0.8064264211,3,mid,CGA
GR05B_5,0.1236414706,0.4135484431,3,mid,SGR
10B_5,-0.0100486122,0.748724603,3,mid,CGA
09B_5,0.0471078389,0.2394929477,3,mid,SGA
12C_5,0.7389415777,0.1827207039,3,high,CGA
11C_5,0.8795626698,-0.1394675868,3,high,SGA
GR05C_5,0.7094271134,-0.1716310781,3,high,SGR
GR04B_5,0.6135306682,0.5235353993,3,mid,SGR
GR04C_5,0.6860309491,0.3130627748,3,high,SGR
09C_5,0.5380206217,0.0024693697,3,high,SGA
10C_5,0.7007546344,0.2437274024,3,high,CGA
GR02B_5,0.2912256959,-0.4586418959,3,mid,SGR
GR01B_5,-0.0600566661,-0.6842534062,3,mid,SGR
GR00B_5,-0.1005419313,-0.3144899074,3,mid,SGR
GR00C_5,0.7857831833,0.8955684902,3,high,SGR
01C_5,0.6983261054,0.6660689989,3,high,SGA
02C_5,1.0812903575,0.5434442331,3,high,CGA
GR01C_5,1.4646883622,0.5353053932,3,high,SGR
03C_5,0.6251223993,0.2583630274,3,high,CGA
04C_5,0.9428750952,1.2161012661,3,high,SGA
GR02C_5,0.7612876456,0.3725866722,3,high,SGR
01B_5,-0.2065995299,-0.0374493792,3,mid,SGA
02B_5,-0.4972832494,0.2677366901,3,mid,CGA
03B_5,-0.1730978524,0.2414393774,3,mid,CGA
04B_5,-0.0091592617,-0.0248818368,3,mid,SGA
06B_5,-0.2257938795,0.0949349572,3,mid,CGA
05B_5,0.2537460433,-0.1234598158,3,mid,SGA
05C_5,0.9583824868,0.1405685099,3,high,SGA
06C_5,1.2149495664,0.586972588,3,high,CGA
07C_5,0.8974885402,0.6346975941,3,high,CGA
08C_5,0.6268300302,0.8675082912,3,high,SGA
GR03C_5,1.1458723766,0.0340244238,3,high,SGR
GR00A_7,-0.6549775764,0.080760801,4,low,SGR
01A_7,-1.0569065482,0.2908152392,4,low,SGA
02A_7,-0.9823911984,0.3054781837,4,low,CGA
GR01A_7,-0.3593887168,0.0594678898,4,low,SGR
03A_7,-0.6109641035,0.4724202463,4,low,CGA
04A_7,-0.5959707165,0.0022361037,4,low,SGA
GR02A_7,-0.4392131449,0.1738582208,4,low,SGR
05A_7,-0.8334424771,0.3376622574,4,low,SGA
06A_7,-0.8475050658,0.7365611503,4,low,CGA
GR03A_7,-0.8545712476,0.4761889239,4,low,SGR
07A_7,-0.929468204,0.3359123518,4,low,CGA
08A_7,-0.904963067,0.4811902435,4,low,SGA
GR04A_7,-0.3894227506,0.1904853933,4,low,SGR
09A_7,-0.8506593928,0.3050853505,4,low,SGA
10A_7,-0.6576021249,0.4585700249,4,low,CGA
GR05A_7,-0.6553946166,0.7449936918,4,low,SGR
11A_7,-1.1240102973,0.4574466873,4,low,SGA
12A_7,-0.987806233,0.416126932,4,low,CGA
GR00B_7,-0.3704085307,-0.7180407237,4,mid,SGR
01B_7,-0.6109636462,-0.1717460964,4,mid,SGA
02B_7,-0.2134127575,0.1974317823,4,mid,CGA
GR01B_7,0.1895611374,-0.4307112266,4,mid,SGR
03B_7,-0.0025717652,0.28248439,4,mid,SGA
04B_7,0.1576275675,-0.3044504818,4,mid,CGA
GR02B_7,0.2345330589,-0.7421796136,4,mid,SGR
05B_7,0.1794634332,-0.1417977373,4,mid,SGA
06B_7,-0.0078600702,-0.1836751975,4,mid,CGA
GR03B_7,-0.4378838065,-0.1653791588,4,mid,SGR
07B_7,-0.9175256884,1.033080394,4,mid,CGA
08B_7,-0.4424676276,0.4473443557,4,mid,SGA
GR04B_7,0.4806585235,0.869130724,4,mid,SGR
09B_7,0.2715677854,0.5784600989,4,mid,SGA
10B_7,-0.1591435687,0.4031423982,4,mid,CGA
GR05B_7,-0.0368792801,0.3925220433,4,mid,SGR
11B_7,0.2292478036,-0.2154237097,4,mid,SGA
12B_7,-0.4031287005,0.8629352509,4,mid,CGA
GR00C_7,1.1934918844,0.0448098133,4,high,SGR
01C_7,1.0682868427,0.5702991871,4,high,SGA
02C_7,0.960651306,0.3299307958,4,high,CGA
GR01C_7,1.1404057072,0.118335601,4,high,SGR
03C_7,0.9571807276,0.3878659307,4,high,CGA
04C_7,0.9321958655,0.1882753669,4,high,SGA
GR02C_7,0.7455599108,0.002206095,4,high,SGR
05C_7,0.910567232,0.294095674,4,high,SGA
06C_7,1.1452294197,0.5927668178,4,high,CGA
GR03C_7,1.4126882509,0.6247494369,4,high,SGR
07C_7,1.1714329765,0.2208585587,4,high,CGA
08C_7,1.4551861309,0.8000052095,4,high,SGA
GR04C_7,0.7427548715,0.0586020759,4,high,SGR
09C_7,0.518540623,-0.0334819168,4,high,SGA
10C_7,0.4817332023,0.2194545517,4,high,CGA
GR05C_7,0.626802922,-0.4085940921,4,high,SGR
11C_7,0.6264454805,0.0313789484,4,high,SGA
12C_7,0.5565445552,0.2634803038,4,high,CGA
