"","NMDS1","NMDS2","month","zone","treatment","zonetreat"
"GR00B_2",-1.95108359723029,0.0526873690136568,1,"mid","SGR","midSGR"
"01B_2",-1.80606821770114,-0.238169812398321,1,"mid","SGA","midSGA"
"02B_2",0.448764275867106,0.0817123654559177,1,"mid","CGA","midCGA"
"GR01B_2",-1.15308685825015,0.400059082797238,1,"mid","SGR","midSGR"
"03B_2",0.449508099157248,0.475270583063812,1,"mid","CGA","midCGA"
"04B_2",-1.20191486277378,-0.0304773122284362,1,"mid","SGA","midSGA"
"GR02B_2",-1.9510983257445,0.0526172541346152,1,"mid","SGR","midSGR"
"05B_2",-0.497229188751727,-0.833992535539125,1,"mid","SGA","midSGA"
"06B_2",0.437491599579943,0.180020862404641,1,"mid","CGA","midCGA"
"12B_2",0.794278604341655,-0.169924815149348,1,"mid","CGA","midCGA"
"11B_2",-1.95109839525857,0.0526169231831251,1,"mid","SGA","midSGA"
"GR05B_2",-1.95111001853284,0.0525615815487262,1,"mid","SGR","midSGR"
"10B_2",0.610600082745841,0.358004517867347,1,"mid","CGA","midCGA"
"09B_2",-0.522636400770982,1.22550616648758,1,"mid","SGA","midSGA"
"GR04B_2",-1.15520374538827,0.397057139970679,1,"mid","SGR","midSGR"
"08B_2",-1.23443190027527,-1.1586957670458,1,"mid","SGA","midSGA"
"07B_2",1.36493520918936,-0.13888637436462,1,"mid","CGA","midCGA"
"GR03B_2",-1.95109093069765,0.0526524597700616,1,"mid","SGR","midSGR"
"GR00B_3",-0.876714150043495,-0.378678524188393,2,"mid","SGR","midSGR"
"01B_3",-0.658998250256719,0.137588444497903,2,"mid","SGA","midSGA"
"02B_3",0.705789044240133,0.0346938814514069,2,"mid","CGA","midCGA"
"GR01B_3",-0.802278888209202,-0.403100642250641,2,"mid","SGR","midSGR"
"03B_3",0.44707840169049,0.463594470668538,2,"mid","CGA","midCGA"
"04B_3",-0.218992302604823,0.339718280403004,2,"mid","SGA","midSGA"
"GR02B_3",-0.567918828109267,-0.568466831637191,2,"mid","SGR","midSGR"
"05B_3",-0.432752136789593,0.439843732998381,2,"mid","SGA","midSGA"
"06B_3",0.4576713524781,0.248599347361122,2,"mid","CGA","midCGA"
"12B_3",0.8582050685614,-0.068997298005586,2,"mid","CGA","midCGA"
"11B_3",-0.506562335599087,0.357222882525997,2,"mid","SGA","midSGA"
"GR05B_3",-0.275715242486727,0.544648147880691,2,"mid","SGR","midSGR"
"10B_3",0.978235054797825,0.543164586678745,2,"mid","CGA","midCGA"
"09B_3",-0.109246753696767,-0.196278126469056,2,"mid","SGA","midSGA"
"GR04B_3",-0.379960142918448,-0.614142367550018,2,"mid","SGR","midSGR"
"GR03B_3",0.206214746093028,-0.772582960344883,2,"mid","SGR","midSGR"
"07B_3",0.907965294248694,-0.702305096566793,2,"mid","CGA","midCGA"
"08B_3",-0.542257048676619,-0.660109336008162,2,"mid","SGA","midSGA"
"08B_5",0.625381645879581,-0.536727671442761,3,"mid","SGA","midSGA"
"07B_5",1.04478576845117,-0.709155214360809,3,"mid","CGA","midCGA"
"GR03B_5",0.581210884607778,-0.641749731566667,3,"mid","SGR","midSGR"
"11B_5",0.365048982870417,0.000811004799823185,3,"mid","SGA","midSGA"
"12B_5",1.17438214287262,-0.241368740800118,3,"mid","CGA","midCGA"
"GR05B_5",0.822891308425694,0.194827302185398,3,"mid","SGR","midSGR"
"10B_5",0.944699261307437,0.233149760246701,3,"mid","CGA","midCGA"
"09B_5",0.509191874412818,0.29001580105718,3,"mid","SGA","midSGA"
"GR04B_5",0.424591585816069,0.926481831351857,3,"mid","SGR","midSGR"
"GR02B_5",-0.208108174155984,0.445065783710998,3,"mid","SGR","midSGR"
"GR01B_5",-0.27796581959369,0.0964647271268709,3,"mid","SGR","midSGR"
"GR00B_5",0.0327056549453431,0.00895615067950411,3,"mid","SGR","midSGR"
"01B_5",0.199833149432841,-0.110632389503729,3,"mid","SGA","midSGA"
"02B_5",0.641917230052933,-0.226639247100775,3,"mid","CGA","midCGA"
"03B_5",0.538681564867379,0.0291046037734493,3,"mid","CGA","midCGA"
"04B_5",0.209838663937983,0.0560682757233115,3,"mid","SGA","midSGA"
"06B_5",0.428071140612787,-0.213637664336431,3,"mid","CGA","midCGA"
"05B_5",-0.00133567689393216,0.303201489505473,3,"mid","SGA","midSGA"
"GR00B_7",-0.391393750494205,-0.116921365864517,4,"mid","SGR","midSGR"
"01B_7",0.265012191074309,-0.403398417679034,4,"mid","SGA","midSGA"
"02B_7",0.567573497598142,-0.121891496247771,4,"mid","CGA","midCGA"
"GR01B_7",-0.29806489461733,-0.0486867481079701,4,"mid","SGR","midSGR"
"03B_7",0.541516486263605,0.190250654151479,4,"mid","SGA","midSGA"
"04B_7",0.128008976449633,0.507007162887575,4,"mid","CGA","midCGA"
"GR02B_7",-0.644453123063221,-0.0116891649054499,4,"mid","SGR","midSGR"
"05B_7",-0.0302827273028449,0.267838979489008,4,"mid","SGA","midSGA"
"06B_7",0.16742485620362,0.128954218860538,4,"mid","CGA","midCGA"
"GR03B_7",0.0636825707890013,-0.441925991844795,4,"mid","SGR","midSGR"
"07B_7",1.20779201149661,-0.595817477587942,4,"mid","CGA","midCGA"
"08B_7",0.724538870005069,-0.46098547614625,4,"mid","SGA","midSGA"
"GR04B_7",0.598778171870461,1.11811012791579,4,"mid","SGR","midSGR"
"09B_7",0.645157383378436,0.639146476852684,4,"mid","SGA","midSGA"
"10B_7",0.745859982931784,0.349786686183491,4,"mid","CGA","midCGA"
"GR05B_7",0.368264687717444,-0.505724282887687,4,"mid","SGR","midSGR"
"11B_7",0.229807795227982,0.493581401085082,4,"mid","SGA","midSGA"
"12B_7",1.08566751439736,-0.446903637620333,4,"mid","CGA","midCGA"
