treatment,zone,Interval,total_species
CGA,low,a,20
CGA,low,a,20
CGA,low,a,20
CGA,low,a,20
CGA,low,a,20
CGA,low,a,20
CGA,mid,a,15
CGA,mid,a,15
CGA,mid,a,15
CGA,mid,a,15
CGA,mid,a,15
CGA,mid,a,15
CGA,high,a,10
CGA,high,a,10
CGA,high,a,10
CGA,high,a,10
CGA,high,a,10
CGA,high,a,10
SGA,low,a,1
SGA,low,a,1
SGA,low,a,1
SGA,low,a,1
SGA,low,a,1
SGA,low,a,1
SGA,mid,a,0
SGA,mid,a,0
SGA,mid,a,0
SGA,mid,a,0
SGA,mid,a,0
SGA,mid,a,0
SGA,high,a,1
SGA,high,a,1
SGA,high,a,1
SGA,high,a,1
SGA,high,a,1
SGA,high,a,1
SGR,low,a,1
SGR,low,a,1
SGR,low,a,1
SGR,low,a,1
SGR,low,a,1
SGR,low,a,1
SGR,mid,a,0
SGR,mid,a,0
SGR,mid,a,0
SGR,mid,a,0
SGR,mid,a,0
SGR,mid,a,0
SGR,high,a,1
SGR,high,a,1
SGR,high,a,1
SGR,high,a,1
SGR,high,a,1
SGR,high,a,1
CGA,low,b,20
CGA,low,b,20
CGA,low,b,20
CGA,low,b,20
CGA,low,b,20
CGA,low,b,20
CGA,mid,b,15
CGA,mid,b,15
CGA,mid,b,15
CGA,mid,b,15
CGA,mid,b,15
CGA,mid,b,15
CGA,high,b,10
CGA,high,b,10
CGA,high,b,10
CGA,high,b,10
CGA,high,b,10
CGA,high,b,10
SGA,low,b,15
SGA,low,b,15
SGA,low,b,15
SGA,low,b,15
SGA,low,b,15
SGA,low,b,15
SGA,mid,b,10
SGA,mid,b,10
SGA,mid,b,10
SGA,mid,b,10
SGA,mid,b,10
SGA,mid,b,10
SGA,high,b,5
SGA,high,b,5
SGA,high,b,5
SGA,high,b,5
SGA,high,b,5
SGA,high,b,5
SGR,low,b,10
SGR,low,b,10
SGR,low,b,10
SGR,low,b,10
SGR,low,b,10
SGR,low,b,10
SGR,mid,b,8
SGR,mid,b,8
SGR,mid,b,8
SGR,mid,b,8
SGR,mid,b,8
SGR,mid,b,8
SGR,high,b,2
SGR,high,b,2
SGR,high,b,2
SGR,high,b,2
SGR,high,b,2
SGR,high,b,2
CGA,low,c,20
CGA,low,c,20
CGA,low,c,20
CGA,low,c,20
CGA,low,c,20
CGA,low,c,20
CGA,mid,c,15
CGA,mid,c,15
CGA,mid,c,15
CGA,mid,c,15
CGA,mid,c,15
CGA,mid,c,15
CGA,high,c,10
CGA,high,c,10
CGA,high,c,10
CGA,high,c,10
CGA,high,c,10
CGA,high,c,10
SGA,low,c,18
SGA,low,c,18
SGA,low,c,18
SGA,low,c,18
SGA,low,c,18
SGA,low,c,18
SGA,mid,c,13
SGA,mid,c,13
SGA,mid,c,13
SGA,mid,c,13
SGA,mid,c,13
SGA,mid,c,13
SGA,high,c,8
SGA,high,c,8
SGA,high,c,8
SGA,high,c,8
SGA,high,c,8
SGA,high,c,8
SGR,low,c,15
SGR,low,c,15
SGR,low,c,15
SGR,low,c,15
SGR,low,c,15
SGR,low,c,15
SGR,mid,c,10
SGR,mid,c,10
SGR,mid,c,10
SGR,mid,c,10
SGR,mid,c,10
SGR,mid,c,10
SGR,high,c,5
SGR,high,c,5
SGR,high,c,5
SGR,high,c,5
SGR,high,c,5
SGR,high,c,5
