T,Treat,nonalgal_cover,green_cover,red_cover,brown_cover,bare.rock
0,CGA,16.3604938272,0.0493827161,59.790123457,23.6,0.2
1,CGA,8.079180159,0.1662510391,59.951812012,30.7611940295,1
2,CGA,10.4441473561,0,57.2421271544,29.8300653595,2.4836601308
12,CGA,9.7120079097,0.3304424735,71.0097800223,13.9882178052,4.8767359279
13,CGA,9.1740309096,0.041356493,71.4345116204,15.4477424913,3.8192329658
14,CGA,12.8903231098,0.1675041876,64.9276356232,18.1244319864,3.9738571872
0,SGA,12.2857142857,0.3571428571,76.2857142857,11.1428571429,0
1,SGA,0.0414593698,0,0,0,99.79239298
2,SGA,0,0,0.6658374793,0,99.2512437807
12,SGA,35.5631071574,0.5,17.4775767876,0.5,45.9178566846
13,SGA,40.807692308,8.4367245661,16.141852771,1.329611249,33.408188586
14,SGA,34.5655696782,3.6884925425,22.6759996378,2.7972793493,36.2726587922
0,SGR,5.7288479832,0.5103092784,71.1653126638,20.4296946638,2.1658354115
1,SGR,0.0415627598,0,0.4991687448,0,99.3763497552
2,SGR,0,3.8333333333,2.6658374793,0.3333333333,93.2088518333
11,SGR,30,0,9,4,57
12,SGR,15.3719764287,0.7896955296,39.1430391001,8.5493578979,36.1459310447
13,SGR,21.1695655933,4.9033465187,26.1208702371,7.1414872738,40.664730377
14,SGR,15.9955293974,14.8315018315,26.4275127032,10.772030895,32.234222443
