,plot_name,plot_number,zone,jump,installyear,date,dateyear,datemonth,dateday,Interval,transect,monthsinceinstall,treat_disturbance,treat_grazer,treatment,census,total_cover,algal_cover,nonalgal_cover,green_cover,red_cover,brown_cover,bare.rock,total_species,Acrosiphonia,Ahnfeltia.fastigiata,Alaria.marginata,Analipus.japonicus,Bangia,Blidingia.minima,Bosiella.plumosa,Calliarthron.tuberculosum,Callithamnion.pikeanum,Ceramium.pacificum,Cladophora.columbiana,Codium.setchellii,Corallina.cretacea,Corallina.officinalis,Corallina.frondescens,Corallina.vancouveriensis,CAC.wintering,Cryptopleura.lobulifera,Cumagloia.andersonii,diatoms,Dilsia,Endocladia.muricata,Fucus.gardneri,Hallosaccion.glandiforme,Hildenbrandia,Hymenena.multiloba,Leathesia.difformis,Lithophyllum.impressum,Lithothamnion.phymatodeum,Mastocarpus.crust.morph,Mastocarpus,Mazzaella,Mazzaella.parksii,Melanosiphon,Microcladia.borealis,Odonthalia.floccosa,Osmundea.spectabilis,Pelvetiopsis.limitata,Plocamium,Polysiphonia,Porphyra,Pseudolithothyllum.muricatum,Pseudolithophyllum.whidbeyense,Ralfsia,Saccharina,Ulva.lactuta,UrosporaBlidingia,Urospora.wormskioldii,unknown.red,plotbyint
GR00B_2,GR00B,30,mid,north,2011,07/15/11,2011,7,15,2,13,1,succession,reduced_grazers,SGR,check,100,85,0,85,0,0,15,1,0,0,0,0,0,0,0,0,0,0,0,0,0,0,0,0,0,0,0,85,0,0,0,0,0,0,0,0,0,0,0,0,0,0,0,0,0,0,0,0,0,0,0,0,0,0,0,0,0,GR00B_2
GR00A_2,GR00A,2,low,north,2011,07/15/11,2011,7,15,2,13,1,succession,reduced_grazers,SGR,check,100.25,32,0.25,30,2,0,68,2,0,0,0,0,0,0,0,0,0,0,0,0,0,0,0,0,0,0,0,30,0,0,0,0,0,0,0,0,0,2,0,0,0,0,0,0,0,0,0,0,0,0,0,0,0,0,0,0,0,GR00A_2
01C_2,01C,56,high,north,2011,07/15/11,2011,7,15,2,1,1,succession,ambient_grazers,SGA,check,100.25,0.25,0,0,0,0,100,1,0,0,0,0,0,0,0,0,0,0,0,0,0,0,0,0,0,0,0,0,0,0,0,0,0,0,0,0,0,0.25,0,0,0,0,0,0,0,0,0,0,0,0,0,0,0,0,0,0,0,01C_2
01B_2,01B,32,mid,north,2011,07/15/11,2011,7,15,2,1,1,succession,ambient_grazers,SGA,check,21,21,0,20,0,0,0,2,0,0,0,0,0,0,0,0,0,0,0,0,0,0,0,0,0,0,0,20,0,0,0,0,0,0,0,0,0,0,0,0,0,0,0,0,0,0,0,0,0,0,0,0,0,0,0,1,0,01B_2
01A_2,01A,3,low,north,2011,07/15/11,2011,7,15,2,1,1,succession,ambient_grazers,SGA,check,35,1,0,0,1,0,34,1,0,0,0,0,0,0,0,0,0,0,0,0,0,0,0,0,0,0,0,0,0,0,0,0,0,0,0,0,1,0,0,0,0,0,0,0,0,0,0,0,0,0,0,0,0,0,0,0,0,01A_2
02C_2,02C,57,high,north,2011,07/15/11,2011,7,15,2,2,1,control,ambient_grazers,CGA,check,100.5,99,1.5,0,12,87,0,4,0,0,0,0,0,0,0,0,0,0,0,0,0,0,0,0,0,0,0,0,0,3,0,0,0,0,0,0,0,0,8,1,0,0,0,0,0,87,0,0,0,0,0,0,0,0,0,0,0,02C_2
02B_2,02B,33,mid,north,2011,07/15/11,2011,7,15,2,2,1,control,ambient_grazers,CGA,check,100.25,93,7.25,8,79,6,0,10,0,0,0,0,0,0,0,0,3,0,0,0,0,0,0,14,0,0,0,0,0,6,0,40,0,0,6,0,0,4,2,0,0,0,7,0,0,0,0,0,3,0,0,0,0,8,0,0,0,02B_2
02A_2,02A,4,low,north,2011,07/15/11,2011,7,15,2,2,1,control,ambient_grazers,CGA,check,95,80,10,0,68,12,5,9,0,0,0,0,0,0,0,0,0,0,0,0,0,0,5,15,0,0,0,0,0,0,0,0,0,6,0,10,1,8,0,0,0,0,0,0,0,0,0,0,0,15,8,0,12,0,0,0,0,02A_2
GR01C_2,GR01C,58,high,north,2011,07/15/11,2011,7,15,2,14,1,succession,reduced_grazers,SGR,check,100.25,2,0.25,0,2,0,98,1,0,0,0,0,0,0,0,0,0,0,0,0,0,0,0,0,0,0,0,0,0,0,0,0,0,0,0,0,0,2,0,0,0,0,0,0,0,0,0,0,0,0,0,0,0,0,0,0,0,GR01C_2
GR01B_2,GR01B,34,mid,north,2011,07/15/11,2011,7,15,2,14,1,succession,reduced_grazers,SGR,check,100.25,7.25,0,7,0,0,93,2,0,0,0,0,0,0,0,0,0,0,0,0,0,0,0,0,0,0,0,7,0,0,0,0,0,0,0,0,0,0.25,0,0,0,0,0,0,0,0,0,0,0,0,0,0,0,0,0,0,0,GR01B_2
GR01A_2,GR01A,5,low,north,2011,07/15/11,2011,7,15,2,14,1,succession,reduced_grazers,SGR,check,100.5,40.5,0,40.25,0,0,60,3,0,0,0,0,0,0,0,0,0,0,0,0,0,0,0,0,0,0,0,40,0,0,0,0,0,0,0,0,0,0,0,0,0,0,0,0,0,0,0,0,0,0,0,0,0,0.25,0,0.25,0,GR01A_2
03C_2,03C,6,high,north,2011,07/15/11,2011,7,15,2,3,1,control,ambient_grazers,CGA,check,100,100,0,0,13,87,0,4,0,0,0,0,0,0,0,0,0,0,0,0,0,0,0,0,0,0,0,0,0,4,0,0,0,0,0,0,0,0,6,0,3,0,0,0,0,87,0,0,0,0,0,0,0,0,0,0,0,03C_2
03B_2,03B,35,mid,north,2011,07/15/11,2011,7,15,2,3,1,control,ambient_grazers,CGA,check,100.5,99.25,1.25,0.25,87,12,0,8,0,0,0,0,0,0,0,0,0,0,0,0,0,0,0,5,0,0,0,0,0,6,4,66,0,0,8,0,0,8,2,0,0,0,0,0,0,0,0,0,0,0,0,0,0,0.25,0,0,0,03B_2
03A_2,03A,6,low,north,2011,07/15/11,2011,7,15,2,3,1,control,ambient_grazers,CGA,check,157.25,144,13.25,0,134,10,0,10,0,0,0,0,59,0,0,0,0,0,0,0,0,0,12,27,0,0,0,0,0,0,0,0,0,12,0,2,6,0,0,0,0,0,2,0,0,0,0,0,0,7,7,0,10,0,0,0,0,03A_2
04A_2,04A,7,low,north,2011,07/15/11,2011,7,15,2,4,1,succession,ambient_grazers,SGA,check,76.5,61.5,1,61,0,0,14,3,0,0,0,0,0,0,0,0,0,0,0,0,0,0,0,0,0,0,0,61,0,0,0,0.25,0,0,0,0,0,0,0,0,0,0,0,0,0,0,0,0,0,0,0,0,0,0,0,0.25,0,04A_2
GR02A_2,GR02A,10,low,north,2011,07/15/11,2011,7,15,2,15,1,succession,reduced_grazers,SGR,check,100,65,0,65,0,0,35,1,0,0,0,0,0,0,0,0,0,0,0,0,0,0,0,0,0,0,0,65,0,0,0,0,0,0,0,0,0,0,0,0,0,0,0,0,0,0,0,0,0,0,0,0,0,0,0,0,0,GR02A_2
08A_2,08A,18,low,north,2011,07/15/11,2011,7,15,2,8,1,succession,ambient_grazers,SGA,check,10,5,4,5,0,0,1,1,0,0,0,0,0,0,0,0,0,0,0,0,0,0,0,0,0,0,0,5,0,0,0,0,0,0,0,0,0,0,0,0,0,0,0,0,0,0,0,0,0,0,0,0,0,0,0,0,0,08A_2
07A_2,07A,17,low,north,2011,07/15/11,2011,7,15,2,7,1,control,ambient_grazers,CGA,check,100.5,99.5,1,0.25,90,9,0,13,0,0,0,0,0,0,0,0,12,0,0,0,0,0,28,26,0,0,0,0,0,0,0,0,0,8,0.25,3,1,3,0,0,0,0,3,0,0,0,0,0,0,4,2,0,9,0.25,0,0,0,07A_2
GR03A_2,GR03A,14,low,north,2011,07/15/11,2011,7,15,2,16,1,succession,reduced_grazers,SGR,check,100.25,40.25,2,40.25,0,0,58,2,0,0,0,0,0,0,0,0,0,0,0,0,0,0,0,0,0,0,0,40,0,0,0,0,0,0,0,0,0,0,0,0,0,0,0,0,0,0,0,0,0,0,0,0,0,0.25,0,0,0,GR03A_2
06A_2,06A,13,low,north,2011,07/15/11,2011,7,15,2,6,1,control,ambient_grazers,CGA,check,101.5,94.25,7.25,0,86,8,0,11,0,0,0,0,0,0,0,0,0.25,0,0,0,0,0,10,6,0,0,0,0,0,0,0,0,0,33,0,2,5,4,0,0,0,0,0,0,0,0,0,0,0,10,13,0,8,0,0,0,3,06A_2
04C_2,04C,60,high,north,2011,07/15/11,2011,7,15,2,4,1,succession,ambient_grazers,SGA,check,100.25,0.25,0,0,0,0,100,1,0,0,0,0,0,0,0,0,0,0,0,0,0,0,0,0,0,0,0,0,0,0,0,0,0,0,0,0,0,0.25,0,0,0,0,0,0,0,0,0,0,0,0,0,0,0,0,0,0,0,04C_2
04B_2,04B,36,mid,north,2011,07/15/11,2011,7,15,2,4,1,succession,ambient_grazers,SGA,check,100.25,95.25,0,84.25,0,0,5,3,0,0,0,0,0,0,0,0,0,0,0,0,0,0,0,0,0,0,0,84,0,0,0,0,0,0,0,0,0,0,0,0,0,0,0,0,0,0,0,0,0,0,0,0,0,0.25,0,11,0,04B_2
GR02C_2,GR02C,61,high,north,2011,07/15/11,2011,7,15,2,15,1,succession,reduced_grazers,SGR,check,100.5,0.5,0,0,0,0,100,2,0,0,0,0,0,0,0,0,0,0,0,0,0,0,0,0,0,0,0,0,0,0,0,0,0,0,0,0,0,0.25,0,0,0,0,0,0,0,0.25,0,0,0,0,0,0,0,0,0,0,0,GR02C_2
GR02B_2,GR02B,39,mid,north,2011,07/15/11,2011,7,15,2,15,1,succession,reduced_grazers,SGR,check,80,20,0,20,0,0,60,1,0,0,0,0,0,0,0,0,0,0,0,0,0,0,0,0,0,0,0,20,0,0,0,0,0,0,0,0,0,0,0,0,0,0,0,0,0,0,0,0,0,0,0,0,0,0,0,0,0,GR02B_2
05C_2,05C,62,high,north,2011,07/15/11,2011,7,15,2,5,1,succession,ambient_grazers,SGA,check,100.5,0.25,0.25,0,0,0,100,1,0,0,0,0,0,0,0,0,0,0,0,0,0,0,0,0,0,0,0,0,0,0,0,0,0,0,0,0,0,0,0,0,0,0,0,0,0,0.25,0,0,0,0,0,0,0,0,0,0,0,05C_2
05B_2,05B,41,mid,north,2011,07/15/11,2011,7,15,2,5,1,succession,ambient_grazers,SGA,check,83,13,0,3,0,0,70,2,0,0,0,0,0,0,0,0,0,0,0,0,0,0,0,0,0,0,0,0,0,0,0,0,0,0,0,0,0,0,0,0,0,0,0,0,0,0,0,0,0,0,0,0,0,3,0,10,0,05B_2
06C_2,06C,63,high,north,2011,07/15/11,2011,7,15,2,6,1,control,ambient_grazers,CGA,check,100,100,0,0,97,3,0,4,0,0,0,0,0,0,0,0,0,0,0,0,0,0,0,0,0,0,0,0,0,4,0,0,0,0,0,0,0,0,3,0,90,0,0,0,0,3,0,0,0,0,0,0,0,0,0,0,0,06C_2
06B_2,06B,42,mid,north,2011,07/15/11,2011,7,15,2,6,1,control,ambient_grazers,CGA,check,100,81,19,3,72,6,0,8,0,0,0,0,0,0,0,0,1,0,0,0,0,0,0,11,0,0,0,0,0,7,0,43,0,0,6,0,0,6,4,0,0,0,0,0,0,0,0,0,0,0,0,0,0,3,0,0,0,06B_2
GR03C_2,GR03C,64,high,north,2011,07/15/11,2011,7,15,2,16,1,succession,reduced_grazers,SGR,check,100,1,0,0,1,0,99,1,0,0,0,0,0,0,0,0,0,0,0,0,0,0,0,0,0,0,0,0,0,0,0,0,0,0,0,0,0,1,0,0,0,0,0,0,0,0,0,0,0,0,0,0,0,0,0,0,0,GR03C_2
07C_2,07C,65,high,north,2011,07/15/11,2011,7,15,2,7,1,control,ambient_grazers,CGA,check,100,87,13,0,79,8,0,3,0,0,0,0,0,0,0,0,0,0,0,0,0,0,0,0,0,0,0,0,0,78,0,0,0,0,0,0,0,0,0,1,0,0,0,0,0,8,0,0,0,0,0,0,0,0,0,0,0,07C_2
08C_2,08C,66,high,north,2011,07/15/11,2011,7,15,2,8,1,succession,ambient_grazers,SGA,check,100.25,0.25,0,0,0,0,100,1,0,0,0,0,0,0,0,0,0,0,0,0,0,0,0,0,0,0,0,0,0,0,0,0,0,0,0,0,0,0.25,0,0,0,0,0,0,0,0,0,0,0,0,0,0,0,0,0,0,0,08C_2
GR04A_2,GR04A,19,low,south,2011,07/16/11,2011,7,16,2,17,1,succession,reduced_grazers,SGR,check,100.25,5.25,3,2,3,0,92,3,0,0,0,0,0,0,0,0,0,0,0,0,0,0,0,0,3,0,0,2,0,0,0,0,0,0,0,0,0,0,0,0.25,0,0,0,0,0,0,0,0,0,0,0,0,0,0,0,0,0,GR04A_2
09A_2,09A,21,low,south,2011,07/16/11,2011,7,16,2,9,1,succession,ambient_grazers,SGA,check,11,1,1,0,1,0,9,1,0,0,0,0,0,0,0,0,0,0,0,0,0,0,0,0,0,0,0,0,0,0,0,0,0,0,0,0,0,1,0,0,0,0,0,0,0,0,0,0,0,0,0,0,0,0,0,0,0,09A_2
10A_2,10A,22,low,south,2011,07/16/11,2011,7,16,2,10,1,control,ambient_grazers,CGA,check,100.25,72.25,21,0,65,7,7,8,0,0,0,0,0,0,0,0,0,0,0,0,0,0,5,24,0,0,0,0,0,0,0,0,0,3,0,0.25,0,3,0,0,0,0,0,0,0,0,0,0,0,16,14,0,7,0,0,0,0,10A_2
GR05A_2,GR05A,23,low,south,2011,07/16/11,2011,7,16,2,18,1,succession,ambient_grazers,SGR,check,100,35,4,35,0,0,61,1,0,0,0,0,0,0,0,0,0,0,0,0,0,0,0,0,0,0,0,35,0,0,0,0,0,0,0,0,0,0,0,0,0,0,0,0,0,0,0,0,0,0,0,0,0,0,0,0,0,GR05A_2
11A_2,11A,24,low,south,2011,07/16/11,2011,7,16,2,11,1,succession,ambient_grazers,SGA,check,21,2,0,0,2,0,19,1,0,0,0,0,0,0,0,0,0,0,0,0,0,0,0,0,0,0,0,0,0,0,0,0,0,2,0,0,0,0,0,0,0,0,0,0,0,0,0,0,0,0,0,0,0,0,0,0,0,11A_2
12A_2,12A,25,low,south,2011,07/16/11,2011,7,16,2,12,1,control,ambient_grazers,CGA,check,98.5,85.5,2,0,73,13,11,10,0,0,0,0,0,0,0,0,1,0,0,0,0,0,11,37,0,0,0,0,0,0,0,0,0,0,0,5,0.25,1,0.25,0,0,0,0,0,0,0,0,0,0,10,7,0,13,0,0,0,0,12A_2
12C_2,12C,72,high,south,2011,07/16/11,2011,7,16,2,12,1,control,ambient_grazers,CGA,check,100,67,27,0,67,0,6,4,0,0,0,0,0,0,0,0,0,0,0,0,0,0,0,0,0,0,0,0,0,17,0,0,0,0,0,0,0,6,22,22,0,0,0,0,0,0,0,0,0,0,0,0,0,0,0,0,0,12C_2
10C_2,10C,69,high,south,2011,07/16/11,2011,7,16,2,10,1,control,ambient_grazers,CGA,check,100.25,93.25,7,1,92,0,0,6,0,0,0,0,0,0,0,0,0,0,0,0,0,0,0,0,0,0,0,0,0,51,0,0,0,0,0,0,0,1,20,0,20,0,0,0,0,0,0,0,0.25,0,0,0,0,1,0,0,0,10C_2
12B_2,12B,54,mid,south,2011,07/16/11,2011,7,16,2,12,1,control,ambient_grazers,CGA,check,100.25,92.25,8,1,91,0,0,8,0,0,0,0,0,0,0,0,22,0,0,0,0,0,0,26,0,0,0,0,0,6,0,7,0,0,0.25,0,0,0,0,0,0,0,29,0,0,0,0,0,1,0,0,0,0,1,0,0,0,12B_2
11B_2,11B,53,mid,south,2011,07/16/11,2011,7,16,2,11,1,succession,ambient_grazers,SGA,check,100,42,0,42,0,0,58,1,0,0,0,0,0,0,0,0,0,0,0,0,0,0,0,0,0,0,0,42,0,0,0,0,0,0,0,0,0,0,0,0,0,0,0,0,0,0,0,0,0,0,0,0,0,0,0,0,0,11B_2
GR05B_2,GR05B,51,mid,south,2011,07/16/11,2011,7,16,2,18,1,succession,reduced_grazers,SGR,check,100,80,0,80,0,0,20,1,0,0,0,0,0,0,0,0,0,0,0,0,0,0,0,0,0,0,0,80,0,0,0,0,0,0,0,0,0,0,0,0,0,0,0,0,0,0,0,0,0,0,0,0,0,0,0,0,0,GR05B_2
10B_2,10B,50,mid,south,2011,07/16/11,2011,7,16,2,10,1,control,ambient_grazers,CGA,check,100,100,0,2,98,0,0,8,0,0,0,0,0,0,0,0,2,0,0,0,0,0,0,0,0,0,0,0,0,1,0,63,0,0,0,0,0,0,7,9,0,0,14,0,0,0,0,0,2,0,0,0,0,2,0,0,0,10B_2
09B_2,09B,49,mid,south,2011,07/16/11,2011,7,16,2,9,1,succession,ambient_grazers,SGA,check,100,1,0,0,1,0,99,1,0,0,0,0,0,0,0,0,0,0,0,0,0,0,0,0,0,0,0,0,0,0,0,0,0,0,0,0,0,1,0,0,0,0,0,0,0,0,0,0,0,0,0,0,0,0,0,0,0,09B_2
GR04B_2,GR04B,46,mid,south,2011,07/16/11,2011,7,16,2,17,1,succession,reduced_grazers,SGR,check,100.25,10.25,0,10,0,0,90,2,0,0,0,0,0,0,0,0,0,0,0,0,0,0,0,0,0,0,0,10,0,0,0,0,0,0,0,0,0,0.25,0,0,0,0,0,0,0,0,0,0,0,0,0,0,0,0,0,0,0,GR04B_2
08B_2,08B,45,mid,south,2011,07/16/11,2011,7,16,2,8,1,succession,ambient_grazers,SGA,check,100.25,100.25,0,0.25,100,0,0,2,0,0,0,0,100,0,0,0,0,0,0,0,0,0,0,0,0,0,0,0.25,0,0,0,0,0,0,0,0,0,0,0,0,0,0,0,0,0,0,0,0,0,0,0,0,0,0,0,0,0,08B_2
07B_2,07B,44,mid,south,2011,07/16/11,2011,7,16,2,7,1,control,ambient_grazers,CGA,check,100,100,0,0,100,0,0,3,0,0,0,0,0,0,0,0,0,0,0,0,0,0,0,65,0,0,0,0,0,5,0,0,0,0,0,0,0,0,0,0,0,0,30,0,0,0,0,0,0,0,0,0,0,0,0,0,0,07B_2
GR03B_2,GR03B,43,mid,north,2011,07/16/11,2011,7,16,2,16,1,succession,reduced_grazers,SGR,check,100,95,0,95,0,0,5,1,0,0,0,0,0,0,0,0,0,0,0,0,0,0,0,0,0,0,0,95,0,0,0,0,0,0,0,0,0,0,0,0,0,0,0,0,0,0,0,0,0,0,0,0,0,0,0,0,0,GR03B_2
GR00A_3,GR00A,2,low,north,2011,08/28/11,2011,8,28,3,13,2,succession,reduced_grazers,SGR,check,100.25,79.25,0,68,1,0,21,5,10,0,0,0,0,10,0,0,0,0,0,0,0,0,0,0,0,0,0,0,0,0,0,0.25,0,0,0,0,0,0,0,0,0,0,0,0,0,0,0,0,1,0,0,0,0,58,0,0,0,GR00A_3
01A_3,01A,3,low,north,2011,08/28/11,2011,8,28,3,1,2,succession,ambient_grazers,SGA,check,100,100,0,5,95,0,0,7,0,0,0,0,40,0,1,0,0,0,0,0,0,0,6,3,42,0,0,0,0,0,0,0,0,0,0,0,3,0,0,0,0,0,0,0,0,0,0,0,0,0,0,0,0,0,5,0,0,01A_3
02A_3,02A,4,low,north,2011,08/28/11,2011,8,28,3,2,2,control,ambient_grazers,CGA,check,100.25,78,22.25,0,67,11,0,9,0,0,0,0,0,0,0,0,0,0,0,0,0,0,5,20,0,0,0,0,0,0,0,0,0,1,0,15,2,1,0,0,0,0,0,0,0,0,0,0,0,13,10,0,11,0,0,0,0,02A_3
GR01A_3,GR01A,5,low,north,2011,08/28/11,2011,8,28,3,14,2,succession,reduced_grazers,SGR,check,101,96.75,4.25,25,72,0,0,8,16,0,0,0,15,0,0,0,0,0,0,0,0,0,0,0,50,0,0,0,0,0,0,0.25,0,0,0,0,0,6,0,0.25,0,0,0.25,0,0,0,0,0,0,0,0,0,0,9,0,0,0,GR01A_3
03A_3,03A,6,low,north,2011,08/28/11,2011,8,28,3,3,2,control,ambient_grazers,CGA,check,93,81,12,0,74,7,0,9,0,0,0,0,0,0,5,0,0,0,0,0,0,0,11,22,0,0,0,0,0,0,0,0,0,13,0,4,5,0,0,0,0,0,0,0,0,0,0,0,0,10,4,0,7,0,0,0,0,03A_3
04A_3,04A,7,low,north,2011,08/28/11,2011,8,28,3,4,2,succession,ambient_grazers,SGA,check,100.25,91.25,3,5,86,0,6,5,0,0,0,0,10,0,0,0,0,0,0,0,0,0,0.25,1,75,0,0,0,0,0,0,0,0,0,0,0,0,0,0,0,0,0,0,0,0,0,0,0,0,0,0,0,0,5,0,0,0,04A_3
GR02A_3,GR02A,10,low,north,2011,08/28/11,2011,8,28,3,15,2,succession,reduced_grazers,SGR,check,97,70,6,2,67,1,21,8,2,0,0,0,8,0,2,0,0,0,0,0,0,0,16,12,28,0,0,0,0,0,0,0,0,0,0,0,0,0,0,0,0,0,0,0,0,0,0,0,1,0,0,0,1,0,0,0,0,GR02A_3
05A_3,05A,12,low,north,2011,08/28/11,2011,8,28,3,5,2,succession,ambient_grazers,SGA,check,99.25,98.25,1,9.25,89,0,0,9,0.25,0,0,0,6,0,3,0,0,0,0,0,0,0,5,5,68,0,0,6,0,0,0,0,0,0,0,0,0,0,0,2,0,0,0,0,0,0,0,0,0,0,0,0,0,3,0,0,0,05A_3
06A_3,06A,13,low,north,2011,08/28/11,2011,8,28,3,6,2,control,ambient_grazers,CGA,check,108,100,8,0,94,6,0,9,0,0,0,0,0,0,0,0,0,0,0,0,0,0,8,29,0,0,0,0,0,0,0,0,0,12,0,4,7,0,0,5,0,0,0,0,0,0,0,0,0,7,22,0,6,0,0,0,0,06A_3
GR00B_3,GR00B,30,mid,north,2011,08/28/11,2011,8,28,3,13,2,succession,reduced_grazers,SGR,check,101.25,101.25,0,20.25,80,0,0,5,0.25,0,0,0,80,1,0,0,0,0,0,0,0,0,0,0,0,0,0,19,0,0,0,0,0,0,0,0,0,0,0,0,0,0,0,0,0,0,0,0,0,0,0,0,0,1,0,0,0,GR00B_3
01B_3,01B,32,mid,north,2011,08/28/11,2011,8,28,3,1,2,succession,ambient_grazers,SGA,check,100.25,93.25,0,93,0,0,7,3,0,0,0,0,0,0,0,0,0,0,0,0,0,0,0,0,0,0,0,5,0,0,0,0.25,0,0,0,0,0,0,0,0,0,0,0,0,0,0,0,0,0,0,0,0,0,88,0,0,0,01B_3
02B_3,02B,33,mid,north,2011,08/28/11,2011,8,28,3,2,2,control,ambient_grazers,CGA,check,99,91,8,3,87,1,0,7,0,0,0,0,0,0,0,0,0,0,0,0,0,0,0,11,0,0,0,0,0,4,0,65,0,0,1,0,0,0,1,0,0,0,6,0,0,0,0,0,0,0,0,0,0,3,0,0,0,02B_3
GR01B_3,GR01B,34,mid,north,2011,08/28/11,2011,8,28,3,14,2,succession,reduced_grazers,SGR,check,100,84,0,24,50,0,16,4,0,0,0,0,50,10,0,0,0,0,0,0,0,0,0,0,0,0,0,20,0,0,0,0,0,0,0,0,0,0,0,0,0,0,0,0,0,0,0,0,0,0,0,0,0,4,0,0,0,GR01B_3
03B_3,03B,35,mid,north,2011,08/28/11,2011,8,28,3,3,2,control,ambient_grazers,CGA,check,100,100,0,1,91,8,0,8,0,0,0,0,0,0,0,0,0,0,0,0,0,0,0,4,0,0,0,0,0,5,4,75,0,0,4,0,0,5,2,0,0,0,0,0,0,0,0,0,0,0,0,0,0,1,0,0,0,03B_3
04B_3,04B,36,mid,north,2011,08/28/11,2011,8,28,3,4,2,succession,ambient_grazers,SGA,check,100,92,0,89,3,0,8,4,0,0,0,0,0,0,0,0,0,0,0,0,0,0,0,0,0,0,0,0,0,0,0,1,0,0,0,0,0,1,1,0,0,0,0,0,0,0,0,0,0,0,0,0,0,89,0,0,0,04B_3
GR02B_3,GR02B,39,mid,north,2011,08/28/11,2011,8,28,3,15,2,succession,reduced_grazers,SGR,check,100,93,0,33,60,0,7,3,0,0,0,0,60,0,0,0,0,0,0,0,0,0,0,0,0,0,0,0,0,0,0,0,0,0,0,0,0,0,0,0,0,0,0,0,0,0,0,0,0,0,0,0,0,27,6,0,0,GR02B_3
05B_3,05B,41,mid,north,2011,08/28/11,2011,8,28,3,5,2,succession,ambient_grazers,SGA,check,100,85,0,82,3,0,15,3,0,0,0,0,0,0,0,0,0,0,0,0,0,0,0,0,0,0,0,0,0,0,0,0,0,0,0,0,0,2,0,1,0,0,0,0,0,0,0,0,0,0,0,0,0,82,0,0,0,05B_3
06B_3,06B,42,mid,north,2011,08/28/11,2011,8,28,3,6,2,control,ambient_grazers,CGA,check,100,84,16,4,78,2,0,9,0,0,0,0,0,0,0,0,0,0,1,0,0,0,0,13,0,0,0,0,0,7,0,46,0,0,2,0,0,4,0,7,0,0,1,0,0,0,0,0,0,0,0,0,0,3,0,0,0,06B_3
GR00C_3,GR00C,55,high,north,2011,08/28/11,2011,8,28,3,13,2,succession,reduced_grazers,SGR,check,100,1,0,0,1,0,99,1,0,0,0,0,0,0,0,0,0,0,0,0,0,0,0,0,0,0,0,0,0,0,0,0,0,0,0,0,0,1,0,0,0,0,0,0,0,0,0,0,0,0,0,0,0,0,0,0,0,GR00C_3
01C_3,01C,56,high,north,2011,08/28/11,2011,8,28,3,1,2,succession,ambient_grazers,SGA,check,100,1,0,0,1,0,99,1,0,0,0,0,0,0,0,0,0,0,0,0,0,0,0,0,0,0,0,0,0,0,0,0,0,0,0,0,0,1,0,0,0,0,0,0,0,0,0,0,0,0,0,0,0,0,0,0,0,01C_3
02C_3,02C,57,high,north,2011,08/28/11,2011,8,28,3,2,2,control,ambient_grazers,CGA,check,100,95,5,0,11,84,0,4,0,0,0,0,0,0,0,0,0,0,0,0,0,0,0,0,0,0,0,0,0,2,0,0,0,0,0,0,0,2,7,0,0,0,0,0,0,84,0,0,0,0,0,0,0,0,0,0,0,02C_3
GR01C_3,GR01C,58,high,north,2011,08/28/11,2011,8,28,3,14,2,succession,reduced_grazers,SGR,check,100,19,0,3,14,2,81,5,0,0,0,0,12,0,0,0,0,0,0,0,0,0,0,0,0,0,0,3,0,0,0,0,0,0,0,0,0,1,1,0,0,0,0,0,0,2,0,0,0,0,0,0,0,0,0,0,0,GR01C_3
03C_3,03C,59,high,north,2011,08/28/11,2011,8,28,3,3,2,control,ambient_grazers,CGA,check,100,100,0,0,12,88,0,4,0,0,0,0,0,0,0,0,0,0,0,0,0,0,0,0,0,0,0,0,0,3,0,0,0,0,0,0,0,0,6,3,0,0,0,0,0,88,0,0,0,0,0,0,0,0,0,0,0,03C_3
04C_3,04C,60,high,north,2011,08/28/11,2011,8,28,3,4,2,succession,ambient_grazers,SGA,check,100,1,0,0,1,0,99,1,0,0,0,0,0,0,0,0,0,0,0,0,0,0,0,0,0,0,0,0,0,0,0,0,0,0,0,0,0,0,1,0,0,0,0,0,0,0,0,0,0,0,0,0,0,0,0,0,0,04C_3
GR03A_3,GR03A,14,low,north,2011,08/29/11,2011,8,29,3,16,2,succession,reduced_grazers,SGR,check,100.5,84.5,1,54.25,30,0,15,11,0,0,0,0,6,0,0,0,0,0,0.25,0,0,0,0,15,0,0,0,7,0,0,0,1,0,0,0,0,0,1,0,5,0,0,0.25,0,0,0,0,0,2,0,0,0,0,30,17,0,0,GR03A_3
07A_3,07A,17,low,north,2011,08/29/11,2011,8,29,3,7,2,control,ambient_grazers,CGA,check,110.5,109.5,1,0.25,96,13,0,10,0,0,0,0,0,0,0,0,11,0,0,0,0,0,19,29,0,0,0,0,0,0,0,0,0,12,0,5,0.25,0,0,0,0,0,0,0,0,0,0,0,0,4,16,0,13,0.25,0,0,0,07A_3
08A_3,08A,18,low,north,2011,08/29/11,2011,8,29,3,8,2,succession,ambient_grazers,SGA,check,100,93,1,48,45,0,6,8,0,0,0,0,12,0,0,0,0,0,0,0,0,0,1,2,27,0,0,15,0,0,0,0,0,0,0,0,0,0,0,3,0,0,0,0,0,0,0,0,0,0,0,0,0,15,18,0,0,08A_3
GR04A_3,GR04A,19,low,south,2011,08/29/11,2011,8,29,3,17,2,succession,reduced_grazers,SGR,check,99,81,4,3,76,2,15,8,0,0,0,0,4,0,0,0,0,0,0,0,0,0,19,13,34,0,0,3,0,0,0,0,0,0,0,0,2,0,0,4,0,0,0,0,0,0,0,0,0,0,0,0,2,0,0,0,0,GR04A_3
09A_3,09A,21,low,south,2011,08/29/11,2011,8,29,3,9,2,succession,ambient_grazers,SGA,check,100.25,93.25,4,43,50,0,3,9,0,0,0,0,0,0,0,0,0,0,1,0,0,0,7,10,29,0,0,0,0,0,0,0,0,0,0,0,0,0,0,2,0,0,0,0,0,0,0,0,0,2,0,0,0.25,36,6,0,0,09A_3
10A_3,10A,22,low,south,2011,08/29/11,2011,8,29,3,10,2,control,ambient_grazers,CGA,check,100,81,9,0,78,3,10,9,0,0,0,0,0,0,0,0,0,0,0,0,0,15,8,0,0,0,0,0,0,0,0,0,0,2,0,3,8,1,0,0,0,0,0,0,0,0,0,0,0,5,36,0,3,0,0,0,0,10A_3
GR05A_3,GR05A,23,low,south,2011,08/29/11,2011,8,29,3,18,2,succession,reduced_grazers,SGR,check,100,99,0,25,74,0,1,6,0,0,0,0,14,0,16,0,0,0,0,0,0,0,32,0,12,0,0,20,0,0,0,0,0,0,0,0,0,0,0,0,0,0,0,0,0,0,0,0,0,0,0,0,0,0,5,0,0,GR05A_3
11A_3,11A,24,low,south,2011,08/29/11,2011,8,29,3,11,2,succession,ambient_grazers,SGA,check,100,94,4,32,62,0,2,5,0,0,0,0,0,0,0,0,0,0,0,0,0,0,0,4,57,0,0,20,0,0,0,0,0,0,0,0,0,0,0,1,0,0,0,0,0,0,0,0,0,0,0,0,0,0,12,0,0,11A_3
12A_3,12A,25,low,south,2011,08/29/11,2011,8,29,3,12,2,control,ambient_grazers,CGA,check,99,83,11,0,69,14,5,8,0,0,0,0,0,0,8,0,0,0,0,0,0,29,8,0,4,0,0,0,0,0,0,0,0,0,0,14,0,0,0,0,0,0,0,0,0,0,0,0,0,3,3,0,14,0,0,0,0,12A_3
12B_3,12B,54,mid,south,2011,08/29/11,2011,8,29,3,12,2,control,ambient_grazers,CGA,check,100,94,2,0,94,0,4,8,0,0,0,0,0,0,0,0,10,0,0,0,0,0,4,21,0,0,0,0,0,9,0,13,0,0,0,0,0,0,3,4,0,0,30,0,0,0,0,0,0,0,0,0,0,0,0,0,0,12B_3
11B_3,11B,53,mid,south,2011,08/29/11,2011,8,29,3,11,2,succession,ambient_grazers,SGA,check,100.5,98.5,0,98,1,0,2,3,0,0,0,0,0,0,0,0,0,0,0,0,0,0,0,0,0,0,0,0,0,0,0,0,0,0,0,0,0,0,0,0.25,0,0,0,0,0,0,0,0,0.25,0,0,0,0,98,0,0,0,11B_3
GR05B_3,GR05B,51,mid,south,2011,08/29/11,2011,8,29,3,18,2,succession,reduced_grazers,SGR,check,100,91,0,23,68,0,9,4,0,0,0,0,0,0,0,0,0,0,0,0,0,0,0,0,66,0,0,0,0,0,0,1,0,0,0,0,0,0,0,1,0,0,0,0,0,0,0,0,0,0,0,0,0,23,0,0,0,GR05B_3
10B_3,10B,50,mid,south,2011,08/29/11,2011,8,29,3,10,2,control,ambient_grazers,CGA,check,100,100,0,0,99,1,0,6,0,0,1,0,0,0,0,0,2,0,0,0,0,1,0,0,0,0,0,0,0,0,0,92,0,0,0,0,0,0,0,3,0,0,1,0,0,0,0,0,0,0,0,0,0,0,0,0,0,10B_3
09B_3,09B,49,mid,south,2011,08/29/11,2011,8,29,3,9,2,succession,ambient_grazers,SGA,check,101.5,101.5,0,99,3,0,0,5,0,0,0,0,0,0,0,0,0,0,0,0,0,0,0,1,0,0,0,0,0,0,0,0.25,0,0,0,0,0,0,0,1,0,0,0,0,0,0,0,0,0,0,0,0,0,99,0,0,0.25,09B_3
GR04B_3,GR04B,46,mid,south,2011,08/29/11,2011,8,29,3,17,2,succession,reduced_grazers,SGR,check,100.25,91.25,0,46,45,0,9,5,1,0,0,0,45,0,0,0,0,0,0,0,0,0,0,0,0,0,0,0,0,0,0,0.25,0,0,0,0,0,0,0,0,0,0,0,0,0,0,0,0,0,0,0,0,0,16,29,0,0,GR04B_3
GR04C_3,GR04C,67,high,south,2011,08/29/11,2011,8,29,3,17,2,succession,reduced_grazers,SGR,check,100.25,0.25,0,0,0,0,100,1,0,0,0,0,0,0,0,0,0,0,0,0,0,0,0,0,0,0,0,0,0,0,0,0,0,0,0,0,0,0,0,0,0.25,0,0,0,0,0,0,0,0,0,0,0,0,0,0,0,0,GR04C_3
10C_3,10C,69,high,south,2011,08/29/11,2011,8,29,3,10,2,control,ambient_grazers,CGA,check,110,91,19,0,91,0,0,4,0,0,0,0,0,0,0,0,0,0,0,0,0,0,0,0,0,0,0,0,0,50,0,0,0,0,0,0,0,3,17,0,21,0,0,0,0,0,0,0,0,0,0,0,0,0,0,0,0,10C_3
11C_3,11C,71,high,south,2011,08/29/11,2011,8,29,3,11,2,succession,ambient_grazers,SGA,check,100,1,0,0,1,0,99,1,0,0,0,0,0,0,0,0,0,0,0,0,0,0,0,0,0,0,0,0,0,0,0,0,0,0,0,0,0,1,0,0,0,0,0,0,0,0,0,0,0,0,0,0,0,0,0,0,0,11C_3
12C_3,12C,72,high,south,2011,08/29/11,2011,8,29,3,12,2,control,ambient_grazers,CGA,check,102,66,31,0,65,1,5,5,0,0,0,0,0,0,0,0,0,0,0,0,0,0,0,0,0,0,0,0,0,15,0,0,0,0,0,0,0,6,25,0,19,0,0,0,0,1,0,0,0,0,0,0,0,0,0,0,0,12C_3
07C_3,07C,65,high,north,2011,08/29/11,2011,8,29,3,7,2,control,ambient_grazers,CGA,check,100,80,10,0,78,2,10,4,0,0,0,0,0,0,0,0,0,0,0,0,0,0,0,0,0,0,0,0,0,74,0,0,0,0,0,0,0,3,0,0,1,0,0,0,0,2,0,0,0,0,0,0,0,0,0,0,0,07C_3
06C_3,06C,63,high,north,2011,08/29/11,2011,8,29,3,6,2,control,ambient_grazers,CGA,check,100,100,0,0,96,4,0,4,0,0,0,0,0,0,0,0,0,0,0,0,0,0,0,0,0,0,0,0,0,7,0,0,0,0,0,0,0,0,3,0,86,0,0,0,0,4,0,0,0,0,0,0,0,0,0,0,0,06C_3
GR03B_3,GR03B,43,mid,north,2011,08/29/11,2011,8,29,3,16,2,succession,reduced_grazers,SGR,check,100,100,0,1,87,0,0,6,0,0,0,0,78,12,0,0,1,0,0,0,0,0,0,7,0,0,0,0,0,0,0,0,0,0,0,0,0,0,0,0,0,0,1,0,0,0,0,0,0,0,0,0,0,1,0,0,0,GR03B_3
07B_3,07B,44,mid,north,2011,08/29/11,2011,8,29,3,7,2,control,ambient_grazers,CGA,check,100.25,99.25,1,0.25,99,0,0,5,0,0,0,0,0,0,0,0,0,20,0,0,0,0,2,23,0,0,0,0,0,0,0,0,0,0,0,0,0,0,0,0,0,0,54,0,0,0,0,0,0,0,0,0,0,0.25,0,0,0,07B_3
08B_3,08B,45,mid,north,2011,08/29/11,2011,8,29,3,8,2,succession,ambient_grazers,SGA,check,100,90,1,17,58,0,9,3,0,0,0,0,58,15,0,0,0,0,0,0,0,0,0,0,0,0,0,0,0,0,0,0,0,0,0,0,0,0,0,0,0,0,0,0,0,0,0,0,0,0,0,0,0,17,0,0,0,08B_3
05C_3,05C,62,high,north,2011,08/29/11,2011,8,29,3,5,2,succession,ambient_grazers,SGA,check,100.5,1.5,0,0,1,0,99,3,0,0,0,0,0,0,0,0,0,0,0,0,0,0,0,0,0,0,0,0,0,0,0,0,0,0,0,0,0,1,0,0,0.25,0,0,0,0,0.25,0,0,0,0,0,0,0,0,0,0,0,05C_3
GR03C_3,GR03C,64,high,north,2011,08/29/11,2011,8,29,3,16,2,succession,reduced_grazers,SGR,check,100.5,0.5,0,0,1,0,100,2,0,0,0,0,0,0,0,0,0,0,0,0,0,0,0,0,0,0,0,0,0,0.25,0,0,0,0,0,0,0,0,0,0.25,0,0,0,0,0,0,0,0,0,0,0,0,0,0,0,0,0,GR03C_3
GR00A_5,GR00A,2,low,north,2011,06/04/12,2012,6,4,5,13,3,succession,reduced_grazers,SGR,check,92,83,0,48,23,12,9,12,15,4,0,0,0,0,0,0,8,0,0,0,0,1,5,0,0,0,0,0,0,0,0,0.25,0,0,0.25,0,0.25,0,0,0,0,0,4,0,0,0,0.25,0,0,0,0,0,12,33,0,0,0,GR00A_5
01A_5,01A,3,low,north,2011,06/04/12,2012,6,4,5,1,3,succession,ambient_grazers,SGA,check,84,82,2,2,70,10,0,8,0,0,0,0,0,0,3,0,37,0,0,0,0,0,0,7,18,0,0,0,0,0,0,0,0,0,0,0,0,0,2,0,0,0,3,0,0,0,0,0,0,0,0,0,10,2,0,0,0,01A_5
02A_5,02A,4,low,north,2011,06/04/12,2012,6,4,5,2,3,control,ambient_grazers,CGA,check,92.5,81.5,6,5,46,31,5,12,4,0,0,0,0,0,0,0,7,0,0,0,0,0,0.25,6,22,0,0,0,0,0,0,0,0,4,0,0,1,0,0,0,0,0,2,0,0,0,0.25,0,0,0,3,0,31,1,0,0,0,02A_5
GR01A_5,GR01A,5,low,north,2011,06/04/12,2012,6,4,5,14,3,succession,reduced_grazers,SGR,check,97.75,83.75,5,29,51,4,9,13,10,0,0,0,0,0,0,0,18,0,0,3,0,0,7,4,7,0,0,0,0,0,0,2,0,0,0.25,0,0,12,0,0,0,0,0.25,0,0,0,0.25,0,0,0,0,0,4,16,0,0,0,GR01A_5
03A_5,03A,6,low,north,2011,06/04/12,2012,6,4,5,3,3,control,ambient_grazers,CGA,check,100.5,93.25,7.25,0,77,16,0,12,0,0,0,0,0,0,0.25,0,4,0,0,0,0,0,5,21,3,0,0,0,0,0,0,0,0,16,0,0,2,0,1,18,0,0,5,0,0,0,2,0,0,0,0,0,16,0,0,0,0.25,03A_5
04A_5,04A,7,low,north,2011,06/04/12,2012,6,4,5,4,3,succession,ambient_grazers,SGA,check,101,69,2,2,52,15,30,8,0,0,0,0,0,0,9,0,2,0,0,0,0,0,0,4,30,0,0,0,0,0,0,0,0,0,0,0,0,0,0,6,0,0,0,0,0,0,1,0,0,0,0,0,15,2,0,0,0,04A_5
GR02A_5,GR02A,10,low,north,2011,06/04/12,2012,6,4,5,15,3,succession,reduced_grazers,SGR,check,102.75,88.75,2,0.25,83,6,12,11,0,0,0,0,0,0,0,0,15,0,0,0,0,0,13,0,7,0,0,0,0,0,0,0.25,0,0,0,0,0,0,0,35,0,0,4,0,0.25,0,3,0,0,5,0,0,6,0.25,0,0,0,GR02A_5
05A_5,05A,12,low,north,2011,06/04/12,2012,6,4,5,5,3,succession,ambient_grazers,SGA,check,100.5,86.5,0,0.25,78,8,14,13,0,0,0,0,0,0,0.25,0,8,0,0,0,0,0,20,21,9,0,0,0,0,0,0,0,0,3,0,0,3,0,0,7,0,0,3,0,1,0,0,0,0,3,0,0,8,0.25,0,0,0,05A_5
06A_5,06A,13,low,north,2011,06/04/12,2012,6,4,5,6,3,control,ambient_grazers,CGA,check,100,99,0,0,88,11,1,5,0,0,0,0,0,0,0,0,0,0,0,0,0,0,7,21,8,0,0,0,0,0,0,0,0,0,0,0,0,0,0,52,0,0,0,0,0,0,0,0,0,0,0,0,11,0,0,0,0,06A_5
GR03A_5,GR03A,14,low,north,2011,06/04/12,2012,6,4,5,16,3,succession,reduced_grazers,SGR,check,103.5,91.5,8,0,90,2,4,9,0,0,0,0,0,0,0,0,7,0,0,0,0,0.25,2,26,6,0,0,0,0,0,0,0,0,0,0,0,0,0,0,45,0,0,0.25,0,0,0,0,0,0,0,0,0,2,0.5,0,0,3,GR03A_5
08B_5,08B,45,mid,north,2011,06/04/12,2012,6,4,5,8,3,succession,ambient_grazers,SGA,check,100.25,66.25,11,5,61,0,23,9,3,0,0,0,0,0,0,0,9,0,0,0,0,0,12,30,8,0,0,0,0,0,0,0,0,0,0,0,0,0,1,0,0,0,0.25,0,0,0,1,0,0,0,0,0,0,2,0,0,0,08B_5
07B_5,07B,44,mid,north,2011,06/04/12,2012,6,4,5,7,3,control,ambient_grazers,CGA,check,100,95,5,0,95,0,0,5,0,0,0,0,0,0,0,0,7,10,0,0,0,0,3,27,0,0,0,0,0,0,0,0,0,0,0,0,0,0,0,0,0,0,0,0,0,0,48,0,0,0,0,0,0,0,0,0,0,07B_5
GR03B_5,GR03B,43,mid,north,2011,06/04/12,2012,6,4,5,16,3,succession,reduced_grazers,SGR,check,100.25,83,1.25,10,72,1,16,8,0,0,0,0,0,0,0,0,8,1,0,0,0,0,12,42,6,0,0,0,0,0,0,0,0,0,0,0,0,0,0,0,0,0,0,0,0,0,3,0,0,0,0,0,1,10,0,0,0,GR03B_5
07A_5,07A,17,low,north,2011,06/05/12,2012,6,5,5,7,3,control,ambient_grazers,CGA,check,109,96,8,0,87,9,5,9,0,0,0,0,0,0,0,0,7,0,0,0,0,2,6,22,29,0,0,0,0,0,0,1,0,6,0,0,0,0,0,14,0,0,0,0,0,0,0,0,0,0,0,0,9,0,0,0,0,07A_5
08A_5,08A,18,low,north,2011,06/05/12,2012,6,5,5,8,3,succession,ambient_grazers,SGA,check,93,79,3,0,59,20,11,6,0,0,0,0,0,0,0,0,7,0,0,0,0,0,15,5,30,0,0,0,0,0,0,0,0,2,0,0,0,0,0,0,0,0,0,0,0,0,0,0,0,0,0,0,20,0,0,0,0,08A_5
GR04A_5,GR04A,19,low,south,2011,06/05/12,2012,6,5,5,17,3,succession,reduced_grazers,SGR,check,100,96,4,22,74,0,0,12,7,0,0,0,0,0,0,0,13,0,0,0,0,0,7,4,7,0,0,0,0,0,0,3,0,1,0,0,1,0,0,21,0,0,16,0,0,0,0,0,0,0,1,0,0,15,0,0,0,GR04A_5
09A_5,09A,21,low,south,2011,06/05/12,2012,6,5,5,9,3,succession,ambient_grazers,SGA,check,100,90,4,10,78,2,6,10,0,2,0,0,0,0,0,0,20,0,0,0,0,0,17,30,6,0,0,0,0,0,0,1,0,0,0,0,0,0,1,1,0,0,0,0,0,0,0,0,0,0,0,0,2,10,0,0,0,09A_5
10A_5,10A,22,low,south,2011,06/05/12,2012,6,5,5,10,3,control,ambient_grazers,CGA,check,99.25,79,15.25,0,55,24,5,7,0,0,0,0,0,0,0,0,4,0,0,0,0,0,7,25,0,0,0,0,0,0,0,0,0,2,0,0,0,0,0,0,0,0,2,0,0,0,0,0,0,0,15,0,24,0,0,0,0,10A_5
GR05A_5,GR05A,23,low,south,2011,06/05/12,2012,6,5,5,18,3,succession,reduced_grazers,SGR,check,100,98,1,2,85,11,1,9,0,3,0,0,0,0,0,0,12,0,0,0,0,0,24,17,0,0,0,0,0,0,0,0,0,0,0,0,0,0,5,21,0,0,0,0,0,0,0,0,0,0,0,0,11,2,0,0,3,GR05A_5
11A_5,11A,24,low,south,2011,06/05/12,2012,6,5,5,11,3,succession,ambient_grazers,SGA,check,19.5,6.5,11,0,7,0,2,5,0,0,0,0,0,0,0,0,0.25,0,0,0,0,0,0.25,3,0,0,0,0,0,0,0,0,0,0,0,0,0,0,0,0,0,0,0,0,0,0,0,0,0,2,0.5,0,0,0,0,0,1,11A_5
12A_5,12A,25,low,south,2011,06/05/12,2012,6,5,5,12,3,control,ambient_grazers,CGA,check,100.5,90,3.5,0,65,25,7,10,0,1,0,0,0,0,0,0,1,0,0,0,0,0,16,37,0,0,0,0,0,0,0,1,0,6,0,1,0,0,0,0,0,0,0,0,0,0,0,0,0,0,1,0,25,0,0,0,1,12A_5
11B_5,11B,53,mid,south,2011,06/05/12,2012,6,5,5,11,3,succession,ambient_grazers,SGA,check,100.25,60,32.25,13,46,0,8,8,0,0,0,0,0,1,0,0,10,0,0,0,0,0,0,0,0,0,0,0,0,3,0,15,0,0,0,0,0,0,0,4,0,0,3,0,0,0,0,0,11,0,0,0,0,13,0,0,0,11B_5
12B_5,12B,54,mid,south,2011,06/05/12,2012,6,5,5,12,3,control,ambient_grazers,CGA,check,100,83,17,0,77,6,0,5,0,0,0,0,0,0,0,0,12,0,0,0,0,0,0,33,0,0,0,0,0,17,0,0,0,0,0,0,0,0,0,0,0,0,15,0,0,0,0,0,0,0,0,0,6,0,0,0,0,12B_5
GR05B_5,GR05B,51,mid,south,2011,06/05/12,2012,6,5,5,18,3,succession,reduced_grazers,SGR,check,100.75,99.5,1.25,5,94,0,0,9,0,0,0,0.25,0,0,0,0,0.25,0,0,0,0,1,1,13,0,0,0,0,0,0,0,4,0,0,0,0,0,0,45,0,30,0,0,0,0,0,0,0,0,0,0,0,0,5,0,0,0,GR05B_5
10B_5,10B,50,mid,south,2011,06/05/12,2012,6,5,5,10,3,control,ambient_grazers,CGA,check,100.25,84.25,16,0.25,78,6,0,9,0,1,6,0,0,0,0,0,0,0,0,0,0,0,0,10,0,0,0,0,0,1,0,31,0,0,0,0,0,0,0,0,4,0,27,0,0,0,0,0,4,0,0,0,0,0.25,0,0,0,10B_5
09B_5,09B,49,mid,south,2011,06/05/12,2012,6,5,5,9,3,succession,ambient_grazers,SGA,check,99,93,2,5,84,4,4,9,0,0,4,0,0,0,0,0,2,0,0,0,0,0,0,2,0,0,0,0,0,0,0,45,0,0,0,0,0,0,6,25,0,0,2,0,0,0,0,0,2,0,0,0,0,5,0,0,0,09B_5
12C_5,12C,72,high,south,2011,06/05/12,2012,6,5,5,12,3,control,ambient_grazers,CGA,check,96.25,58,30.25,0,57,1,8,5,0,0,0,0,0,0,0,0,0,0,0,0,0,0,0,0,0,0,0,0,0,25,0,0,0,0,0,0,0,5,15,12,0,0,0,0,0,1,0,0,0,0,0,0,0,0,0,0,0,12C_5
11C_5,11C,71,high,south,2011,06/05/12,2012,6,5,5,11,3,succession,ambient_grazers,SGA,check,100,25,45,0,25,0,30,5,0,0,0,0,0,0,0,0,0,0,0,0,0,0,0,0,0,0,0,0,0,1,0,0,0,0,0,0,0,3,1,0,11,0,0,0,0,0,0,0,9,0,0,0,0,0,0,0,0,11C_5
GR05C_5,GR05C,70,high,south,2011,06/05/12,2012,6,5,5,18,3,succession,reduced_grazers,SGR,check,100.75,39.5,7.25,0.5,39,0,54,6,0.25,0,0,0,0,0,0,0,0,0,0,0,0,0,0,0,0,0,0,0,0,0,0,0,0,0,0,0,0,16,10,0,10,0,0,0,0,0,0,0,3,0,0,0,0,0.25,0,0,0,GR05C_5
GR04B_5,GR04B,46,mid,south,2011,06/05/12,2012,6,5,5,17,3,succession,reduced_grazers,SGR,check,101,100.5,0.5,0.25,100,0,0,6,0,0,0,0,0,0,0,0,0,0,0,0,0,0,0,0,0,0,0,0,0,0.25,0,5,0,0,0,0,0,0,10,0,83,0,0,0,0,0,0,0,0,0,0,0,0,0.25,0,0,2,GR04B_5
GR04C_5,GR04C,67,high,south,2011,06/05/12,2012,6,5,5,17,3,succession,reduced_grazers,SGR,check,100.25,62.25,2,3.25,55,4,36,8,0.25,0,0,0,0,0,0,0,0,0,0,0,0,0,0,0,0,0,0,0,0,1,3,0,0,0,0,0,0,0,17,0,36,0,0,0,0,1,0,0,1,0,0,0,0,3,0,0,0,GR04C_5
09C_5,09C,68,high,south,2011,06/05/12,2012,6,5,5,9,3,succession,ambient_grazers,SGA,check,100,11,37,3,7,1,52,5,0,0,0,0,0,0,0,0,0,0,0,0,0,0,0,0,0,0,0,0,0,2,1,0,0,0,0,0,0,0,1,0,0,0,0,0,0,0,0,0,4,0,0,0,0,3,0,0,0,09C_5
10C_5,10C,69,high,south,2011,06/05/12,2012,6,5,5,10,3,control,ambient_grazers,CGA,check,100.75,75.25,19.5,1,71,3,6,7,0,0,0,0,0,0,0,0,0,0,0,0,0,0,0,0,0,0,0,0,0,51,3,0.25,0,0,0,0,0,1,8,0,11,0,0,0,0,0,0,0,0,0,0,0,0,1,0,0,0,10C_5
GR02B_5,GR02B,39,mid,north,2011,06/05/12,2012,6,5,5,15,3,succession,reduced_grazers,SGR,check,100.25,62,18.25,52,10,0,20,4,0,0,0,0,0,0,0,0,0,0,0,0,0,0,0,0,0,0,0,0,0,0,0,2,0,0,0,0,0,4,0,4,0,0,0,0,0,0,0,0,0,0,0,0,0,52,0,0,0,GR02B_5
GR01B_5,GR01B,34,mid,north,2011,06/05/12,2012,6,5,5,14,3,succession,reduced_grazers,SGR,check,100,79,6,62,17,0,15,4,16,0,0,0,0,0,0,0,0,0,0,0,0,0,0,0,0,0,0,0,0,0,0,3,0,0,0,0,0,0,0,0,0,0,0,0,0,0,0,0,14,0,0,0,0,46,0,0,0,GR01B_5
GR00B_5,GR00B,30,mid,north,2011,06/05/12,2012,6,5,5,13,3,succession,reduced_grazers,SGR,check,100,95,1,85,10,0,4,4,0,0,0,0,0,0,0,0,0,0,0,0,0,0,0,5,0,0,0,0,0,0,0,4,0,0,0,0,0,1,0,0,0,0,0,0,0,0,0,0,0,0,0,0,0,85,0,0,0,GR00B_5
GR00C_5,GR00C,55,high,north,2011,06/07/12,2012,6,7,5,13,3,succession,reduced_grazers,SGR,check,100,26,50,0,16,10,24,3,0,0,0,0,0,0,0,0,0,0,0,0,0,0,0,0,0,0,0,0,0,4,0,0,0,0,0,0,0,0,0,12,0,0,0,0,0,10,0,0,0,0,0,0,0,0,0,0,0,GR00C_5
01C_5,01C,56,high,north,2011,06/07/12,2012,6,7,5,1,3,succession,ambient_grazers,SGA,check,100,16,30,0,15,1,54,5,0,0,0,0,0,0,0,0,0,0,0,0,0,0,0,0,0,0,0,0,0,4,0,0,0,0,0,0,0,0,1,1,0,0,0,0,0,1,0,0,9,0,0,0,0,0,0,0,0,01C_5
02C_5,02C,57,high,north,2011,06/07/12,2012,6,7,5,2,3,control,ambient_grazers,CGA,check,99.25,89,3.25,0,54,35,7,4,0,0,0,0,0,0,0,0,0,0,0,0,0,0,0,0,0,0,0,0,0,30,0,0,0,0,0,0,0,0,16,0,8,0,0,0,0,35,0,0,0,0,0,0,0,0,0,0,0,02C_5
GR01C_5,GR01C,58,high,north,2011,06/07/12,2012,6,7,5,14,3,succession,reduced_grazers,SGR,check,98,78,2,0,63,15,18,4,0,0,0,0,0,0,0,0,0,0,0,0,0,0,0,0,0,0,0,0,0,3,6,0,0,0,0,0,0,0,0,0,60,0,0,0,0,9,0,0,0,0,0,0,0,0,0,0,0,GR01C_5
03C_5,03C,59,high,north,2011,06/07/12,2012,6,7,5,3,3,control,ambient_grazers,CGA,check,101,94,3,1,64,29,4,6,0,0,0,0,0,0,0,0,0,0,0,0,0,0,0,0,0,0,0,0,0,25,0,0,0,0,0,0,0,2,23,14,0,0,0,0,0,29,0,0,0,0,0,0,0,1,0,0,0,03C_5
04C_5,04C,60,high,north,2011,06/07/12,2012,6,7,5,4,3,succession,ambient_grazers,SGA,check,100,15,70,0,14,1,15,3,0,0,0,0,0,0,0,0,0,0,0,0,0,0,0,0,0,0,0,0,0,7,0,0,0,0,0,0,0,0,0,0,0,0,0,0,0,1,0,0,0,0,0,0,0,0,0,0,7,04C_5
GR02C_5,GR02C,61,high,north,2011,06/07/12,2012,6,7,5,15,3,succession,reduced_grazers,SGR,check,100,75,6,1,57,17,19,7,0,0,0,0,0,0,0,0,0,0,0,0,0,0,0,0,0,0,0,0,0,1,12,0,0,0,0,0,0,0,45,0,10,0,0,0,0,5,0,0,1,0,0,0,0,1,0,0,0,GR02C_5
01B_5,01B,32,mid,north,2011,06/07/12,2012,6,7,5,1,3,succession,ambient_grazers,SGA,check,100.5,99,0.5,84,15,0,1,7,0,0,0,0,0,0,0,0,4,0,0,0,0,0,1,4,0,0,0,0,0,0,0,4,0,0,0,0,0,1,1,0,0,0,0,0,0,0,0,0,0,0,0,0,0,84,0,0,0,01B_5
02B_5,02B,33,mid,north,2011,06/07/12,2012,6,7,5,2,3,control,ambient_grazers,CGA,check,100,82,9,7,59,16,9,9,2,0,0,0,0,0,0,0,10,3,0,0,0,0,0,15,0,0,0,0,0,0,0,30,0,0,1,0,0,0,0,0,0,0,1,0,0,0,0,0,0,0,0,0,15,5,0,0,0,02B_5
03B_5,03B,35,mid,north,2011,06/07/12,2012,6,7,5,3,3,control,ambient_grazers,CGA,check,100.5,89.25,0.25,6,82,1,11,15,5,0,0,0.25,0,0,0,0,9,1,0,0,0,0,2,10,0,0,0,0,0,6,0,43,0,0,1,0,0,2,0,3,0,0,4,0,0,0,0,0,1,0,0,0,0,1,0,0,1,03B_5
04B_5,04B,36,mid,north,2011,06/07/12,2012,6,7,5,4,3,succession,ambient_grazers,SGA,check,100.25,88,3.25,31,57,0,9,7,4,0,0,0,0,0,0,0,2,0,0,0,0,0,0,9,0,0,0,0,0,0,0,39,0,0,0,0,0,3,4,0,0,0,0,0,0,0,0,0,0,0,0,0,0,27,0,0,0,04B_5
06B_5,06B,42,mid,north,2011,06/07/12,2012,6,7,5,6,3,control,ambient_grazers,CGA,check,101.25,49.25,45,2.25,42,5,7,10,0.25,0,0,0,3,0,0,0,13,0,0,0,0,0,0,15,0,0,0,0,0,0,0,6,1,0,5,0,0,3,0,0,0,0,1,0,0,0,0,0,0,0,0,0,0,2,0,0,0,06B_5
05B_5,05B,41,mid,north,2011,06/07/12,2012,6,7,5,5,3,succession,ambient_grazers,SGA,check,100.5,74.25,6.25,40,34,0,20,11,14,0,0,0,5,0,0,0,0,0,0,0,0,0,0,0.25,0,0,0,0,0,2,0,1,1,0,0,0,0,2,8,6,0,0,0,0,0,0,0,0,9,0,0,0,0,26,0,0,0,05B_5
05C_5,05C,62,high,north,2011,06/07/12,2012,6,7,5,5,3,succession,ambient_grazers,SGA,check,100.25,34,14.25,0,34,0,52,4,0,0,0,0,0,0,0,0,0,0,0,0,0,0,0,0,0,0,0,0,0,5,0,0,0,0,0,0,0,2,17,0,10,0,0,0,0,0,0,0,0,0,0,0,0,0,0,0,0,05C_5
06C_5,06C,63,high,north,2011,06/07/12,2012,6,7,5,6,3,control,ambient_grazers,CGA,check,100,100,0,0,97,3,0,4,0,0,0,0,0,0,0,0,0,0,0,0,0,0,0,0,0,0,0,0,0,4,0,0,0,0,0,0,0,0,1,0,92,0,0,0,0,3,0,0,0,0,0,0,0,0,0,0,0,06C_5
07C_5,07C,65,high,north,2011,06/07/12,2012,6,7,5,7,3,control,ambient_grazers,CGA,check,100.5,95.25,1.25,0,82,13,4,4,0,0,0,0,0,0,0,0,0,0,0,0,0,0,0,0,0,0,0,0,0,77,0,0,0,0,0,0,0,0,5,0.25,0,0,0,0,0,13,0,0,0,0,0,0,0,0,0,0,0,07C_5
08C_5,08C,66,high,north,2011,06/07/12,2012,6,7,5,8,3,succession,ambient_grazers,SGA,check,100.5,10.25,17.25,0,10,0,73,4,0,0,0,0,0,0,0,0,0,0,0,0,0,0,0,0,0,0,0,0,0,4,0,0,0,0,0,0,0,0,0,3,0,0,0,0,0,0.25,0,0,3,0,0,0,0,0,0,0,0,08C_5
GR03C_5,GR03C,64,high,north,2011,06/07/12,2012,6,7,5,16,3,succession,reduced_grazers,SGR,check,100,9,25,0,4,5,66,4,0,0,0,0,0,0,0,0,0,0,0,0,0,0,0,0,0,0,0,0,0,2,0,0,0,0,0,0,0,1,0,0,1,0,0,0,0,5,0,0,0,0,0,0,0,0,0,0,0,GR03C_5
GR00A_7,GR00A,2,low,north,2011,08/02/12,2012,8,2,7,13,4,succession,reduced_grazers,SGR,,101,98,0,62,27,9,3,9,47,0,0,0,0,0,0,0,8,0,0,0,0,2,3,0,0,0,0,0,0,0,0,0,0,0,0,0,0,0,0,8,0,0,3,0,0,0,0,0,0,0,3,0,9,15,0,0,0,GR00A_7
01A_7,01A,3,low,north,2011,08/02/12,2012,8,2,7,1,4,succession,ambient_grazers,SGA,,98,92,0,3,83,6,6,11,0,0,0,0,0,0,7,0,20,0,0,0,0,2,20,11,0,0,0,0,0,0,0,0,0,0,0,0,6,0,0,0,0,0,0,0,1,0,4,0,0,0,12,0,6,3,0,0,0,01A_7
02A_7,02A,4,low,north,2011,08/02/12,2012,8,2,7,2,4,control,ambient_grazers,CGA,,113.5,100.5,6,1.5,44,55,7,11,1,0,0,0,0,0,0,0,5,0,0,0,0,7,8,4,9,0,0,0,0,0,0,0,0,4,0,0,0,0,0,0,0,0,4,0,0,0,0,0,0,0,3,0,55,0.5,0,0,0,02A_7
GR01A_7,GR01A,5,low,north,2011,08/02/12,2012,8,2,7,14,4,succession,reduced_grazers,SGR,,106.5,90,13.5,56,29,6,3,13,38,0,0,0,0,0,0,0,11,0,0,3,0,1,4,6,0,0,0,0,2,0,0,0.5,0,0,0.5,0,0,2,2,0,0,0,0,0,0,0,0,0,0,0,0,0,5,15,0,0,0,GR01A_7
03A_7,03A,6,low,north,2011,08/03/12,2012,8,3,7,3,4,control,ambient_grazers,CGA,,101,95.5,5.5,1,69,26,0,11,0,0,0,0,0,0,0.5,0,0.5,0,0,0,0,1,8,6,0,0,0,0,0,0,0,0.5,0,10,0,0,0,0,0,26,0,0,16,0,0,0,0,0,0,0,0,0,26,1,0,0,0,03A_7
04A_7,04A,7,low,north,2011,08/03/12,2012,8,3,7,4,4,succession,ambient_grazers,SGA,,101,83.5,7.5,15,41,28,10,16,3,0,0,0,0,0,4,0,4,0,0,1,0,6,5,0,0,0,0,0,0,0,0,0,1,0,0,0,1,3,0,8,0,0,0,0,0,0,0.5,2,0,2,4,0,28,11,0,0,0,04A_7
GR02A_7,GR02A,10,low,north,2011,08/17/12,2012,8,17,7,15,4,succession,reduced_grazers,SGR,,94.5,87.5,1,8,59,21,6,14,3,0,0,0,1,0,0,0,16,0,1,0,0,0.5,11,16,0,0,0,0,0,0,0,0.5,0,0,0.5,0,0,4,0,8,0,0,0,0,0,0,0,0,0,0,2,0,20,4,0,0,0,GR02A_7
05A_7,05A,12,low,north,2011,08/17/12,2012,8,17,7,5,4,succession,ambient_grazers,SGA,,102.5,89,9.5,1,69,19,4,15,0,0,0,0,0,0,5,0,14,2,0,0.5,0,1,7,11,10,0,0,0,0,0,0,0,0,2,0,0,2,0,0,12,0,0,1,0,0,0,0,0,0,0,2,0,19,0.5,0,0,0,05A_7
06A_7,06A,13,low,north,2011,08/17/12,2012,8,17,7,6,4,control,ambient_grazers,CGA,,92.5,86,6.5,0,76,10,0,8,0,0,0,0,0,0,2,0,0,0,0,0,0,0,0,16,5,0,0,0,36,0,0,0,0,0,0,0,0,0,0,11,0,0,0,0,0,0,0,0,0,2,4,0,10,0,0,0,0,06A_7
GR03A_7,GR03A,14,low,north,2011,08/17/12,2012,8,17,7,16,4,succession,reduced_grazers,SGR,,100,92.5,4.5,1,89,3,3,16,1,0,0,0,4,0,4,0,10,0,0,0,0,0,0,28,4,0,0,0,0,0,0,0.5,0,23,1,1,2,0,0,6,0,0,0,0,0,0,0,0,0,1,4,0,2,0,0,0,1,GR03A_7
07A_7,07A,17,low,north,2011,08/17/12,2012,8,17,7,7,4,control,ambient_grazers,CGA,,99.5,85.5,7,0.5,76,9,7,8,0,0,0,0,0,0,0,0,14,0,0,0,0,2,8,30,9,0,0,0,0,0,0,0,0,13,0,0,0,0,0,0,0,0,0,0,0,0,0,0,0,0,0,0,9,0.5,0,0,0,07A_7
08A_7,08A,18,low,north,2011,08/17/12,2012,8,17,7,8,4,succession,ambient_grazers,SGA,,100.5,87.5,5,0.5,74,13,8,12,0,0,0,0,0,0,0,0,13,0,0,0.5,0,0.5,15,15,7,0,0,0,0,0,0,0,0,4,0,0.5,6,0,0,4,0,0,0,0,0,0,0,0,0,0,9,0,13,0,0,0,0,08A_7
GR04A_7,GR04A,19,low,south,2011,08/18/12,2012,8,12,7,17,4,succession,reduced_grazers,SGR,,101.5,100,0.5,12,75,13,1,12,2,0,0,0,0,0,0,0,18,0,0,0,0,0,12,2,0,0,0,0,0,0,0,3,0,0,0,0,2,3,0,23,0,0,10,0,0,0,0,0,0,0,2,0,13,10,0,0,0,GR04A_7
09A_7,09A,21,low,south,2011,08/18/12,2012,8,18,7,9,4,succession,ambient_grazers,SGA,,101.5,93,3.5,7,81,5,5,8,0,0,0,0,0,0,0,0,34,1,0,0,0,0,13,27,0,0,0,0,0,0,0,0,0,0,0,0,0,0,0,0,0,0,1,0,0,0,0,5,0,0,0,0,5,7,0,0,0,09A_7
10A_7,10A,22,low,south,2011,08/18/12,2012,8,18,7,10,4,control,ambient_grazers,CGA,,75.5,59.5,10,0,53,7,6,10,0,0,0,0,0,0,1,0,11,0,0,0,0,11,0,23,0,0,0,0,0,0,0,0,0.5,2,0,0,1,1,0,0,0,0,0,0,0,0,0,0,0,0,2,0,7,0,0,0,0,10A_7
GR05A_7,GR05A,23,low,south,2011,08/18/12,2012,8,18,7,18,4,succession,reduced_grazers,SGR,,101.5,99.5,0,0,90,10,2,12,0,0,0,0,0,0,0,0,10,0,0,0,0,10,21,18,0,0,0,0,23,0,0,0,0,0,0,1,1,0,2,0,0,0,0,0,0,0,0,0,0,0,3,1,9,0,0,0,0.5,GR05A_7
11A_7,11A,24,low,south,2011,08/18/12,2012,8,18,7,11,4,succession,ambient_grazers,SGA,,111,86,9,0,68,18,16,9,0,0,0,0,0,0,0,0,8,0,0,0,0,11,10,10,4,0,0,0,2,0,0,0,0,0,0,0,3,0,0,0,0,0,0,0,0,0,0,0,0,0,20,0,18,0,0,0,0,11A_7
12A_7,12A,25,low,south,2011,08/18/12,2012,8,18,7,12,4,control,ambient_grazers,CGA,,100,81.5,10.5,0.5,72,9,8,8,0,0,0,0,0,0,0,0,3,0,0,0,0,0,15,30,0,0,0,0,0,0,0,0,0,4,0,7,0,0,0,0,0,0,0,0,0,0,0,0,0,0,13,0,9,0.5,0,0,0,12A_7
GR00B_7,GR00B,30,mid,north,2011,08/18/12,2012,8,18,7,13,4,succession,reduced_grazers,SGR,,100,92,2,68,18,0,6,6,1,0,0,0,0,6,0,0,0,0,0,0,0,0,0,0,11,0,0,5,0,0,0,7,0,0,0,0,0,0,0,0,0,0,0,0,0,0,0,0,0,0,0,0,0,62,0,0,0,GR00B_7
01B_7,01B,32,mid,north,2011,08/18/12,2012,8,18,7,1,4,succession,ambient_grazers,SGA,,102,86.5,2.5,68,18,1,13,7,0,0,0,0,0,0,0,0,0,0,0,0,0,0,9,6,0,0,0,0,0,0,0,0.5,0,0,1,0,0,0,0,0,0,0,1,0,0,0,1,0,0,0,0,0,0,68,0,0,0,01B_7
02B_7,02B,33,mid,north,2011,08/19/12,2012,8,19,7,2,4,control,ambient_grazers,CGA,,110,88,22,3,73,12,0,8,0,0,0,0,0,0,0,0,3,31,0,0,0,0,0,18,0,0,0,0,0,0,0,18,0,0,12,0,0,2,0,0,0,0,1,0,0,0,0,0,0,0,0,0,0,3,0,0,0,02B_7
GR01B_7,GR01B,34,mid,north,2011,08/19/12,2012,8,19,7,14,4,succession,reduced_grazers,SGR,,101,87.5,3.5,61,19,3,10,10,20,0,0,2,0,5,0,0,0,0,0,0,0,0,0,0,0,0,0,10,0,0.5,1,3,0,0,0,0,0,0,12,0,0,0,0,0,0,0,0,0,3,0,0,0,0,31,0,0,0,GR01B_7
03B_7,03B,35,mid,north,2011,08/19/12,2012,8,19,7,3,4,succession,ambient_grazers,SGA,,100.5,91,4.5,3,84,4,5,8,2,0,0,0,0,0,0,0,1,0,0,0,0,0,0,3,0,0,0,0,0,0,0,73,0,0,4,0,0,0,5,2,0,0,0,0,0,0,0,0,0,0,0,0,0,1,0,0,0,03B_7
04B_7,04B,36,mid,north,2011,08/19/12,2012,8,19,7,4,4,control,ambient_grazers,CGA,,100,89,5,14,74,1,6,7,1,0,0,0.5,0,0,0,0,0,0,0,0,0,0,0,0,0,0,0.5,0,0,0,0,66,0,0,0,0,0,0,4,4,0,0,0,0,0,0,0,0,0,0,0,0,0,13,0,0,0,04B_7
GR02B_7,GR02B,39,mid,north,2011,08/19/12,2012,8,19,7,15,4,succession,reduced_grazers,SGR,,103,89.5,9.5,57,8,4,4,10,0,0,0,4,0,14,0,0,0,0,0,0,0,0,0,0,0,0,0,52,0,0,0,0.5,0.5,0,0,0,0,4,2,0.5,0,0,0,0,0,0,0,0,0,0,0,0,0,5,0,7,0,GR02B_7
05B_7,05B,41,mid,north,2011,08/17/12,2012,8,17,7,5,4,succession,ambient_grazers,SGA,,108.5,88,7.5,52,36,0,13,11,15,0,0,0,0,0,0,0,3,0,0,1,1,0,0,0,0,0,0,0,0,0,0,4,0,0,0,0,0,4,18,3,0,0,0,0,0,0,0,0,2,0,0,0,0,36,0,0,1,05B_7
06B_7,06B,42,mid,north,2011,08/17/12,2012,8,17,7,6,4,control,ambient_grazers,CGA,,103,65,31,24,26,15,7,8,0,0,0,0,0,0,0,0,0,0,0,0,0,0,0,6,0,0,0,0,0,0,1,18,0,0,14,0,0,1,0.5,0,0,0,0,0,0,0,0,0,0.5,0,0,0,0,24,0,0,0,06B_7
GR03B_7,GR03B,43,mid,north,2011,08/17/12,2012,8,17,7,16,4,succession,reduced_grazers,SGR,,102,84.5,2.5,16,65,4,15,9,0,0,0,4,0,0,0,0,0,0,0,0,0,0,4,56,0,0,0,5,0,0,0,0.5,0,0,0,0,0,0,2,1,0,0,0,0,0,0,0,0,0,0,0,0,0,11,0,0,1,GR03B_7
07B_7,07B,44,mid,north,2011,08/17/12,2012,8,17,7,7,4,control,ambient_grazers,CGA,,101,98,2,0,98,1,1,5,0,0,0,0,0,0,0,0,3,70,0,0,0,0,0,24,0,0,0,0,0,0,0,0,0,0.5,0.5,0,0,0,0,0,0,0,0,0,0,0,0,0,0,0,0,0,0,0,0,0,0,07B_7
08B_7,08B,45,mid,north,2011,08/17/12,2012,8,17,7,8,4,succession,ambient_grazers,SGA,,102.5,61.5,30,3.5,54,4,11,9,0,0,0,0,0,0,0,0,2,1,0.5,0,0,0,15,32,1,0,0,0,0,0,0,0,0,0,4,0,0,0,3,0,0,0,0,0,0,0,0,0,0,0,0,0,0,3,0,0,0,08B_7
GR04B_7,GR04B,46,mid,south,2011,08/19/12,2012,8,19,7,17,4,succession,reduced_grazers,SGR,,101.5,100.5,1,0,101,0,0,3,0,0,0,0,0,0,0,0,0,0,0,0,0,0,0,0,0,0,0,0,0,0,0,0.5,0,0,0,0,0,0,10,90,0,0,0,0,0,0,0,0,0,0,0,0,0,0,0,0,0,GR04B_7
09B_7,09B,49,mid,south,2011,08/19/12,2012,8,19,7,9,4,succession,ambient_grazers,SGA,,106,87.5,10.5,0.5,53,35,8,9,0,0,34,0.5,0,0,0,0,0,0,0,0,0,0.5,0,0,0,0,0,0,0,1,0,31,0,0,0,0,0,0,7,11,0,0,2,0,0,0,0,0,0,0,0,0,0,0.5,0,0,0,09B_7
10B_7,10B,50,mid,south,2011,08/19/12,2012,8,19,7,10,4,control,ambient_grazers,CGA,,100,86,10,1,78,7,4,10,0,0,7,0,0,0,0,0,1,0,0.5,0,0,1,0,7,0,0,0,0,0,0,0,52,0,0,0,0,0,1,0,2,0,0,14,0,0,0,0,0,0,0,0,0,0,0.5,0,0,0,10B_7
GR05B_7,GR05B,51,mid,south,2011,08/19/12,2012,8,19,7,18,4,succession,reduced_grazers,SGR,,96,93,0,2,86,1,3,9,0,0,0,0,0,4,0,0,0,0,0,0,0,0,9,9,6,0,1,0,0,0,0,4,0,0,0,0,0,0,34,24,0,0,0,0,0,0,0,0,0,0,0,0,0,2,0,0,0,GR05B_7
11B_7,11B,53,mid,south,2011,08/17/12,2012,8,17,7,11,4,succession,ambient_grazers,SGA,,100,77,12,16,61,0,11,4,0,0,0,0,0,0,0,0,0,0,0,0,0,0,0,0,0,0,0,0,0,4,0,49,0,0,0,0,0,0,0,8,0,0,0,0,0,0,0,0,0,0,0,0,0,16,0,0,0,11B_7
12B_7,12B,54,mid,south,2011,08/17/12,2012,8,17,7,12,4,control,ambient_grazers,CGA,,100,63,35,0,63,0,2,5,0,0,0,0,0,0,0,0,4,0,0,0,0,0,2,46,0,0,0,0,0,3,0,0,0,0,0,0,0,0,0,0,0,0,0,0,0,0,8,0,0,0,0,0,0,0,0,0,0,12B_7
GR00C_7,GR00C,55,high,north,2011,08/17/12,2012,8,17,7,13,4,succession,reduced_grazers,SGR,,99.5,16.5,43,0,11,6,40,4,0,0,0,0,0,0,0,0,0,0,0,0,0,0,0,0,0,0,0,0,0,0.5,0,0,0,0,0,0,0,1,0,0,9,0,0,0,0,6,0,0,0,0,0,0,0,0,0,0,0,GR00C_7
01C_7,01C,56,high,north,2011,08/17/12,2012,8,17,7,1,4,succession,ambient_grazers,SGA,,100,23,27,0,21,2,50,4,0,0,0,0,0,0,0,0,0,0,0,0,0,0,0,0,0,0,0,0,0,5,0,0,0,0,0,0,0,0,12,0,4,0,0,0,0,2,0,0,0,0,0,0,0,0,0,0,0,01C_7
02C_7,02C,57,high,north,2011,08/17/12,2012,8,17,7,2,4,control,ambient_grazers,CGA,,101,94,5,0,56,38,2,5,0,0,0,0,0,0,0,0,0,0,0,0,0,0,0,0,0,0,0,0,0,21,0,0,0,0,0,0,0,2,25,0,8,0,0,0,0,38,0,0,0,0,0,0,0,0,0,0,0,02C_7
GR01C_7,GR01C,58,high,north,2011,08/17/12,2012,8,17,7,14,4,succession,reduced_grazers,SGR,,105.5,58,3.5,0,38,20,44,6,0,0,0,0,0,0,0,0,0,0,0,0,0,0,0,0,0,0,0,0,0,0,11,0,5,0,0,0,0,1,2,0,30,0,0,0,0,9,0,0,0,0,0,0,0,0,0,0,0,GR01C_7
03C_7,03C,59,high,north,2011,08/17/12,2012,8,17,7,3,4,control,ambient_grazers,CGA,,102,90,7,0,47,43,5,6,0,0,0,0,0,0,0,0,0,0,0,0,0,0,0,0,0,0,0,0,0,15,6,0,0,0,0,0,0,1,28,0,3,0,0,0,0,37,0,0,0,0,0,0,0,0,0,0,0,03C_7
04C_7,04C,60,high,north,2011,08/17/12,2012,8,17,7,4,4,succession,ambient_grazers,SGA,,112.5,27.5,62,0,21,7,23,5,0,0,0,0,0,0,0,0,0,0,0,0,0,0,0,0,0,0,0,0,0,12,2,0,0,0,0,0,0,2,6.5,0,0,0,0,0,0,5,0,0,0,0,0,0,0,0,0,0,0,04C_7
GR02C_7,GR02C,61,high,north,2011,08/17/12,2012,8,17,7,15,4,succession,reduced_grazers,SGR,,100,65,12,1,33,31,23,7,0,0,0,0,0,0,0,0,0,0,0,0,0,0,0,0,0,0,0,0,0,0,27,0,0,0,0,0,0,1,3,0,27,0,0,0,0,4,0,0,2,0,0,0,0,1,0,0,0,GR02C_7
05C_7,05C,62,high,north,2011,08/17/12,2012,8,17,7,5,4,succession,ambient_grazers,SGA,,102.5,35,34.5,0,34,1,33,6,0,0,0,0,0,0,0,0,0,0,0,0,0,0,0,0,0,0,0,0,0,7,0,0,2,0,0,0,0,1,19,0,5,0,0,0,0,1,0,0,0,0,0,0,0,0,0,0,0,05C_7
06C_7,06C,63,high,north,2011,08/17/12,2012,8,17,7,6,4,control,ambient_grazers,CGA,,102,98,2,0,97,1,2,4,0,0,0,0,0,0,0,0,0,0,0,0,0,0,0,0,0,0,0,0,0,5,0,0,0,0,0,0,0,0,3,0,89,0,0,0,0,1,0,0,0,0,0,0,0,0,0,0,0,06C_7
GR03C_7,GR03C,64,high,north,2011,08/17/12,2012,8,17,7,16,4,succession,reduced_grazers,SGR,,97.5,3.5,27,0,2,2,67,3,0,0,0,0,0,0,0,0,0,0,0,0,0,0,0,0,0,0,0,0,0,1,0,0,0,0,0,0,0,0,0,0,0.5,0,0,0,0,2,0,0,0,0,0,0,0,0,0,0,0,GR03C_7
07C_7,07C,65,high,north,2011,08/17/12,2012,8,17,7,7,4,control,ambient_grazers,CGA,,100.5,95,1.5,0,82,13,4,4,0,0,0,0,0,0,0,0,0,0,0,0,0,0,0,0,0,0,0,0,0,73,0,0,0,0,0,0,0,2,0,0,7,0,0,0,0,13,0,0,0,0,0,0,0,0,0,0,0,07C_7
08C_7,08C,66,high,north,2011,08/17/12,2012,8,17,7,8,4,succession,ambient_grazers,SGA,,100,8,17,0,8,0,75,2,0,0,0,0,0,0,0,0,0,0,0,0,0,0,0,0,0,0,0,0,0,4,0,0,0,0,0,0,0,0,0,0,4,0,0,0,0,0,0,0,0,0,0,0,0,0,0,0,0,08C_7
GR04C_7,GR04C,67,high,south,2011,08/18/12,2012,8,18,7,17,4,succession,reduced_grazers,SGR,,91,70.5,2.5,10,55,6,18,9,0,0,0,0,0,0,0,0,0,0,0,0,0,0,0,0,0,0,0.5,0,0,0,2,0,4,0,0,0,0,2,7,11,31,0,0,0,0,3,0,0,0,0,0,0,0,0,10,0,0,GR04C_7
09C_7,09C,68,high,south,2011,08/18/12,2012,8,18,7,9,4,succession,ambient_grazers,SGA,,100.5,84,11.5,10,9,6,5,7,0,0,0,0,0,59,0,0,0,0,0,0,0,0,0,0,0,0,0,0,0,4,0,0,0,0,0,0,0,0,3,1,0,0,0,0,0,6,0,0,1,0,0,0,0,10,0,0,0,09C_7
10C_7,10C,69,high,south,2011,08/18/12,2012,8,18,7,10,4,control,ambient_grazers,CGA,,99.5,80.5,15,1,70,10,4,9,0,0,0,0,0,0,0,0,0,0,0,0,0,0,0.5,0,0,0,0,0,0,40,10,1,3,0,0,0,0,3,10,12,0,0,0,0,0,0,0,0,0,0,0,0,0,1,0,0,0,10C_7
GR05C_7,GR05C,70,high,south,2011,08/18/12,2012,8,18,7,18,4,succession,reduced_grazers,SGR,,100,93,7,77,16,0,0,4,0,0,0,0,0,0,0,0,0,0,0,0,0,0,0,0,0,0,0,0,0,0,0,0,0,0,0,0,0,4,1,11,0,0,0,0,0,0,0,0,0,0,0,0,0,0,77,0,0,GR05C_7
11C_7,11C,71,high,south,2011,08/18/12,2012,8,18,7,11,4,succession,ambient_grazers,SGA,,99.5,42.5,43,10,33,0,14,6,0,0,0,0,0,0,0,0,0,0,0,0,0,0,0,0,0,0,0,0,0,4,0,0,0,0,0,0,0,4,12,12,0,0,0,0,0,0,0,0,0.5,0,0,0,0,0,10,0,0,11C_7
12C_7,12C,72,high,south,2011,08/18/12,2012,8,18,7,12,4,control,ambient_grazers,CGA,,100,46,47,0,41,5,7,6,0,0,0,0,0,0,0,0,0,0,0,0,0,0,0,0,0,0,0,0,0,0,2,0,0,0,0,0,0,3,16,8,0,0,14,0,0,3,0,0,0,0,0,0,0,0,0,0,0,12C_7
