plot_name,plot_number,zone,jump,installyear,date,dateyear,datemonth,dateday,Interval,transect,monthsinceinstall,treat_disturbance,treat_grazer,treatment,census,total_cover,algal_cover,nonalgal_cover,green_cover,red_cover,brown_cover,bare rock,total_species,Acrosiphonia,Ahnfeltia fastigiata,Alaria marginata,Analipus japonicus,Bangia,Blidingia minima,Bosiella plumosa,Calliarthron tuberculosum,Callithamnion pikeanum,Ceramium pacificum,Cladophora columbiana,Codium setchellii,Corallina cretacea,Corallina officinalis,Corallina frondescens,Corallina vancouveriensis,CAC wintering,Cryptopleura lobulifera,Cumagloia andersonii,diatoms,Dilsia,Endocladia muricata,Fucus gardneri,Hallosaccion glandiforme,Hildenbrandia,Hymenena multiloba,Leathesia difformis,Lithophyllum impressum,Lithothamnion phymatodeum,Mastocarpus crust morph,Mastocarpus,Mazzaella,Mazzaella parksii,Melanosiphon,Microcladia borealis,Odonthalia floccosa,Osmundea spectabilis,Pelvetiopsis limitata,Plocamium,Polysiphonia,Porphyra,Pseudolithothyllum muricatum,Pseudolithophyllum whidbeyense,Ralfsia,Saccharina,Ulva lactuta,UrosporaBlidingia,Urospora wormskioldii,unknown red
01A,3,low,north,2011,6/13/2011,2011,6,13,1,1,0,succession,ambient_grazers,SGA,check,103,86,17,0,74,12,0,9,0,,,,,,,,0,,0,0,,,13,6,0,,,0,,0,0,0,,3,0,10,17,0,0,0,0,,0,0,,0,,,0,13,11,,12,0,,,1
02C,57,high,north,2011,6/13/2011,2011,6,13,1,2,0,control,ambient_grazers,CGA,check,100,70,30,0,40,30,0,3,0,,,,,,,,0,,0,0,,,0,0,0,,,0,,30,0,0,,0,0,0,0,10,0,0,0,,0,0,,30,,,0,0,0,,0,0,,,0
01C,56,high,north,2011,6/13/2011,2011,6,13,1,1,0,succession,ambient_grazers,SGA,check,100,81,19,0,66,15,0,5,0,,,,,,,,1,,0,0,,,0,0,0,,,0,,44,0,0,,0,0,0,0,0,18,0,3,,0,0,,15,,,0,0,0,,0,0,,,0
03A,6,low,north,2011,6/14/2011,2011,6,14,1,3,0,control,ambient_grazers,CGA,check,100,92,8,0,77,15,0,9,0,,,,,,,,0,,0,0,,,15,27,0,,,0,,1,0,0,,15,0,3,5,0,0,0,0,,0,0,,0,,,0,8,3,,15,0,,,0
04A,7,low,north,2011,6/14/2011,2011,6,14,1,4,0,succession,ambient_grazers,SGA,check,100,91,3,0,89,2,6,8,0,,,,,,,,0,,0,0,,,10,13,0,,,0,,0,0,0,,12,0,7,2,0,0,0,0,,0,0,,0,,,0,38,7,,2,0,,,0
05A,12,low,north,2011,6/14/2011,2011,6,14,1,5,0,succession,ambient_grazers,SGA,check,100,84.5,0.5,0,80,5,15,9,0,,,,,,,,0,,0,0,,,9,20,0,,,0,,0,0,0,,8,0,0.5,10,0,0,2,0,,0,0,,0,,,0,10,20,,5,0,,,0
06A,13,low,north,2011,6/14/2011,2011,6,14,1,6,0,control,ambient_grazers,CGA,check,94,89,1,0,85,4,4,8,0,,,,,,,,0,,0,0,,,2,15,0,,,0,,0,0,0,,36,0,3,5,0,0,0,0,,0,0,,0,,,0,22,2,,4,0,,,0
01B,32,mid,north,2011,6/14/2011,2011,6,14,1,1,0,succession,ambient_grazers,SGA,check,100,95,5,2,92,1,0,6,0,,,,,,,,0,,1,0,,,0,64,0,,,0,,0,0,3,,0,1,0,0,0,0,0,0,,25,0,,0,,,0,0,0,,0,1,,,0
02B,33,mid,north,2011,6/14/2011,2011,6,14,1,2,0,control,ambient_grazers,CGA,check,100,91,9,15,64,12,0,6,0,,,,,,,,14,,0,0,,,0,17,0,,,0,,0,0,25,,0,12,0,0,0,0,0,0,,8,0,,0,,,0,0,0,,0,15,,,0
04B,36,mid,north,2011,6/14/2011,2011,6,14,1,4,0,succession,ambient_grazers,SGA,check,100,94,0,0,94,0,6,8,0,,,,,,,,1,,0,0,,,0,4,0,,,0,,0,0,70,,0,0,0,0,1,4,1,0,,6,0,,0,,,7,0,0,,0,0,,,0
03B,35,mid,north,2011,6/14/2011,2011,6,14,1,3,0,control,ambient_grazers,CGA,check,100,82,1,3,72,7,17,10,3,,,,,,,,0,,0,0,,,0,12,0,,,0,,11,5,42,,1,2,0,0,3,1,2,0,,0,0,,0,,,0,0,0,,0,0,,,0
04C,60,high,north,2011,6/14/2011,2011,6,14,1,4,0,succession,ambient_grazers,SGA,check,100,97,3,0,97,0,0,2,0,,,,,,,,0,,0,0,,,0,0,0,,,0,,79,0,0,,0,0,0,0,0,18,0,0,,0,0,,0,,,0,0,0,,0,0,,,0
03C,59,high,north,2011,6/14/2011,2011,6,14,1,3,0,control,ambient_grazers,CGA,check,100,100,0,0,26,74,0,4,0,,,,,,,,0,,0,0,,,0,0,0,,,0,,10,0,0,,0,0,0,0,0,9,7,0,,0,0,,74,,,0,0,0,,0,0,,,0
07A,17,low,north,2011,6/15/2011,2011,6,15,1,7,0,control,ambient_grazers,CGA,check,99,99,0,1,92,6,0,11,0,,,,,,,,12,,0,0,,,17,27,0,,,0,,0,0,0,,15,0,0,1,1,0,0,0,,3,0,,0,,,0,15,1,,6,1,,,0
08A,18,low,north,2011,6/15/2011,2011,6,15,1,8,0,succession,ambient_grazers,SGA,check,100,87,9,0,83,4,4,9,0,,,,,,,,0,,0,0,,,7,18,10,,,0,,0,0,0,,10,0,8,13,0,0,0,0,,0,0,,0,,,0,12,5,,4,0,,,0
08B,45,mid,north,2011,6/15/2011,2011,6,15,1,8,0,succession,ambient_grazers,SGA,check,99,87,12,0,87,0,0,7,0,,,,,,,,8,,0,0,,,6,51,0,,,0,,0,0,1,,0,0,0,0,3,0,2,0,,16,0,,0,,,0,0,0,,0,0,,,0
08C,66,high,north,2011,6/15/2011,2011,6,15,1,8,0,succession,ambient_grazers,SGA,check,100,95,5,0,65,30,0,6,0,,,,,,,,0,,0,0,,,0,0,0,,,0,,41,0,0,,0,0,0,0,2,16,5,1,,0,0,,30,,,0,0,0,,0,0,,,0
07C,65,high,north,2011,6/15/2011,2011,6,15,1,7,0,control,ambient_grazers,CGA,check,100,91,8,0,85,6,1,4,0,,,,,,,,0,,0,0,,,0,0,0,,,0,,83,0,0,,0,0,0,0,0,1,1,0,,0,0,,6,,,0,0,0,,0,0,,,0
07B,44,mid,north,2011,6/15/2011,2011,6,15,1,7,0,control,ambient_grazers,CGA,check,100,98,2,0,98,0,0,6,0,,,,,,,,2,,0,0,,,12,40,0,,,0,,18,0,1,,0,0,0,0,0,0,0,0,,25,0,,0,,,0,0,0,,0,0,,,0
05C,62,high,north,2011,6/15/2011,2011,6,15,1,5,0,succession,ambient_grazers,SGA,check,100,100,0,0.5,79,21,0,7,0.5,,,,,,,,1,,0,0,,,0,0,0,,,0,,49.5,0,0,,0,0,0,0,0,6,2,20,,0,0,,21,,,0,0,0,,0,0,,,0
06C,63,high,north,2011,6/15/2011,2011,6,15,1,6,0,succession,ambient_grazers,SGA,check,100,100,0,0,99,1,0,4,0,,,,,,,,0,,0,0,,,0,0,0,,,0,,3,0,0,,0,0,0,0,0,2,0,94,,0,0,,1,,,0,0,0,,0,0,,,0
05B,41,mid,north,2011,6/15/2011,2011,6,15,1,5,0,succession,ambient_grazers,SGA,check,101,80,21,2,77,1,0,8,0,,,,,,,,1,,1,0,,,0,10,0,,,0,,12,0,50,,0,1,0,0,0,4,0,0,,0,0,,0,,,0,0,0,,0,1,,,0
06B,42,mid,north,2011,6/15/2011,2011,6,15,1,6,0,control,ambient_grazers,CGA,check,104,86,18,2,83,1,0,9,1,,,,,,,,0,,0,0,,,6,3,0,,,0,,12,0,47,,0,1,0,0,7,8,0,0,,0,0,,0,,,0,0,0,,0,1,,,0
09A,21,low,south,2011,06/17/11,2011,6,17,1,9,0,succession,ambient_grazers,SGA,check,100,90,6,0,84,6,4,9,0,,,,,,,,0,,0,0,,,15,34,0,,,0,,0,0,0,,1,0,4,3,8,0,0,0,,0,0,,0,,,0,4,15,,6,0,,,0
11A,24,low,south,2011,06/17/11,2011,6,17,1,11,0,succession,ambient_grazers,SGA,check,100,86,4,0,71,15,10,9,0,,,,,,,,0,,0,0,,,6,5,0,9,,0,,0,0,0,,0,0,6,1,1,0,0,0,,0,0,,0,,,0,23,20,,15,0,,,0
09B,49,mid,south,2011,06/17/11,2011,6,17,1,9,0,succession,ambient_grazers,SGA,check,98.25,97.25,1,0.25,97,0,0,7,0,,,,,,,,14,,0,0,,,0,30,0,,,0,,0,0,43,,0,0,0,0,0,1,1,0,,8,0,,0,,,0,0,0,,0,0.25,,,0
09C,68,high,south,2011,06/17/11,2011,6,17,1,9,0,succession,ambient_grazers,SGA,check,100,74,26,2,62,10,0,8,0,,,,,,,,2,,1,0,,,0,0,0,,,0,,29,4,0,,0,0,0,0,0,20,0,11,,0,0,,6,,,0,0,0,,0,1,,,0
11C,71,high,south,2011,06/17/11,2011,6,17,1,11,0,succession,ambient_grazers,SGA,check,100,67,33,0,66,1,0,4,0,,,,,,,,0,,0,0,,,0,0,0,,,0,,18,1,0,,0,0,0,0,0,16,0,32,,0,0,,0,,,0,0,0,,0,0,,,0
12C,72,high,south,2011,06/17/11,2011,6,17,1,12,0,control,ambient_grazers,CGA,check,100,72,28,0,64,8,0,6,0,,,,,,,,0,,0,0,,,0,0,0,,,0,,17,3,0,,0,0,0,0,1,25,21,0,,0,0,,5,,,0,0,0,,0,0,,,0
12B,54,mid,south,2011,06/17/11,2011,6,17,1,12,0,control,ambient_grazers,CGA,check,106.25,95.25,7,0.25,95,0,4,12,0,,,,6,,,,21,,0,0,,,1,20,0,,,0,,11,0,3,,0,0,0,0,2,2,2,0,,24,0,,0,,,3,0,0,,0,0.25,,,0
11B,53,mid,south,2011,06/17/11,2011,6,17,1,11,0,succession,ambient_grazers,SGA,check,111,94,13,5,89,0,4,12,4,,,,11,,,,12,,0,0,,,2,4,0,,,0,,29,0,20,,0,0,0,0,0,4,4,0,,2,0,,0,1,,0,0,0,,0,1,,,0
12A,25,low,south,2011,06/17/11,2011,6,17,1,12,0,control,ambient_grazers,CGA,check,100,97,0,0,90,7,3,12,0,,,,,,,,1,,0,0,,,26,28,3,,,0,,0,0,0,,7,0,8,6,2,1,0,0,,0,0,,0,,,0,5,3,,7,0,,,0
10A,22,low,south,2011,06/17/11,2011,6,17,1,10,0,control,ambient_grazers,CGA,check,100,89,4,0,82,7,7,9,0,,,,,,,,0,,0,0,,,5,20,0,,,0,,0,0,0,,6,0,13,12,3,0,0,0,,0,0,,0,,,0,6,17,,7,0,,,0
10B,50,mid,south,2011,06/17/11,2011,6,17,1,10,0,control,ambient_grazers,CGA,check,105,101,4,2,99,0,0,8,0,,,,5,,,,0,,0,0,,,0,6,0,,,0,,0,0,45,,0,0,0,0,0,2,10,0,,30,0,,0,,,1,0,0,,0,2,,,0
10C,69,high,south,2011,06/17/11,2011,6,17,1,10,0,control,ambient_grazers,CGA,check,101.25,85.25,16,0.25,85,0,0,5,0,,,,,,,,0,,0,0,,,0,0,0,,,0,,58,0,0,,0,0,0,0,1,14,12,0,,0,0,,0,,,0,0,0,,0,0.25,,,0
GR01B,34,mid,north,2011,07/01/11,2011,7,1,1,14,0,succession,reduced_grazers,SGR,check,106.25,91,15.25,7,66,18,0,10,0,,,,,,,,0,,1,0,,,0,9,0,,,0,,26,0,16,,0,18,0,0,7,6,1,0,,1,0,,0,,,0,0,0,,0,6,,,0
GR02B,39,mid,north,2011,07/01/11,2011,7,1,1,15,0,succession,reduced_grazers,SGR,check,89.75,86.75,3,0.25,84,3,0,11,0,,,,,,,,5,,0,0,,21,0,25,0,,,0,,3,0,0.25,,0,3,0,0,5,0.25,2,0,,22,0,,0,,,0,0,0,,0,0.25,,,0
GR03B,43,mid,north,2011,07/01/11,2011,7,1,1,16,0,succession,reduced_grazers,SGR,check,100,98,2,0,98,0,0,7,0,,,,,,,,3,,0,0,,45,4,32,0,,,0,,0,0,0,,3,0,0,0,0,0,0,0,,9,2,,0,,,0,0,0,,0,0,,,0
GR03A,14,low,north,2011,07/01/11,2011,7,1,1,16,0,succession,reduced_grazers,SGR,check,117,107,3,0,101,6,7,10,0,,,,14,,,,0,,0,0,,,1,30,0,5,,0,,0,0,0,,0,0,6,3,1,0,0,0,,0,0,,0,,,0,20,21,,6,0,,,0
GR02A,10,low,north,2011,07/01/11,2011,7,1,1,15,0,succession,reduced_grazers,SGR,check,103,70,14,0,60,10,19,10,0,,,,,,,,0,,0,0,,,14,12,0,,,0,,0,0,0,,14,0,2,1,2,0,0,0,,1,0,,0,,,0,5,9,,10,0,,,0
GR01A,5,low,north,2011,07/01/11,2011,7,1,1,14,0,succession,reduced_grazers,SGR,check,98,81,11,0,71,10,6,12,0,,,,,,,,6,,0,0,1,,4,5,0,,,0,,0,0,0,,13,0,3,2,12,0,0,0,,14,0,,0,,,0,4,7,,10,0,,,0
GR01C,58,high,north,2011,07/01/11,2011,7,1,1,14,0,succession,reduced_grazers,SGR,check,100.25,98,0.25,0,57,41,2,5,0,,,,,,,,0,,0,0,,,0,0,0,,,0,,4,16,0,,0,0,0,0,0,36,0,17,,0,0,,25,,,0,0,0,,0,0,,,0
GR02C,61,high,north,2011,07/01/11,2011,7,1,1,15,0,succession,reduced_grazers,SGR,check,97,93,4,2,69,22,0,6,2,,,,,,,,0,,0,0,,,0,0,0,,,0,,18,20,0,,0,0,0,0,0,0,1,50,,0,0,,2,,,0,0,0,,0,0,,,0
GR04C,67,high,south,2011,07/01/11,2011,7,1,1,17,0,succession,reduced_grazers,SGR,check,100,94,3,0,69,25,3,4,0,,,,,,,,0,,0,0,,,0,0,0,,,0,,61,0,0,,0,0,0,0,0,7,1,0,,0,0,,25,,,0,0,0,,0,0,,,0
GR00C,55,high,north,2011,07/02/11,2011,7,2,1,13,0,succession,reduced_grazers,SGR,check,100,93,4,0,59,34,3,5,0,,,,,,,,0,,0,0,,,0,0,0,,,0,,47,9,0,,0,0,0,0,7,0,5,0,,0,0,,25,,,0,0,0,,0,0,,,0
GR00B,30,mid,north,2011,07/02/11,2011,7,2,1,13,0,succession,reduced_grazers,SGR,check,100.25,100.25,0,4.25,90,6,0,7,0.25,,,,,,,,0,,0,0,,,1,8,0,,,0,,0,0,63,,0,6,0,0,0,0,0,0,,18,0,,0,,,0,0,0,,0,4,,,0
GR00A,2,low,north,2011,07/02/11,2011,7,2,1,13,0,succession,reduced_grazers,SGR,check,105.25,92.25,6,0.25,88,4,7,11,0,,,,,,,,0,,0,0,,,3,30,0,,,0,,0,0,0,,10,0,4,2,3,1,0,0,,0,0,,0,,,0,15,20,,4,0.25,,,0
GR04B,46,mid,south,2011,07/02/11,2011,7,2,1,17,0,succession,reduced_grazers,SGR,check,98,98,0,5,93,0,0,9,5,,,,3,,,,1,,0,0,,,0,0,0,,,0,,1,0,12,,,0,0,0,0,20,43,0,,0,0,,0,,,5,0,0,,0,0,,,8
GR04A,19,low,south,2011,07/02/11,2011,7,2,1,17,0,succession,reduced_grazers,SGR,check,100,89,3,0,79,10,8,9,0,,,,,,,,0,,0,0,,,6,4,0,,,0,,0,0,0,,5,0,23,16,5,0,0,0,,0,0,,0,,,0,10,10,,10,0,,,0
GR05A,23,low,south,2011,07/02/11,2011,7,2,1,18,0,succession,reduced_grazers,SGR,check,108,88,8,0,75,13,12,10,0,,,,,,,,0,,0,0,,,15,10,0,,,0,,0,0,0,,2,0,15,2,0,1,0,0,,0,0,,0,,,0,14,14,,13,0,,,2
GR05B,51,mid,south,2011,07/02/11,2011,7,2,1,18,0,succession,reduced_grazers,SGR,check,104,104,0,1,103,0,0,10,0,,,,4,,,,12,,0,0,,,1,10,0,,,0,,0,0,8,,0,0,0,0,2,23,23,0,,20,0,,0,,,0,0,0,,0,1,,,0
GR05C,70,high,south,2011,07/02/11,2011,7,2,1,18,0,succession,reduced_grazers,SGR,check,100,72,23,0,72,0,5,4,0,,,,,,,,0,,0,0,,,0,0,0,,,0,,18,0,0,,0,0,0,0,5,20,0,29,,0,0,,0,,,0,0,0,,0,0,,,0
GR00B,30,mid,north,2011,07/15/11,2011,7,15,2,13,1,succession,reduced_grazers,SGR,check,100,85,0,85,0,0,15,1,0,,,,,,,,0,,0,0,,,0,0,0,,,85,,0,0,0,,0,0,0,0,0,0,0,0,,0,0,,0,,,0,0,0,,0,0,,,0
GR00A,2,low,north,2011,07/15/11,2011,7,15,2,13,1,succession,reduced_grazers,SGR,check,100.25,32,0.25,30,2,0,68,2,0,,,,,,,,0,,0,0,,,0,0,0,,,30,,0,0,0,,0,0,0,0,2,0,0,0,,0,0,,0,,,0,0,0,,0,0,,,0
01C,56,high,north,2011,07/15/11,2011,7,15,2,1,1,succession,ambient_grazers,SGA,check,100.25,0.25,0,0,0,0,100,1,0,,,,,,,,0,,0,0,,,0,0,0,,,0,,0,0,0,,0,0,0,0,0.25,0,0,0,,0,0,,0,,,0,0,0,,0,0,,,0
01B,32,mid,north,2011,07/15/11,2011,7,15,2,1,1,succession,ambient_grazers,SGA,check,21,21,0,20,0,0,0,2,0,,,,,,,,0,,0,0,,,0,0,0,,,20,,0,0,0,,0,0,0,0,0,0,0,0,,0,0,,0,,,0,0,0,,0,0,,1,0
01A,3,low,north,2011,07/15/11,2011,7,15,2,1,1,succession,ambient_grazers,SGA,check,35,1,0,0,1,0,34,1,0,,,,,,,,0,,0,0,,,0,0,0,,,0,,0,0,0,,0,0,0,1,0,0,0,0,,0,0,,0,,,0,0,0,,0,0,,,0
02C,57,high,north,2011,07/15/11,2011,7,15,2,2,1,control,ambient_grazers,CGA,check,100.5,99,1.5,0,12,87,0,4,0,,,,,,,,0,,0,0,,,0,0,0,,,0,,3,0,0,,0,0,0,0,0,8,1,0,,0,0,,87,,,0,0,0,,0,0,,,0
02B,33,mid,north,2011,07/15/11,2011,7,15,2,2,1,control,ambient_grazers,CGA,check,100.25,93,7.25,8,79,6,0,10,0,,,,,,,,3,,0,0,,,0,14,0,,,0,,6,0,40,,0,6,0,0,4,2,0,0,,7,0,,0,,,3,0,0,,0,8,,,0
02A,4,low,north,2011,07/15/11,2011,7,15,2,2,1,control,ambient_grazers,CGA,check,95,80,10,0,68,12,5,9,0,,,,,,,,0,,0,0,,,5,15,0,,,0,,0,0,0,,6,0,10,1,8,0,0,0,,0,0,,0,,,0,15,8,,12,0,,,0
GR01C,58,high,north,2011,07/15/11,2011,7,15,2,14,1,succession,reduced_grazers,SGR,check,100.25,2,0.25,0,2,0,98,1,0,,,,,,,,0,,0,0,,,0,0,0,,,0,,0,0,0,,,0,0,0,2,0,0,0,,0,0,,0,,,0,0,0,,0,0,,,0
GR01B,34,mid,north,2011,07/15/11,2011,7,15,2,14,1,succession,reduced_grazers,SGR,check,100.25,7.25,0,7,0,0,93,2,0,,,,,,,,0,,0,0,,,0,0,0,,,7,,0,0,0,,,0,0,0,0.25,0,0,0,,0,0,,0,,,0,0,0,,0,0,,,0
GR01A,5,low,north,2011,07/15/11,2011,7,15,2,14,1,succession,reduced_grazers,SGR,check,100.5,40.5,0,40.25,0,0,60,3,0,,,,,,,,0,,0,0,,,0,0,0,,,40,,0,0,0,,,0,0,0,0,0,0,0,,0,0,,0,,,0,0,0,,0,0.25,,0.25,0
03C,6,high,north,2011,07/15/11,2011,7,15,2,3,1,control,ambient_grazers,CGA,check,100,100,0,0,13,87,0,4,0,,,,,,,,0,,0,0,,,0,0,0,,,0,,4,0,0,,,0,0,0,0,6,0,3,,0,0,,87,,,0,0,0,,0,0,,,0
03B,35,mid,north,2011,07/15/11,2011,7,15,2,3,1,control,ambient_grazers,CGA,check,100.5,99.25,1.25,0.25,87,12,0,8,0,,,,,,,,0,,0,0,,,0,5,0,,,0,,6,4,66,,,8,0,0,8,2,0,0,,0,0,,0,,,0,0,0,,0,0.25,,,0
03A,6,low,north,2011,07/15/11,2011,7,15,2,3,1,control,ambient_grazers,CGA,check,157.25,144,13.25,0,134,10,0,10,0,,,,59,,,,0,,0,0,,,12,27,0,,,0,,0,0,0,,12,0,2,6,0,0,0,0,,2,0,,0,,,0,7,7,,10,0,,,0
04A,7,low,north,2011,07/15/11,2011,7,15,2,4,1,succession,ambient_grazers,SGA,check,76.5,61.5,1,61,0,0,14,3,0,,,,,,,,0,,0,0,,,0,0,0,,,61,,0,0,0.25,,,0,0,0,0,0,0,0,,0,0,,0,,,0,0,0,,0,0,,0.25,0
GR02A,10,low,north,2011,07/15/11,2011,7,15,2,15,1,succession,reduced_grazers,SGR,check,100,65,0,65,0,0,35,1,0,,,,,,,,0,,0,0,,,0,0,0,,,65,,0,0,0,,,0,0,0,0,0,0,0,,0,0,,0,,,0,0,0,,0,0,,,0
05A,12,low,north,2011,07/15/11,2011,7,15,2,5,1,succession,ambient_grazers,SGA,check,9.25,0.25,2,0,0,0,7,1,0,,,,,,,,0,,0,0,,,0,0,0,,,0,,0,0,0,,,0,0,0,0,0,0,0,,0,0,,0,,,0,0,0,,0,0,,0.25,0
08A,18,low,north,2011,07/15/11,2011,7,15,2,8,1,succession,ambient_grazers,SGA,check,10,5,4,5,0,0,1,1,0,,,,,,,,0,,0,0,,,0,0,0,,,5,,0,0,0,,,0,0,0,0,0,0,0,,0,0,,0,,,0,0,0,,0,0,,,0
07A,17,low,north,2011,07/15/11,2011,7,15,2,7,1,control,ambient_grazers,CGA,check,100.5,99.5,1,0.25,90,9,0,13,0,,,,,,,,12,,0,0,,,28,26,0,,,0,,0,0,0,,8,0.25,3,1,3,0,0,0,,3,0,,0,,,0,4,2,,9,0.25,,,0
GR03A,14,low,north,2011,07/15/11,2011,7,15,2,16,1,succession,reduced_grazers,SGR,check,100.25,40.25,2,40.25,0,0,58,2,0,,,,,,,,0,,0,0,,,0,0,0,,,40,,0,0,0,,0,0,0,0,0,0,0,0,,0,0,,0,,,0,0,0,,0,0.25,,,0
06A,13,low,north,2011,07/15/11,2011,7,15,2,6,1,control,ambient_grazers,CGA,check,101.5,94.25,7.25,0,86,8,0,11,0,,,,,,,,0.25,,0,0,,,10,6,0,,,0,,0,0,0,,33,0,2,5,4,0,0,0,,0,0,,0,,,0,10,13,,8,0,,,3
04C,60,high,north,2011,07/15/11,2011,7,15,2,4,1,succession,ambient_grazers,SGA,check,100.25,0.25,0,0,0,0,100,1,0,,,,,,,,0,,0,0,,,0,0,0,,,0,,0,0,0,,0,0,0,0,0.25,0,0,0,,0,0,,0,,,0,0,0,,0,0,,,0
04B,36,mid,north,2011,07/15/11,2011,7,15,2,4,1,succession,ambient_grazers,SGA,check,100.25,95.25,0,84.25,0,0,5,3,0,,,,,,,,0,,0,0,,,0,0,0,,,84,,0,0,0,,0,0,0,0,0,0,0,0,,0,0,,0,,,0,0,0,,0,0.25,,11,0
GR02C,61,high,north,2011,07/15/11,2011,7,15,2,15,1,succession,reduced_grazers,SGR,check,100.5,0.5,0,0,0,0,100,2,0,,,,,,,,0,,0,0,,,0,0,0,,,0,,0,0,0,,0,0,0,0,0.25,0,0,0,,0,0,,0.25,,,0,0,0,,0,0,,,0
GR02B,39,mid,north,2011,07/15/11,2011,7,15,2,15,1,succession,reduced_grazers,SGR,check,80,20,0,20,0,0,60,1,0,,,,,,,,0,,0,0,,,0,0,0,,,20,,0,0,0,,0,0,0,0,0,0,0,0,,0,0,,0,,,0,0,0,,0,0,,,0
05C,62,high,north,2011,07/15/11,2011,7,15,2,5,1,succession,ambient_grazers,SGA,check,100.5,0.25,0.25,0,0,0,100,1,0,,,,,,,,0,,0,0,,,0,0,0,,,0,,0,0,0,,0,0,0,0,0,0,0,0,,0,0,,0.25,,,0,0,0,,0,0,,,0
05B,41,mid,north,2011,07/15/11,2011,7,15,2,5,1,succession,ambient_grazers,SGA,check,83,13,0,3,0,0,70,2,0,,,,,,,,0,,0,0,,,0,0,0,,,0,,0,0,0,,0,0,0,0,0,0,0,0,,0,0,,0,,,0,0,0,,0,3,,10,0
06C,63,high,north,2011,07/15/11,2011,7,15,2,6,1,control,ambient_grazers,CGA,check,100,100,0,0,97,3,0,4,0,,,,,,,,0,,0,0,,,0,0,0,,,0,,4,0,0,,0,0,0,0,0,3,0,90,,0,0,,3,,,0,0,0,,0,0,,,0
06B,42,mid,north,2011,07/15/11,2011,7,15,2,6,1,control,ambient_grazers,CGA,check,100,81,19,3,72,6,0,8,0,,,,,,,,1,,0,0,,,0,11,0,,,0,,7,0,43,,0,6,0,0,6,4,0,0,,0,0,,0,,,0,0,0,,0,3,,,0
GR03C,64,high,north,2011,07/15/11,2011,7,15,2,16,1,succession,reduced_grazers,SGR,check,100,1,0,0,1,0,99,1,0,,,,,,,,0,,0,0,,,0,0,0,,,0,,0,0,0,,0,0,0,0,1,0,0,0,,0,0,,0,,,0,0,0,,0,0,,,0
07C,65,high,north,2011,07/15/11,2011,7,15,2,7,1,control,ambient_grazers,CGA,check,100,87,13,0,79,8,0,3,0,,,,,,,,0,,0,0,,,0,0,0,,,0,,78,0,0,,0,0,0,0,0,0,1,0,,0,0,,8,,,0,0,0,,0,0,,,0
08C,66,high,north,2011,07/15/11,2011,7,15,2,8,1,succession,ambient_grazers,SGA,check,100.25,0.25,0,0,0,0,100,1,0,,,,,,,,0,,0,0,,,0,0,0,,,0,,0,0,0,,0,0,0,0,0.25,0,0,0,,0,0,,0,,,0,0,0,,0,0,,,0
GR04A,19,low,south,2011,07/16/11,2011,7,16,2,17,1,succession,reduced_grazers,SGR,check,100.25,5.25,3,2,3,0,92,3,0,,,,,,,,0,,0,0,,,0,0,3,,,2,,0,0,0,,0,0,0,0,0,0,0.25,0,,0,0,,0,,,0,0,0,,0,0,,,0
09A,21,low,south,2011,07/16/11,2011,7,16,2,9,1,succession,ambient_grazers,SGA,check,11,1,1,0,1,0,9,1,0,,,,,,,,0,,0,0,,,0,0,0,,,0,,0,0,0,,0,0,0,0,1,0,0,0,,0,0,,0,,,0,0,0,,0,0,,,0
10A,22,low,south,2011,07/16/11,2011,7,16,2,10,1,control,ambient_grazers,CGA,check,100.25,72.25,21,0,65,7,7,8,0,,,,,,,,0,,0,0,,,5,24,0,,,0,,0,0,0,,3,0,0.25,0,3,0,0,0,,0,0,,0,,,0,16,14,,7,0,,,0
GR05A,23,low,south,2011,07/16/11,2011,7,16,2,18,1,succession,ambient_grazers,SGR,check,100,35,4,35,0,0,61,1,0,,,,,,,,0,,0,0,,,0,0,0,,,35,,0,0,0,,0,0,0,0,0,0,0,0,,0,0,,0,,,0,0,0,,0,0,,,0
11A,24,low,south,2011,07/16/11,2011,7,16,2,11,1,succession,ambient_grazers,SGA,check,21,2,0,0,2,0,19,1,0,,,,,,,,0,,0,0,,,0,0,0,,,0,,0,0,0,,2,0,0,0,0,0,0,0,,0,0,,0,,,0,0,0,,0,0,,,0
12A,25,low,south,2011,07/16/11,2011,7,16,2,12,1,control,ambient_grazers,CGA,check,98.5,85.5,2,0,73,13,11,10,0,,,,,,,,1,,0,0,,,11,37,0,,,0,,0,0,0,,0,0,5,0.25,1,0.25,0,0,,0,0,,0,,,0,10,7,,13,0,,,0
12C,72,high,south,2011,07/16/11,2011,7,16,2,12,1,control,ambient_grazers,CGA,check,100,67,27,0,67,0,6,4,0,,,,,,,,0,,0,0,,,0,0,0,,,0,,17,0,0,,0,0,0,0,6,22,22,0,,0,0,,0,,,0,0,0,,0,0,,,0
10C,69,high,south,2011,07/16/11,2011,7,16,2,10,1,control,ambient_grazers,CGA,check,100.25,93.25,7,1,92,0,0,6,0,,,,,,,,0,,0,0,,,0,0,0,,,0,,51,0,0,,0,0,0,0,1,20,0,20,,0,0,,0,,,0.25,0,0,,0,1,,,0
12B,54,mid,south,2011,07/16/11,2011,7,16,2,12,1,control,ambient_grazers,CGA,check,100.25,92.25,8,1,91,0,0,8,0,,,,,,,,22,,0,0,,,0,26,0,,,0,,6,0,7,,0,0.25,0,0,0,0,0,0,,29,0,,0,,,1,0,0,,0,1,,,0
11B,53,mid,south,2011,07/16/11,2011,7,16,2,11,1,succession,ambient_grazers,SGA,check,100,42,0,42,0,0,58,1,0,,,,,,,,0,,0,0,,,0,0,0,,,42,,0,0,0,,0,0,0,0,0,0,0,0,,0,0,,0,,,0,0,0,,0,0,,,0
GR05B,51,mid,south,2011,07/16/11,2011,7,16,2,18,1,succession,reduced_grazers,SGR,check,100,80,0,80,0,0,20,1,0,,,,,,,,0,,0,0,,,0,0,0,,,80,,0,0,0,,0,0,0,0,0,0,0,0,,0,0,,0,,,0,0,0,,0,0,,,0
10B,50,mid,south,2011,07/16/11,2011,7,16,2,10,1,control,ambient_grazers,CGA,check,100,100,0,2,98,0,0,8,0,,,,,,,,2,,0,0,,,0,0,0,,,0,,1,0,63,,0,0,0,0,0,7,9,0,,14,0,,0,,,2,0,0,,0,2,,,0
09B,49,mid,south,2011,07/16/11,2011,7,16,2,9,1,succession,ambient_grazers,SGA,check,100,1,0,0,1,0,99,1,0,,,,,,,,0,,0,0,,,0,0,0,,,0,,0,0,0,,0,0,0,0,1,0,0,0,,0,0,,0,,,0,0,0,,0,0,,,0
GR04B,46,mid,south,2011,07/16/11,2011,7,16,2,17,1,succession,reduced_grazers,SGR,check,100.25,10.25,0,10,0,0,90,2,0,,,,,,,,0,,0,0,,,0,0,0,,,10,,0,0,0,,0,0,0,0,0.25,0,0,0,,0,0,,0,,,0,0,0,,0,0,,,0
08B,45,mid,south,2011,07/16/11,2011,7,16,2,8,1,succession,ambient_grazers,SGA,check,100.25,100.25,0,0.25,100,0,0,2,0,,,,100,,,,0,,0,0,,,0,0,0,,,0.25,,0,0,0,,0,0,0,0,0,0,0,0,,0,0,,0,,,0,0,0,,0,0,,,0
07B,44,mid,south,2011,07/16/11,2011,7,16,2,7,1,control,ambient_grazers,CGA,check,100,100,0,0,100,0,0,3,0,,,,,,,,0,,0,0,,,0,65,0,,,0,,5,0,0,,0,0,0,0,0,0,0,0,,30,0,,0,,,0,0,0,,0,0,,,0
GR03B,43,mid,north,2011,07/16/11,2011,7,16,2,16,1,succession,reduced_grazers,SGR,check,100,95,0,95,0,0,5,1,0,,,,,,,,0,,0,0,,,0,0,0,,,95,,0,0,0,,0,0,0,0,0,0,0,0,,0,0,,0,,,0,0,0,,0,0,,,0
GR00A,2,low,north,2011,08/28/11,2011,8,28,3,13,2,succession,reduced_grazers,SGR,check,100.25,79.25,0,68,1,0,21,5,10,,,,,10,,,0,,0,0,,,0,0,0,,,0,,0,0,0.25,,0,0,0,0,0,0,0,0,,0,0,,0,,,1,0,0,,0,58,,,0
01A,3,low,north,2011,08/28/11,2011,8,28,3,1,2,succession,ambient_grazers,SGA,check,100,100,0,5,95,0,0,7,0,,,,40,,1,,0,,0,0,,,6,3,42,,,0,,0,0,0,,0,0,0,3,0,0,0,0,,0,0,,0,,,0,0,0,,0,0,5,,0
02A,4,low,north,2011,08/28/11,2011,8,28,3,2,2,control,ambient_grazers,CGA,check,100.25,78,22.25,0,67,11,0,9,0,,,,,,,,0,,0,0,,,5,20,0,,,0,,0,0,0,,1,0,15,2,1,0,0,0,,0,0,,0,,,0,13,10,,11,0,,,0
GR01A,5,low,north,2011,08/28/11,2011,8,28,3,14,2,succession,reduced_grazers,SGR,check,101,96.75,4.25,25,72,0,,8,16,,,,15,,,,,,,,,,0,0,50,,,,,,,0.25,,,,,,6,0,0.25,,,0.25,,,,,,,,,,0,9,,,
03A,6,low,north,2011,08/28/11,2011,8,28,3,3,2,control,ambient_grazers,CGA,check,93,81,12,0,74,7,,9,,,,,,,5,,,,,,,,11,22,0,,,,,,,,,13,,4,5,,0,0,,,,,,,,,,10,4,,7,,,,
04A,7,low,north,2011,08/28/11,2011,8,28,3,4,2,succession,ambient_grazers,SGA,check,100.25,91.25,3,5,86,0,6,5,,,,,10,,,,,,,,,,0.25,1,75,,,,,,,,,,,,,,0,0,,,,,,,,,,,,,0,5,,,
GR02A,10,low,north,2011,08/28/11,2011,8,28,3,15,2,succession,reduced_grazers,SGR,check,97,70,6,2,67,1,21,8,2,,,,8,,2,,,,,,,,16,12,28,,,,,,,,,,,,,,0,0,,,,,,,,,1,,,,1,,,,
05A,12,low,north,2011,08/28/11,2011,8,28,3,5,2,succession,ambient_grazers,SGA,check,99.25,98.25,1,9.25,89,0,,9,0.25,,,,6,,3,,,,,,,,5,5,68,,,6,,,,,,,,,,,0,2,,,,,,,,,,,,,0,3,,,
06A,13,low,north,2011,08/28/11,2011,8,28,3,6,2,control,ambient_grazers,CGA,check,108,100,8,0,94,6,,9,,,,,,,,,,,,,,,8,29,0,,,,,,,,,12,,4,7,,0,5,,,,,,,,,,7,22,,6,,,,
GR00B,30,mid,north,2011,08/28/11,2011,8,28,3,13,2,succession,reduced_grazers,SGR,check,101.25,101.25,0,20.25,80,0,,5,0.25,,,,80,1,,,,,,,,,0,0,0,,,19,,,,,,,,,,,0,0,,,,,,,,,,,,,0,1,,,
01B,32,mid,north,2011,08/28/11,2011,8,28,3,1,2,succession,ambient_grazers,SGA,check,100.25,93.25,0,93,0,0,7,3,,,,,,,,,,,,,,,0,0,0,,,5,,,,0.25,,,,,,,0,0,,,,,,,,,,,,,0,88,,,
02B,33,mid,north,2011,08/28/11,2011,8,28,3,2,2,control,ambient_grazers,CGA,check,99,91,8,3,87,1,,7,,,,,,,,,,,,,,,0,11,0,,,,,4,,65,,,1,,,,1,0,,,6,,,,,,,,,,0,3,,,
GR01B,34,mid,north,2011,08/28/11,2011,8,28,3,14,2,succession,reduced_grazers,SGR,check,100,84,0,24,50,0,16,4,,,,,50,10,,,,,,,,,0,0,0,,,20,,,,,,,,,,,0,0,,,,,,,,,,,,,0,4,,,
03B,35,mid,north,2011,08/28/11,2011,8,28,3,3,2,control,ambient_grazers,CGA,check,100,100,0,1,91,8,,8,,,,,,,,,,,,,,,0,4,0,,,,,5,4,75,,,4,,,5,2,0,,,,,,,,,,,,,0,1,,,
04B,36,mid,north,2011,08/28/11,2011,8,28,3,4,2,succession,ambient_grazers,SGA,check,100,92,0,89,3,0,8,4,,,,,,,,,,,,,,,0,0,0,,,,,,,1,,,,,,1,1,0,,,,,,,,,,,,,0,89,,,
GR02B,39,mid,north,2011,08/28/11,2011,8,28,3,15,2,succession,reduced_grazers,SGR,check,100,93,0,33,60,0,7,3,,,,,60,,,,,,,,,,0,0,0,,,,,,,,,,,,,,0,0,,,,,,,,,,,,,0,27,6,,
05B,41,mid,north,2011,08/28/11,2011,8,28,3,5,2,succession,ambient_grazers,SGA,check,100,85,0,82,3,0,15,3,,,,,,,,,,,,,,,0,0,0,,,,,,,,,,,,,2,0,1,,,,,,,,,,,,,0,82,,,
06B,42,mid,north,2011,08/28/11,2011,8,28,3,6,2,control,ambient_grazers,CGA,check,100,84,16,4,78,2,,9,,,,,,,,,,,1,,,,0,13,0,,,,,7,,46,,,2,,,4,0,7,,,1,,,,,,,,,,0,3,,,
GR00C,55,high,north,2011,08/28/11,2011,8,28,3,13,2,succession,reduced_grazers,SGR,check,100,1,0,0,1,0,99,1,,,,,,,,,,,,,,,0,0,0,,,,,,,,,,,,,1,0,0,,,,,,,,,,,,,0,,,,
01C,56,high,north,2011,08/28/11,2011,8,28,3,1,2,succession,ambient_grazers,SGA,check,100,1,0,0,1,0,99,1,,,,,,,,,,,,,,,0,0,0,,,,,,,,,,,,,1,0,0,,,,,,,,,,,,,0,,,,
02C,57,high,north,2011,08/28/11,2011,8,28,3,2,2,control,ambient_grazers,CGA,check,100,95,5,0,11,84,,4,,,,,,,,,,,,,,,0,0,0,,,,,2,,,,,,,,2,7,0,,,,,,84,,,,,,,0,,,,
GR01C,58,high,north,2011,08/28/11,2011,8,28,3,14,2,succession,reduced_grazers,SGR,check,100,19,0,3,14,2,81,5,,,,,12,,,,,,,,,,0,0,0,,,3,,,,,,,,,,1,1,0,,,,,,2,,,,,,,0,,,,
03C,59,high,north,2011,08/28/11,2011,8,28,3,3,2,control,ambient_grazers,CGA,check,100,100,0,0,12,88,,4,,,,,,,,,,,,,,,0,0,0,,,,,3,,,,,,,,,6,3,,,,,,88,,,,,,,0,,,,
04C,60,high,north,2011,08/28/11,2011,8,28,3,4,2,succession,ambient_grazers,SGA,check,100,1,0,0,1,0,99,1,,,,,,,,,,,,,,,0,0,0,,,,,,,,,,,,,,1,0,,,,,,,,,,,,,0,,,,
GR03A,14,low,north,2011,08/29/11,2011,8,29,3,16,2,succession,reduced_grazers,SGR,check,100.5,84.5,1,54.25,30,0,15,11,,,,,6,,,,,,0.25,,,,0,15,0,,,7,,,,1,,,,,,1,0,5,,,0.25,,,,,,2,,,,0,30,17,,
07A,17,low,north,2011,08/29/11,2011,8,29,3,7,2,control,ambient_grazers,CGA,check,110.5,109.5,1,0.25,96,13,,10,,,,,,,,,11,,,,,,19,29,0,,,,,,,,,12,,5,0.25,,0,0,,,,,,,,,,4,16,,13,0.25,,,
08A,18,low,north,2011,08/29/11,2011,8,29,3,8,2,succession,ambient_grazers,SGA,check,100,93,1,48,45,0,6,8,,,,,12,,,,,,,,,,1,2,27,,,15,,,,,,,,,,,0,3,,,,,,,,,,,,,0,15,18,,
GR04A,19,low,south,2011,08/29/11,2011,8,29,3,17,2,succession,reduced_grazers,SGR,check,99,81,4,3,76,2,15,8,,,,,4,,,,,,,,,,19,13,34,,,3,,,,,,,,,2,,0,4,,,,,,,,,,,,,2,,,,
09A,21,low,south,2011,08/29/11,2011,8,29,3,9,2,succession,ambient_grazers,SGA,check,100.25,93.25,4,43,50,0,3,9,,,,,,,,,,,1,,,,7,10,29,,,,,,,,,,,,,,0,2,,,,,,,,,,2,,,0.25,36,6,,
10A,22,low,south,2011,08/29/11,2011,8,29,3,10,2,control,ambient_grazers,CGA,check,100,81,9,0,78,3,10,9,,,,,,,,,,,,,,15,8,0,0,,,,,,,,,2,,3,8,1,0,0,,,,,,,,,,5,36,,3,,,,
GR05A,23,low,south,2011,08/29/11,2011,8,29,3,18,2,succession,reduced_grazers,SGR,check,100,99,0,25,74,0,1,6,,,,,14,,16,,,,,,,,32,0,12,,,20,,,,,,,,,,,0,0,,,,,,,,,,,,,0,,5,,
11A,24,low,south,2011,08/29/11,2011,8,29,3,11,2,succession,ambient_grazers,SGA,check,100,94,4,32,62,0,2,5,,,,,,,,,,,,,,,0,4,57,,,20,,,,,,,,,,,0,1,,,,,,,,,,,,,0,,12,,
12A,25,low,south,2011,08/29/11,2011,8,29,3,12,2,control,ambient_grazers,CGA,check,99,83,11,0,69,14,5,8,,,,,,,8,,,,,,,29,8,0,4,,,,,,,,,,,14,,,0,0,,,,,,,,,,3,3,,14,,,,
12B,54,mid,south,2011,08/29/11,2011,8,29,3,12,2,control,ambient_grazers,CGA,check,100,94,2,0,94,0,4,8,,,,,,,,,10,,,,,,4,21,0,,,,,9,,13,,,,,,,3,4,,,30,,,,,,,,,,0,,,,
11B,53,mid,south,2011,08/29/11,2011,8,29,3,11,2,succession,ambient_grazers,SGA,check,100.5,98.5,0,98,1,0,2,3,,,,,,,,,,,,,,,0,0,0,,,,,,,,,,,,,,0,0.25,,,,,,,,,0.25,,,,0,98,,,
GR05B,51,mid,south,2011,08/29/11,2011,8,29,3,18,2,succession,reduced_grazers,SGR,check,100,91,0,23,68,0,9,4,,,,,,,,,,,,,,,0,0,66,,,,,,,1,,,,,,,0,1,,,,,,,,,,,,,0,23,,,
10B,50,mid,south,2011,08/29/11,2011,8,29,3,10,2,control,ambient_grazers,CGA,check,100,100,0,0,99,1,,6,,,1,,,,,,2,,,,,1,0,0,0,,,,,,,92,,,,,,,0,3,,,1,,,,,,,,,,0,,,,
09B,49,mid,south,2011,08/29/11,2011,8,29,3,9,2,succession,ambient_grazers,SGA,check,101.5,101.5,0,99,3,0,,5,,,,,,,,,,,,,,,0,1,0,,,,,,,0.25,,,,,,,0,1,,,,,,,,,,,,,0,99,,,0.25
GR04B,46,mid,south,2011,08/29/11,2011,8,29,3,17,2,succession,reduced_grazers,SGR,check,100.25,91.25,0,46,45,0,9,5,1,,,,45,,,,,,,,,,0,0,0,,,,,,,0.25,,,,,,,0,0,,,,,,,,,,,,,0,16,29,,
GR04C,67,high,south,2011,08/29/11,2011,8,29,3,17,2,succession,reduced_grazers,SGR,check,100.25,0.25,0,0,0,0,100,1,,,,,,,,,,,,,,,0,0,0,,,,,,,,,,,,,,0,0,0.25,,,,,,,,,,,,0,,,,
10C,69,high,south,2011,08/29/11,2011,8,29,3,10,2,control,ambient_grazers,CGA,check,110,91,19,0,91,0,,4,,,,,,,,,,,,,,,0,0,0,,,,,50,,,,,,,,3,17,0,21,,,,,,,,,,,,0,,,,
GR05C,70,high,south,2011,08/29/11,2011,8,29,3,18,2,succession,reduced_grazers,SGR,check,100,20,0,20,0,0,80,1,,,,,,,,,,,,,,,0,0,0,,,20,,,,,,,,,,,0,0,,,,,,,,,,,,,0,,,,
11C,71,high,south,2011,08/29/11,2011,8,29,3,11,2,succession,ambient_grazers,SGA,check,100,1,0,0,1,0,99,1,,,,,,,,,,,,,,,0,0,0,,,,,,,,,,,,,1,0,0,,,,,,,,,,,,,0,,,,
12C,72,high,south,2011,08/29/11,2011,8,29,3,12,2,control,ambient_grazers,CGA,check,102,66,31,0,65,1,5,5,,,,,,,,,,,,,,,0,0,0,,,,,15,,,,,,,,6,25,0,19,,,,,1,,,,,,,0,,,,
07C,65,high,north,2011,08/29/11,2011,8,29,3,7,2,control,ambient_grazers,CGA,check,100,80,10,0,78,2,10,4,,,,,,,,,,,,,,,0,0,0,,,,,74,,,,,,,,3,0,0,1,,,,,2,,,,,,,0,,,,
06C,63,high,north,2011,08/29/11,2011,8,29,3,6,2,control,ambient_grazers,CGA,check,100,100,0,0,96,4,,4,,,,,,,,,,,,,,,0,0,0,,,,,7,,,,,,,,,3,0,86,,,,,4,,,,,,,0,,,,
GR03B,43,mid,north,2011,08/29/11,2011,8,29,3,16,2,succession,reduced_grazers,SGR,check,100,100,0,1,87,0,,6,,,,,78,12,,,1,,,,,,0,7,0,,,,,,,,,,,,,,0,0,,,1,,,,,,,,,,0,1,,,
07B,44,mid,north,2011,08/29/11,2011,8,29,3,7,2,control,ambient_grazers,CGA,check,100.25,99.25,1,0.25,99,0,,5,,,,,,,,,,20,,,,,2,23,0,,,,,,,,,,,,,,0,0,,,54,,,,,,,,,,0,0.25,,,
08B,45,mid,north,2011,08/29/11,2011,8,29,3,8,2,succession,ambient_grazers,SGA,check,100,90,1,17,58,0,9,3,,,,,58,15,,,,,,,,,0,0,0,,,,,,,,,,,,,,0,0,,,,,,,,,,,,,0,17,,,
05C,62,high,north,2011,08/29/11,2011,8,29,3,5,2,succession,ambient_grazers,SGA,check,100.5,1.5,0,0,1,0,99,3,,,,,,,,,,,,,,,0,0,0,,,,,,,,,,,,,1,0,0,0.25,,,,,0.25,,,,,,,0,,,,
GR03C,64,high,north,2011,08/29/11,2011,8,29,3,16,2,succession,reduced_grazers,SGR,check,100.5,0.5,0,0,1,0,100,2,,,,,,,,,,,,,,,0,0,0,,,,,0.25,,,,,,,,,0,0.25,,,,,,,,,,,,,0,,,,
GR00A,2,low,north,2011,05/21/12,2012,5,21,4,13,11,succession,reduced_grazers,SGR,field,101,83,0,30,42,12,18,15,10,,,,,,,,12,,5,,,,4,8,12,,,,,,,0.25,,1,0.25,,,,0,3,,0.25,1,,,,0.25,,,,,,11,15,,,
01A,3,low,north,2011,05/21/12,2012,5,21,4,1,11,succession,ambient_grazers,SGA,field,98.75,88.75,6,0.25,70,19,4,12,,,,,,,1,,20,,,,,,9,11,20,,,,,,,,,,,,0.25,,0,0,,,5,1,0.25,,,,,,,,19,0.25,,,2
02A,4,low,north,2011,05/21/12,2012,5,21,4,2,11,control,ambient_grazers,CGA,field,100,85,7,4,40,41,8,8,3,,,,,,,,5,,,,,,12,10,10,,,,,,,,,,,,,,0,0,,,3,,,,,,,,,,41,1,,,
GR01A,5,low,north,2011,05/21/12,2012,5,21,4,14,11,succession,reduced_grazers,SGR,field,100,76,1,13,61,2,23,11,5,,,,,,,,15,,,3,,,3,7,29,,,,,,,1,,,,,,4,0,0,,,,,,,,,2,,,,2,5,,,
GR00B,30,mid,north,2011,05/22/12,2012,5,22,4,13,11,succession,reduced_grazers,SGR,field,101,95.25,0.75,91,4,0,5,5,1,,,,,,,,,,,,,,0,0.25,0,,,,,1,,3,,,,,,,0,0,,,,,,,,,,,,,0,90,,,
GR01B,34,mid,north,2011,05/22/12,2012,5,22,4,14,11,succession,reduced_grazers,SGR,field,100.25,80.25,6,67,13,0,14,7,13,,,,,,,,,,,,,,0,0,0,,,,,0.25,,2,1,,,,,,1,0,,,,,,,,,9,,,,0,54,,,
GR02B,39,mid,north,2011,05/22/12,2012,5,22,4,15,11,succession,reduced_grazers,SGR,field,97.5,79,4.5,52,27,0,14,8,,,,,,,,,,,,,,,1,0,10,,,,,,,3,,,,,,6,5,1,,,,,,,,,1,,,,0,52,,,
GR05B,51,mid,south,2011,05/23/12,2012,5,23,4,18,11,succession,reduced_grazers,SGR,photo,100,100,0,5,95,0,,10,,,,,,,,,2,,,,,,1,12,0,,,,13,,,3,,2,,,,2,35,25,,,,,,,,,,,,,0,5,,,
GR04B,46,mid,south,2011,05/23/12,2012,5,23,4,17,11,succession,reduced_grazers,SGR,photo,100.25,100.25,0,0,100,0,,7,,,,,,,,,1,,,,,,0,0,0,,,,,,0.25,6,,,,,,,13,78,,,,,,,,,1,,,,0,,,,1
GR03B,43,mid,north,2011,05/23/12,2012,5,23,4,16,11,succession,reduced_grazers,SGR,photo,100,74,2,4,70,0,24,8,,,,,,,,,5,1,,,,,22,36,0,,,,,,,,,,,,,1,0,1,,,4,,,,,,,,,,0,4,,,
GR03C,64,high,north,2011,05/24/12,2012,5,24,4,16,11,succession,reduced_grazers,SGR,photo,100,13,30,0,9,4,57,6,,,,,,,,,,,,,,,0,0,0,,,,,4,,,1,,,,,1,0,2,1,,,,,4,,,,,,,0,,,,
GR00A,2,low,north,2011,06/04/12,2012,6,4,5,13,12,succession,reduced_grazers,SGR,check,92,83,0,48,23,12,9,12,15,4,,,,,,,8,,,,,1,5,0,0,,,,,,,0.25,,,0.25,,0.25,,0,0,,,4,,,,0.25,,,,,,12,33,,,
01A,3,low,north,2011,06/04/12,2012,6,4,5,1,12,succession,ambient_grazers,SGA,check,84,82,2,2,70,10,,8,,,,,,,3,,37,,,,,,0,7,18,,,,,,,,,,,,,,2,0,,,3,,,,,,,,,,10,2,,,
02A,4,low,north,2011,06/04/12,2012,6,4,5,2,12,control,ambient_grazers,CGA,check,92.5,81.5,6,5,46,31,5,12,4,,,,,,,,7,,,,,,0.25,6,22,,,,,,,,,4,,,1,,0,0,,,2,,,,0.25,,,,3,,31,1,,,
GR01A,5,low,north,2011,06/04/12,2012,6,4,5,14,12,succession,reduced_grazers,SGR,check,97.75,83.75,5,29,51,4,9,13,10,,,,,,,,18,,,3,,,7,4,7,,,,,,,2,,,0.25,,,12,0,0,,,0.25,,,,0.25,,,,,,4,16,,,
03A,6,low,north,2011,06/04/12,2012,6,4,5,3,12,control,ambient_grazers,CGA,check,100.5,93.25,7.25,0,77,16,,12,,,,,,,0.25,,4,,,,,,5,21,3,,,,,,,,,16,,,2,,1,18,,,5,,,,2,,,,,,16,,,,0.25
04A,7,low,north,2011,06/04/12,2012,6,4,5,4,12,succession,ambient_grazers,SGA,check,101,69,2,2,52,15,30,8,,,,,,,9,,2,,,,,,0,4,30,,,,,,,,,,,,,,0,6,,,,,,,1,,,,,,15,2,,,
GR02A,10,low,north,2011,06/04/12,2012,6,4,5,15,12,succession,reduced_grazers,SGR,check,102.75,88.75,2,0.25,83,6,12,11,,,,,,,,,15,,,,,,13,0,7,,,,,,,0.25,,,,,,,0,35,,,4,,0.25,,3,,,5,,,6,0.25,,,
05A,12,low,north,2011,06/04/12,2012,6,4,5,5,12,succession,ambient_grazers,SGA,check,100.5,86.5,0,0.25,78,8,14,13,,,,,,,0.25,,8,,,,,,20,21,9,,,,,,,,,3,,,3,,0,7,,,3,,1,,,,,3,,,8,0.25,,,
06A,13,low,north,2011,06/04/12,2012,6,4,5,6,12,control,ambient_grazers,CGA,check,100,99,0,0,88,11,1,5,,,,,,,,,,,,,,,7,21,8,,,,,,,,,,,,,,0,52,,,,,,,,,,,,,11,,,,
GR03A,14,low,north,2011,06/04/12,2012,6,4,5,16,12,succession,reduced_grazers,SGR,check,103.5,91.5,8,0,90,2,4,9,,,,,,,,,7,,,,,0.25,2,26,6,,,,,,,,,,,,,,0,45,,,0.25,,,,,,,,,,2,0.5,,,3
08B,45,mid,north,2011,06/04/12,2012,6,4,5,8,12,succession,ambient_grazers,SGA,check,100.25,66.25,11,5,61,0,23,9,3,,,,,,,,9,,,,,,12,30,8,,,,,,,,,,,,,,1,0,,,0.25,,,,1,,,,,,0,2,,,
07B,44,mid,north,2011,06/04/12,2012,6,4,5,7,12,control,ambient_grazers,CGA,check,100,95,5,0,95,0,,5,,,,,,,,,7,10,,,,,3,27,0,,,,,,,,,,,,,,0,0,,,,,,,48,,,,,,0,,,,
GR03B,43,mid,north,2011,06/04/12,2012,6,4,5,16,12,succession,reduced_grazers,SGR,check,100.25,83,1.25,10,72,1,16,8,,,,,,,,,8,1,,,,,12,42,6,,,,,,,,,,,,,,0,0,,,,,,,3,,,,,,1,10,,,
07A,17,low,north,2011,06/05/12,2012,6,5,5,7,12,control,ambient_grazers,CGA,check,109,96,8,0,87,9,5,9,,,,,,,,,7,,,,,2,6,22,29,,,,,,,1,,6,,,,,0,14,,,,,,,,,,,,,9,,,,
08A,18,low,north,2011,06/05/12,2012,6,5,5,8,12,succession,ambient_grazers,SGA,check,93,79,3,0,59,20,11,6,,,,,,,,,7,,,,,,15,5,30,,,,,,,,,2,,,,,0,0,,,,,,,,,,,,,20,,,,
GR04A,19,low,south,2011,06/05/12,2012,6,5,5,17,12,succession,reduced_grazers,SGR,check,100,96,4,22,74,0,,12,7,,,,,,,,13,,,,,,7,4,7,,,,,,,3,,1,,,1,,0,21,,,16,,,,,,,,1,,0,15,,,
09A,21,low,south,2011,06/05/12,2012,6,5,5,9,12,succession,ambient_grazers,SGA,check,100,90,4,10,78,2,6,10,,2,,,,,,,20,,,,,,17,30,6,,,,,,,1,,,,,,,1,1,,,,,,,,,,,,,2,10,,,
10A,22,low,south,2011,06/05/12,2012,6,5,5,10,12,control,ambient_grazers,CGA,check,99.25,79,15.25,0,55,24,5,7,,,,,,,,,4,,,,,,7,25,0,,,,,,,,,2,,,,,0,0,,,2,,,,,,,,15,,24,,,,
GR05A,23,low,south,2011,06/05/12,2012,6,5,5,18,12,succession,reduced_grazers,SGR,check,100,98,1,2,85,11,1,9,,3,,,,,,,12,,,,,,24,17,0,,,,,,,,,,,,,,5,21,,,,,,,,,,,,,11,2,,,3
11A,24,low,south,2011,06/05/12,2012,6,5,5,11,12,succession,ambient_grazers,SGA,check,19.5,6.5,11,0,7,0,2,5,,,,,,,,,0.25,,,,,,0.25,3,0,,,,,,,,,,,,,,0,0,,,,,,,,,,2,0.5,,0,,,,1
12A,25,low,south,2011,06/05/12,2012,6,5,5,12,12,control,ambient_grazers,CGA,check,100.5,90,3.5,0,65,25,7,10,,1,,,,,,,1,,,,,,16,37,0,,,,,,,1,,6,,1,,,0,0,,,,,,,,,,,1,,25,,,,1
11B,53,mid,south,2011,06/05/12,2012,6,5,5,11,12,succession,ambient_grazers,SGA,check,100.25,60,32.25,13,46,0,8,8,,,,,,1,,,10,,,,,,0,0,0,,,,,3,,15,,,,,,,0,4,,,3,,,,,,11,,,,0,13,,,
12B,54,mid,south,2011,06/05/12,2012,6,5,5,12,12,control,ambient_grazers,CGA,check,100,83,17,0,77,6,,5,,,,,,,,,12,,,,,,0,33,0,,,,,17,,,,,,,,,0,0,,,15,,,,,,,,,,6,,,,
GR05B,51,mid,south,2011,06/05/12,2012,6,5,5,18,12,succession,reduced_grazers,SGR,check,100.75,99.5,1.25,5,94,0,,9,,,,0.25,,,,,0.25,,,,,1,1,13,0,,,,,,,4,,,,,,,45,0,30,,,,,,,,,,,,0,5,,,
10B,50,mid,south,2011,06/05/12,2012,6,5,5,10,12,control,ambient_grazers,CGA,check,100.25,84.25,16,0.25,78,6,,9,,1,6,,,,,,,,,,,,0,10,0,,,,,1,,31,,,,,,,0,0,4,,27,,,,,,4,,,,0,0.25,,,
09B,49,mid,south,2011,06/05/12,2012,6,5,5,9,12,succession,ambient_grazers,SGA,check,99,93,2,5,84,4,4,9,,,4,,,,,,2,,,,,,0,2,0,,,,,,,45,,,,,,,6,25,,,2,,,,,,2,,,,0,5,,,
12C,72,high,south,2011,06/05/12,2012,6,5,5,12,12,control,ambient_grazers,CGA,check,96.25,58,30.25,0,57,1,8,5,,,,,,,,,,,,,,,0,0,0,,,,,25,,,,,,,,5,15,12,,,,,,1,,,,,,,0,,,,
11C,71,high,south,2011,06/05/12,2012,6,5,5,11,12,succession,ambient_grazers,SGA,check,100,25,45,0,25,0,30,5,,,,,,,,,,,,,,,0,0,0,,,,,1,,,,,,,,3,1,0,11,,,,,,,,9,,,,0,,,,
GR05C,70,high,south,2011,06/05/12,2012,6,5,5,18,12,succession,reduced_grazers,SGR,check,100.75,39.5,7.25,0.5,39,0,54,6,0.25,,,,,,,,,,,,,,0,0,0,,,,,,,,,,,,,16,10,0,10,,,,,,,,3,,,,0,0.25,,,
GR04B,46,mid,south,2011,06/05/12,2012,6,5,5,17,12,succession,reduced_grazers,SGR,check,101,100.5,0.5,0.25,100,0,,6,,,,,,,,,,,,,,,0,0,0,,,,,0.25,,5,,,,,,,10,0,83,,,,,,,,,,,,0,0.25,,,2
GR04C,67,high,south,2011,06/05/12,2012,6,5,5,17,12,succession,reduced_grazers,SGR,check,100.25,62.25,2,3.25,55,4,36,8,0.25,,,,,,,,,,,,,,0,0,0,,,,,1,3,,,,,,,,17,0,36,,,,,1,,,1,,,,0,3,,,
09C,68,high,south,2011,06/05/12,2012,6,5,5,9,12,succession,ambient_grazers,SGA,check,100,11,37,3,7,1,52,5,,,,,,,,,,,,,,,0,0,0,,,,,2,1,,,,,,,,1,0,,,,,,,,,4,,,,0,3,,,
10C,69,high,south,2011,06/05/12,2012,6,5,5,10,12,control,ambient_grazers,CGA,check,100.75,75.25,19.5,1,71,3,6,7,,,,,,,,,,,,,,,0,0,0,,,,,51,3,0.25,,,,,,1,8,0,11,,,,,,,,,,,,0,1,,,
GR02B,39,mid,north,2011,06/05/12,2012,6,5,5,15,12,succession,reduced_grazers,SGR,check,100.25,62,18.25,52,10,0,20,4,,,,,,,,,,,,,,,0,0,0,,,,,,,2,,,,,,4,0,4,,,,,,,,,,,,,0,52,,,
GR01B,34,mid,north,2011,06/05/12,2012,6,5,5,14,12,succession,reduced_grazers,SGR,check,100,79,6,62,17,0,15,4,16,,,,,,,,,,,,,,0,0,0,,,,,,,3,,,,,,,0,0,,,,,,,,,14,,,,0,46,,,
GR00B,30,mid,north,2011,06/05/12,2012,6,5,5,13,12,succession,reduced_grazers,SGR,check,100,95,1,85,10,0,4,4,,,,,,,,,,,,,,,0,5,0,,,,,,,4,,,,,,1,0,0,,,,,,,,,,,,,0,85,,,
GR00C,55,high,north,2011,06/07/12,2012,6,7,5,13,12,succession,reduced_grazers,SGR,check,100,26,50,0,16,10,24,3,,,,,,,,,,,,,,,0,0,0,,,,,4,,,,,,,,,0,12,,,,,,10,,,,,,,0,,,,
01C,56,high,north,2011,06/07/12,2012,6,7,5,1,12,succession,ambient_grazers,SGA,check,100,16,30,0,15,1,54,5,,,,,,,,,,,,,,,0,0,0,,,,,4,,,,,,,,,1,1,,,,,,1,,,9,,,,0,,,,
02C,57,high,north,2011,06/07/12,2012,6,7,5,2,12,control,ambient_grazers,CGA,check,99.25,89,3.25,0,54,35,7,4,,,,,,,,,,,,,,,0,0,0,,,,,30,,,,,,,,,16,0,8,,,,,35,,,,,,,0,,,,
GR01C,58,high,north,2011,06/07/12,2012,6,7,5,14,12,succession,reduced_grazers,SGR,check,98,78,2,0,63,15,18,4,,,,,,,,,,,,,,,0,0,0,,,,,3,6,,,,,,,,0,0,60,,,,,9,,,,,,,0,,,,
03C,59,high,north,2011,06/07/12,2012,6,7,5,3,12,control,ambient_grazers,CGA,check,101,94,3,1,64,29,4,6,,,,,,,,,,,,,,,0,0,0,,,,,25,,,,,,,,2,23,14,,,,,,29,,,,,,,0,1,,,
04C,60,high,north,2011,06/07/12,2012,6,7,5,4,12,succession,ambient_grazers,SGA,check,100,15,70,0,14,1,15,3,,,,,,,,,,,,,,,0,0,0,,,,,7,,,,,,,,,0,0,,,,,,1,,,,,,,0,,,,7
GR02C,61,high,north,2011,06/07/12,2012,6,7,5,15,12,succession,reduced_grazers,SGR,check,100,75,6,1,57,17,19,7,,,,,,,,,,,,,,,0,0,0,,,,,1,12,,,,,,,,45,0,10,,,,,5,,,1,,,,0,1,,,
01B,32,mid,north,2011,06/07/12,2012,6,7,5,1,12,succession,ambient_grazers,SGA,check,100.5,99,0.5,84,15,0,1,7,,,,,,,,,4,,,,,,1,4,0,,,,,,,4,,,,,,1,1,0,,,,,,,,,,,,,0,84,,,
02B,33,mid,north,2011,06/07/12,2012,6,7,5,2,12,control,ambient_grazers,CGA,check,100,82,9,7,59,16,9,9,2,,,,,,,,10,3,,,,,0,15,0,,,,,,,30,,,1,,,,0,0,,,1,,,,,,,,,,15,5,,,
03B,35,mid,north,2011,06/07/12,2012,6,7,5,3,12,control,ambient_grazers,CGA,check,100.5,89.25,0.25,6,82,1,11,15,5,,,0.25,,,,,9,1,,,,,2,10,0,,,,,6,,43,,,1,,,2,0,3,,,4,,,,,,1,,,,0,1,,,1
04B,36,mid,north,2011,06/07/12,2012,6,7,5,4,12,succession,ambient_grazers,SGA,check,100.25,88,3.25,31,57,0,9,7,4,,,,,,,,2,,,,,,0,9,0,,,,,,,39,,,,,,3,4,0,,,,,,,,,,,,,0,27,,,
06B,42,mid,north,2011,06/07/12,2012,6,7,5,6,12,control,ambient_grazers,CGA,check,101.25,49.25,45,2.25,42,5,7,10,0.25,,,,3,,,,13,,,,,,0,15,0,,,,,,,6,1,,5,,,3,0,0,,,1,,,,,,,,,,0,2,,,
05B,41,mid,north,2011,06/07/12,2012,6,7,5,5,12,succession,ambient_grazers,SGA,check,100.5,74.25,6.25,40,34,0,20,11,14,,,,5,,,,,,,,,,0,0.25,0,,,,,2,,1,1,,,,,2,8,6,,,,,,,,,9,,,,0,26,,,
05C,62,high,north,2011,06/07/12,2012,6,7,5,5,12,succession,ambient_grazers,SGA,check,100.25,34,14.25,0,34,0,52,4,,,,,,,,,,,,,,,0,0,0,,,,,5,,,,,,,,2,17,0,10,,,,,,,,,,,,0,,,,
06C,63,high,north,2011,06/07/12,2012,6,7,5,6,12,control,ambient_grazers,CGA,check,100,100,0,0,97,3,,4,,,,,,,,,,,,,,,0,0,0,,,,,4,,,,,,,,,1,0,92,,,,,3,,,,,,,0,,,,
07C,65,high,north,2011,06/07/12,2012,6,7,5,7,12,control,ambient_grazers,CGA,check,100.5,95.25,1.25,0,82,13,4,4,,,,,,,,,,,,,,,0,0,0,,,,,77,,,,,,,,,5,0.25,,,,,,13,,,,,,,0,,,,
08C,66,high,north,2011,06/07/12,2012,6,7,5,8,12,succession,ambient_grazers,SGA,check,100.5,10.25,17.25,0,10,0,73,4,,,,,,,,,,,,,,,0,0,0,,,,,4,,,,,,,,,0,3,,,,,,0.25,,,3,,,,0,,,,
GR03C,64,high,north,2011,06/07/12,2012,6,7,5,16,12,succession,reduced_grazers,SGR,check,100,9,25,0,4,5,66,4,,,,,,,,,,,,,,,0,0,0,,,,,2,,,,,,,,1,0,0,1,,,,,5,,,,,,,0,,,,
GR00A,2,low,north,2011,07/04/12,2012,7,4,6,13,13,succession,reduced_grazers,SGR,check,100.75,88.75,0,53,36,0,12,9,44,,,,,,,,12,,,,,,0.25,0.25,0,,,,,,,0.25,,,,,,,0,18,,,4,,,,,,,,1,,0,9,,,
01A,3,low,north,2011,07/04/12,2012,7,4,6,1,13,succession,ambient_grazers,SGA,check,100.25,89.25,8,4,79,6,3,12,,,,,,,4,,29,,,,,,10,8,0,0.25,,,,,,,,,,,2,,1,0,,,,14,2,,,,,,9,,6,4,,,
02A,4,low,north,2011,07/04/12,2012,7,4,6,2,13,control,ambient_grazers,CGA,check,101,84.5,9.5,2.25,67,15,7,12,2,,,,,,0.25,,5,,,,,,3,17,27,,,,,,,,,3,,,2,,0,0,,,5,,,,,,,5,,,15,0.25,,,
GR01A,5,low,north,2011,07/04/12,2012,7,4,6,14,13,succession,reduced_grazers,SGR,check,100,93,1,49,43,1,6,9,27,,,,,,,,18,,,3,,,0,11,0,,,,,,,1,,,,,,11,2,0,,,,,,,,,,,,,1,19,,,
03A,6,low,north,2011,07/04/12,2012,7,4,6,3,13,control,ambient_grazers,CGA,check,100,91,9,0,88,3,,11,,,,,,,3,,3,,,,,,9,11,0,,,,12,,,,,18,,,,,0,22,,,3,,,,,,4,3,,,3,,,,
04A,7,low,north,2011,07/04/12,2012,7,4,6,4,13,succession,ambient_grazers,SGA,check,100.75,66.75,0,4.5,51,11,34,12,0.25,,,,,,,,,,,0.25,,,6,5,20,,,,,,,0.25,1,,,,,,9,0,,,3,,,,,,,,7,,11,4,,,
CnewA1,9,low,north,2012,07/04/12,2012,7,4,6,,13,control,ambient_grazers,CGA,check,100.5,88.5,10,0.25,77,11,2,13,,,,,,,4,,7,,,,,,3,17,7,,,,,,,,,9,0.25,,,,0,2,,,12,,,,,,,9,7,,11,0.25,,,
05A,12,low,north,2011,07/05/12,2012,7,5,6,5,13,succession,ambient_grazers,SGA,check,100,93,2,0,70,23,5,8,,,,,,,,,20,,,,,,11,19,11,,,,,,,,,3,,,,,0,5,,,,,,,,,,,1,,23,,,,
GR02A,10,low,north,2011,07/05/12,2012,7,5,6,15,13,succession,reduced_grazers,SGR,check,99.25,88,0.25,0,68,20,11,6,,,,,,,,,4,,,,,,23,12,0,,,,,,,,,,,,,,0,26,,,3,,,,,,,,,,20,,,,
06A,13,low,north,2011,07/05/12,2012,7,5,6,6,13,control,ambient_grazers,CGA,check,100,97,1,0,91,6,2,7,,,,,,,,,,,,,,,0,13,8,,,,60,,,,,,,,2,,0,0,,,,,,,,,,3,5,,6,,,,
GR03A,14,low,north,2011,07/05/12,2012,7,5,6,16,13,succession,reduced_grazers,SGR,check,100.5,97.25,3.25,0,97,0,,9,,,,,,,,,12,,,,,,8,30,0,,,,28,,,,,,,2,1,,0,0,,,0.25,,,,,,,7,9,,0,,,,
CnewA2,16,low,north,2012,07/05/12,2012,7,5,6,,13,control,ambient_grazers,CGA,check,101,98,3,0,89,9,,9,,,,,,,,,,,,,,,10,18,0,,,,9,,,,,30,,,15,,0,2,,,,,,,,,,2,3,,9,,,,
07A,17,low,north,2011,07/05/12,2012,7,5,6,7,13,control,ambient_grazers,CGA,check,100.75,95.75,2,0,76,20,3,10,,0.25,,,,,0.25,,14,,,,,,16,28,0,,,,,,,,,8,,1,,,0,0,,,,,,,0.25,,,,8,,20,,,,
08A,18,low,north,2011,07/05/12,2012,7,5,6,8,13,succession,ambient_grazers,SGA,check,102,82.5,12.5,0.25,82,0,7,10,,,,,,,,,13,,,,,,19,8,23,,,,,,,0.25,,2,,,,,0,8,,,,,,,,,,3,6,,0,0.25,,,
SnewA3,26,low,south,2012,07/05/12,2012,7,5,6,,13,succession,ambient_grazers,SGA,check,100.25,98.25,1,0,77,21,1,7,,,,,,,0.25,,,,,,,,28,42,0,,,,,,,,,,,3,2,,0,0,,,,,,,,,,2,,,21,,,,
GR05A,23,low,south,2011,07/05/12,2012,7,5,6,18,13,succession,reduced_grazers,SGA,check,105,101,0,0,101,0,4,9,,1,,,,,,,11,,,,,,30,21,0,,,,26,,,,1,,,,,,4,0,,,,,,,,,,,6,,0,,,,1
10A,22,low,south,2011,07/05/12,2012,7,5,6,10,13,control,ambient_grazers,CGA,check,100.5,91,2.5,0,79,12,7,6,,,,,,,,,,,,,,,8,56,0,,,,,,,,,1,,,1,,0,0,,,,,,,,,,,13,,12,,,,
09A,21,low,south,2011,07/18/12,2012,7,18,6,9,13,succession,ambient_grazers,SGA,check,100.25,94,0.25,4,88,2,6,7,,5,,,,,,,41,,,,,,8,31,0,,,,,,,,,,,,,,0,0,,,,,,,,,,,3,,2,4,,,
11A,24,low,south,2011,07/18/12,2012,7,18,6,11,13,succession,ambient_grazers,SGA,check,98,73,14,0,46,27,11,7,,,,,,,,,6,,,,,,12,10,0,,,,1,,,,,,,,,,0,0,,,,,,,,,,5,12,,27,,,,
12A,25,low,south,2011,07/18/12,2012,7,18,6,12,13,control,ambient_grazers,CGA,check,100,85,8,0,64,21,7,8,,,,,,,,,,,,,,,15,38,0,,,,1,,,,,4,,1,,,0,0,,,,,,,,,,1,4,,21,,,,
SnewA3,26,low,south,2012,07/18/12,2012,7,18,6,,13,succession,ambient_grazers,SGA,check,100,83,0,0,83,0,17,1,,,,,83,,,,,,,,,,0,0,0,,,,,,,,,,,,,,0,0,,,,,,,,,,,,,0,,,,
CnewA3,27,low,south,2012,07/18/12,2012,7,18,6,,13,control,ambient_grazers,CGA,check,100,98,2,0,73,25,,10,,,,,,,5,,7,,,,1,,19,22,0,,,,,,,,,,,2,5,,0,0,,,,,,,,,,4,8,,25,,,,
GRnewA3,20,low,south,2012,07/18/12,2012,7,18,6,,13,succession,reduced_grazers,SGR,check,100.25,88.25,4,4.25,64,0,8,5,1,,,,64,20,,,,,,,,,0,0,0,,,,,,,,,,,,,,0,0,,,,,,,,,,,,,0,3,0.25,,
SnewA2,15,low,north,2012,07/18/12,2012,7,18,6,,13,succession,ambient_grazers,SGA,check,100.25,56.25,12,0.25,56,0,32,2,,,,,56,,,,,,,,,,0,0,0,,,,,,,,,,,,,,0,0,,,,,,,,,,,,,0,,0.25,,
GRnewA2,11,low,north,2012,07/18/12,2012,7,18,6,,13,succession,reduced_grazers,SGR,check,100,97,0,13,84,0,3,4,2,,,,84,,,,,,,,,,0,0,0,,,,,,,,,,,,,,0,0,,,,,,,,,,,,,0,1,10,,
CnewA2,16,low,north,2012,07/18/12,2012,7,18,6,,13,control,ambient_grazers,CGA,check,96.5,96.25,0.25,0,90,6,,10,,,,,2,0.25,,,,,,,,,8,32,0,,,,15,,,,,11,,,13,,0,0,,,,,,,,,,1,8,,6,,,,
SnewA1,8,low,north,2012,07/18/12,2012,7,18,6,,13,succession,ambient_grazers,SGA,check,100,97,0,0,97,0,3,2,,,,,96,,,,,,,,,,0,0,0,,,,1,,,,,,,,,,0,0,,,,,,,,,,,,,0,,,,
GRnewA1,1,low,north,2012,07/18/12,2012,7,18,6,,13,succession,reduced_grazers,SGR,check,100.25,96.25,0,1.25,93,0,4,5,1,,,,93,1,,,,,,,,,0,0,0,,,,,,,,,,,,,,0,0,,,,,,,,,,,,,0,0.25,,1,
SnewB1,29,mid,north,2012,07/18/12,2012,7,18,6,,13,succession,ambient_grazers,SGA,check,100.5,97.5,1,7,90,0,2,4,7,,,,90,0.25,,,,,,,,,0,0,0,,,,,,,,,,,,,,0,0,,,,,,,,,,,,,0,,,0.25,
CnewB1,28,mid,north,2012,07/18/12,2012,7,18,6,,13,control,ambient_grazers,CGA,check,100.25,91,9.25,1,88,2,,11,1,15,2,,,,1,,7,5,,,,,5,0,0,,,,,,,7,,,,,,4,4,0,,,40,,,,,,,,,,0,,,,
GR00B,30,mid,north,2011,07/18/12,2012,7,18,6,13,13,succession,reduced_grazers,SGR,check,100,97,1,24,47,0,2,5,,,,,40,26,,,,,,,,,0,0,0,,,,,,,6,,,,,,1,0,0,,,,,,,,,,,,,0,24,,,
GRnewB1,31,mid,north,2012,07/18/12,2012,7,18,6,,13,succession,reduced_grazers,SGR,check,100.25,87.25,0,1.25,80,0,13,5,0.25,,,,79,,,,,,,,,,0,0,0,,,,,,,,,,,,,1,0,0,,,,,,,,,,,,,0,1,,6,
01B,32,mid,north,2011,07/18/12,2012,7,18,6,1,13,succession,ambient_grazers,SGA,check,100.5,89.25,1.25,61,28,0,10,8,,,,,,,4,,1,,,,,,13,6,0,,,,,,,0.25,,,,,,2,0,0,,,2,,,,,,,,,,0,61,,,
02B,33,mid,north,2011,07/18/12,2012,7,18,6,2,13,control,ambient_grazers,CGA,check,100,81,19,3,65,13,,12,1,5,,,,,,,5,7,1,,,,0,12,0,,,,,,,22,,,13,,,6,1,0,,,7,,,,,,,,,,0,1,,,
GR01B,34,mid,north,2011,07/18/12,2012,7,18,6,14,13,succession,reduced_grazers,SGR,check,101,69.75,5.25,61,8,1,26,7,18,,,,,,,,,,,,,,0,0,0,,,,,0.25,0.25,,,,,,,,4,0,,0.25,,,,,,,4,,,,0,43,,,
GR00C,55,high,north,2011,07/18/12,2012,7,18,6,13,13,succession,reduced_grazers,SGR,check,100,14,45,0,10,4,41,2,,,,,,,,,,,,,,,0,0,0,,,,,,,,,,,,,,0,0,10,,,,,4,,,,,,,0,,,,
01C,56,high,north,2011,07/18/12,2012,7,18,6,1,13,succession,ambient_grazers,SGA,check,100,8,43,0,6,2,49,4,,,,,,,,,,,,,,,0,0,0,,,,,3,,,,,,,,,1,0,2,,,,,2,,,,,,,0,,,,
03B,35,mid,north,2011,07/19/12,2012,7,19,6,3,13,control,ambient_grazers,CGA,check,100.25,90,6.25,7,80,3,4,10,4,,,,,,,,3,,,,,,0,8,0,,,,,2,,61,,,3,,,,4,1,,,1,,,,,,,,,,0,3,,,
04B,36,mid,north,2011,07/19/12,2012,7,19,6,4,13,succession,ambient_grazers,SGA,check,100.5,92,3.5,20,70,2,5,8,4,,,1,,,,,,,,,,,0,0,0,,1,,,,,61,,,,,,1,7,1,,,,,,,,,,,,,0,16,,,
CnewB2,37,mid,north,2012,07/19/12,2012,7,19,6,,13,control,ambient_grazers,CGA,check,101.5,92.5,8,0.25,58,34,1,10,,2,,,,,,,33,,,,,,4,14,0,,,,,3,,1,,,34,,,1,0.25,0,,,,,,,,,,,,,0,0.25,,,
SnewB2,38,mid,north,2012,07/19/12,2012,7,19,6,,13,succession,ambient_grazers,SGA,check,100.25,100.25,0,15.25,85,0,,4,,,,,84,,,,,,,,,,0,0,0,,,,,,,,,,,,,,0,0,,,,,,,,,,,,,0,0.25,15,,1
GR02B,39,mid,north,2011,07/19/12,2012,7,19,6,15,13,succession,reduced_grazers,SGR,check,100.5,85.25,10.25,78,5,2,5,8,,,,2,,,,,,,,,,,2,0,0,,,38,,,,0.25,,,,,,,2,1,,,,,,,,,,,,,0,5,35,,
GRnewB2,40,mid,north,2012,07/19/12,2012,7,19,6,,13,succession,reduced_grazers,SGR,check,100,97,0,0,67,0,3,2,,,,,67,,,,,,,,,,0,0,0,,,,,,,,,,,,,,0,0,,,,,,,,,,,,,0,,,30,
05B,41,mid,north,2011,07/19/12,2012,7,19,6,5,13,succession,ambient_grazers,SGA,check,103,81.5,2.5,39,43,0,19,10,14,,,,,,,,2,,,,,,0,0.25,0,,,,,0.25,,2,,,,,,3,24,5,,,,,,,,,6,,,,0,25,,,
06B,42,mid,north,2011,07/19/12,2012,7,19,6,6,13,control,ambient_grazers,CGA,check,114.75,72.25,29.5,9.25,43,20,13,11,,,,,,,,,4,,,0.25,,,0,10,0,,,,,,1,15,1,,19,,,3,1,0,,,9,,,,,,,,,,0,9,,,
GR03B,43,mid,north,2011,07/19/12,2012,7,19,6,16,13,succession,reduced_grazers,SGR,check,101,75.25,0.75,10,64,0,25,6,,,,0.25,,,,,3,,,,,,37,24,0,,,,,,,,,,,,,,0,0,,,,,,,,,,,,,0,10,,1,
12B,54,mid,south,2011,07/19/12,2012,7,19,6,12,13,control,ambient_grazers,CGA,check,100.25,60.25,40,0,60,0,,7,,4,,,,,,,10,,,,,,1,25,0,,,,,5,,0.25,,,,,,,0,0,,,15,,,,,,,,,,0,,,,
11B,53,mid,south,2011,07/19/12,2012,7,19,6,11,13,succession,ambient_grazers,SGA,check,99.5,65,20.5,13,52,0,14,7,,,,,,,,,1,,,,,,0,0,0,,,,,5,,28,,,,,,,0,4,,,3,,,,,,11,,,,0,13,,,
GRnewB3,52,mid,south,2012,07/19/12,2012,7,19,6,,13,succession,reduced_grazers,SGR,check,100,100,0,0,50,0,,3,,,,,50,10,,,,,,,,,0,0,0,,,,,,,,,,,,,,0,0,,,,,,,,,,,,,0,,,40,
GR05B,51,mid,south,2011,07/19/12,2012,7,19,6,18,13,succession,reduced_grazers,SGR,check,98,94,0,3,89,2,4,8,,,,2,,,,,,,,,,,5,5,7,,,,,,,2,,,,,,,38,32,,,,,,,,,,,,,0,3,,,
10B,50,mid,south,2011,07/19/12,2012,7,19,6,10,13,control,ambient_grazers,CGA,check,100,82,14,0,76,6,4,9,,,3,,,,,,2,,,,,,0,8,0,,,,,,,37,,,,,,,0,0,,,23,,,3,3,,2,,,,0,,,,1
09B,49,mid,south,2011,07/19/12,2012,7,19,6,9,13,succession,ambient_grazers,SGA,check,100,95,0,9,73,13,5,8,,,13,,,,,,,,,,,,0,2,0,,,,,,,46,,,,,,,10,11,,,,,,,,1,3,,,,0,9,,,
SnewB3,48,mid,south,2012,07/19/12,2012,7,19,6,,13,succession,ambient_grazers,SGA,check,100,100,0,20,80,0,,2,,,,,80,,,,,,,,,,0,0,0,,,,,,,,,,,,,,0,0,,,,,,,,,,,,,0,,20,,
CnewB3,47,mid,south,2012,07/19/12,2012,7,19,6,,13,control,ambient_grazers,CGA,check,100.75,87.75,13,0.5,86,1,,13,,,,,,,,,11,,,0.25,,,4,42,0,,,,,,,8,,,1,,,1,1,1,,,17,,,0.25,1,,,,,,0,0.25,,,
07B,44,mid,north,2011,07/19/12,2012,7,19,6,7,13,control,ambient_grazers,CGA,check,100.5,94,6.5,0,94,0,,6,,,,,,,,,10,28,,,,,2,29,0,,,,,,,,,,,,,,0,0,,,18,,,,7,,,,,,0,,,,
08B,45,mid,north,2011,07/19/12,2012,7,19,6,8,13,succession,ambient_grazers,SGA,check,100.5,49,12.5,2,46,1,39,7,,,,,2,,,,,,,,,,9,27,0,,,,,,,,,,1,,,,3,0,,,5,,,,,,,,,,0,2,,,
GR04B,46,mid,south,2011,07/19/12,2012,7,19,6,17,13,succession,reduced_grazers,SGR,check,100.5,100,0.5,0,100,0,,3,,,,,,,,,,,,,,,0,0,0,,,,,,,3,,,,,,,9,88,,,,,,,,,,,,,0,,,,
GR04A,19,low,south,2011,07/05/12,2012,7,5,6,17,13,succession,reduced_grazers,SGR,check,97.5,93.25,4.25,2.25,91,0,,12,0.25,,,,,,1,,17,,,,,,15,8,0,,,,,,,2,,,,,3,,3,21,,,20,,,,,,,,,,0,2,,,1
02C,57,high,north,2011,07/19/12,2012,7,19,6,2,13,control,ambient_grazers,CGA,photo,100.5,94,0.5,0,58,36,6,5,,,,,,,,,,,,,,,0,0,0,,,,,26,,,,,,,,2,21,0,9,,,,,36,,,,,,,0,,,,
03C,59,high,north,2011,07/19/12,2012,7,19,6,3,13,control,ambient_grazers,CGA,photo,100.25,93,2.25,0,58,35,5,5,,,,,,,,,,,,,,,0,0,0,,,,,17,2,,,,,,,,38,3,,,,,,33,,,,,,,0,,,,
04C,60,high,north,2011,07/19/12,2012,7,19,6,4,13,succession,ambient_grazers,SGA,photo,100,19,64,0,17,2,17,5,,,,,,,,,,,,,,,0,0,0,,,,,12,1,,,,,,,2,3,0,,,,,,1,,,,,,,0,,,,
GR02C,61,high,north,2011,07/19/12,2012,7,19,6,15,13,succession,reduced_grazers,SGR,photo,100.5,66.25,12.25,4,35,26,22,9,,,,,,,,,,,,,,,0,0,0,,1,4,,,22,,,,,,,2,23.25,8,,,,,,3,,,2,,,,0,,,1,
05C,62,high,north,2011,07/19/12,2012,7,19,6,5,13,succession,ambient_grazers,SGA,photo,100,41,23,0,41,0,36,5,,,,,,,,,,,,,,,0,0,0,,,,,6,,,1,,,,,2,23,0,9,,,,,,,,,,,,0,,,,
06C,63,high,north,2011,07/19/12,2012,7,19,6,6,13,control,ambient_grazers,CGA,photo,100.25,100.25,0,0,100,0,,4,,,,,,,,,,,,,,,0,0,0,,,,,3,,,,,,,,,1,0.25,96,,,,,,,,,,,,0,,,,
GR03C,64,high,north,2011,07/19/12,2012,7,19,6,16,13,succession,reduced_grazers,SGR,photo,100.25,4.25,34,0,1,3,62,3,,,,,,,,,,,,,,,0,0,0,,,,,1,,,,,,,,,0,0,0.25,,,,,3,,,,,,,0,,,,
07C,65,high,north,2011,07/19/12,2012,7,19,6,7,13,control,ambient_grazers,CGA,photo,100,97,2,0,82,15,1,4,,,,,,,,,,,,,,,0,0,0,,,,,73,,,,,,,,1,8,0,,,,,,15,,,,,,,0,,,,
08C,66,high,north,2011,07/19/12,2012,7,19,6,8,13,succession,ambient_grazers,SGA,photo,100.75,9.75,26,0,9,1,65,5,,,,,,,,,,,,,,,0,0,0,,,,,4,0.25,,,,,,,,0.25,0,5,,,,,0.25,,,,,,,0,,,,
GR04C,67,high,south,2011,07/19/12,2012,7,19,6,17,13,succession,reduced_grazers,SGR,photo,100.5,60.25,3.25,0,56,2,37,8,,,,,,,,,,,,,,,0,0,0,,0.25,,,,,,11,,,,,2,7,8,28,,,,,2,,,,,,,0,,,2,
09C,68,high,south,2011,07/19/12,2012,7,19,6,9,13,succession,ambient_grazers,SGA,photo,100.75,63.5,28.25,51,11,2,9,10,,,,,,,,,,,,,,,0,0,0,,,,,3,,0.25,0.25,,,,,2,2,1,,,,,,2,,,2,,,,0,4,47,,
10C,69,high,south,2011,07/19/12,2012,7,19,6,10,13,control,ambient_grazers,CGA,photo,100.75,83.25,14.5,0.25,77,6,3,8,,,,,,,,,,,,,,,0,0,0,,,,,55,5,,2,,,,,2,9,9,,,,,,1,,,,,,,0,0.25,,,
GR05C,70,high,south,2011,07/19/12,2012,7,19,6,18,13,succession,reduced_grazers,SGR,photo,100.25,54.25,9,20,26,0,37,5,,,,,,,,,,,,,,,0,0,0,,,20,,,,,0.25,,,,,13,13,0,,,,,,,,,,,,,0,,,8,
11C,71,high,south,2011,07/19/12,2012,7,19,6,11,13,succession,ambient_grazers,SGA,photo,100,14,61,0,13,1,25,5,,,,,,,,,,,,,,,0,0,0,,,,,3,1,,,,,,,,3,4,,,,,,,,,3,,,,0,,,,
12C,72,high,south,2011,07/19/12,2012,7,19,6,12,13,control,ambient_grazers,CGA,photo,100.25,56.25,36,0,55,1,8,6,,,,,,,,,,,,,,,0,0,0,,,,,23,0.25,,,,,,,1,21,10,,,,,,1,,,,,,,0,,,,
GRnewA1,1,low,north,2012,08/02/12,2012,8,2,7,,14,succession,reduced_grazers,SGR,,101,98.5,0.5,15,84,0,2,6,6,,,0,76,,0,0.5,0,0,0,0,,0,0,0,3,,,0,0,0,0,0,,0,0,0,0,0,0,0,0,,0,0,0,0,0,0,0,0,4,,0,9,0,0,
GR00A,2,low,north,2011,08/02/12,2012,8,2,7,13,14,succession,reduced_grazers,SGR,,101,98,0,62,27,9,3,9,47,,,0,0,,0,,8,0,0,0,,2,3,0,0,,,0,0,0,0,0,,0,0,0,0,0,0,8,0,,3,0,0,0,0,0,0,0,3,,9,15,0,0,
01A,3,low,north,2011,08/02/12,2012,8,2,7,1,14,succession,ambient_grazers,SGA,,98,92,0,3,83,6,6,11,0,,,0,0,,7,,20,0,0,0,,2,20,11,0,,,0,0,0,0,0,,0,0,0,6,0,0,0,0,,0,0,1,0,4,0,0,0,12,,6,3,0,0,
02A,4,low,north,2011,08/02/12,2012,8,2,7,2,14,control,ambient_grazers,CGA,,113.5,100.5,6,1.5,44,55,7,11,1,,,0,0,,0,,5,0,0,0,,7,8,4,9,,,0,0,0,0,0,,4,0,0,0,0,0,0,0,,4,0,0,0,0,0,0,0,3,,55,0.5,0,0,
GR01A,5,low,north,2011,08/02/12,2012,8,2,7,14,14,succession,reduced_grazers,SGR,,106.5,90,13.5,56,29,6,3,13,38,,,0,0,,0,,11,0,0,3,,1,4,6,0,,,0,2,0,0,0.5,,0,0.5,0,0,2,2,0,0,,0,0,0,0,0,0,0,0,0,,5,15,0,0,
03A,6,low,north,2011,08/03/12,2012,8,3,7,3,14,control,ambient_grazers,CGA,,101,95.5,5.5,1,69,26,0,11,0,,,0,0,,0.5,,0.5,0,0,0,,1,8,6,0,,,0,0,0,0,0.5,,10,0,0,0,0,0,26,0,,16,0,0,0,0,0,0,0,0,,26,1,0,0,
04A,7,low,north,2011,08/03/12,2012,8,3,7,4,14,succession,ambient_grazers,SGA,,101,83.5,7.5,15,41,28,10,16,3,,,0,0,,4,,4,0,0,1,,6,5,0,0,,,0,0,0,0,0,1,0,0,0,1,3,0,8,0,,0,0,0,0,0.5,2,0,2,4,,28,11,0,0,
SnewA1,8,low,north,2012,08/03/12,2012,8,3,7,,14,succession,ambient_grazers,SGA,,104,90,4,90,0,0,10,1,0,,,0,0,,0,,0,0,0,0,,0,0,0,0,,,90,0,0,0,0,,0,0,0,0,0,0,0,0,,0,0,0,0,0,0,0,0,0,,0,0,0,0,
CnewA1,9,low,north,2012,08/03/12,2012,8,3,7,,14,control,ambient_grazers,CGA,,100,93,7,1,82,10,0,11,0,,,0,0,,1,,20,0,0,0,,0,0,15,0,,,0,0,0,0,0,,9,1,0,0,0,0,13,0,,9,0,0,0,0,0,0,3,12,,9,1,0,0,
GR02A,10,low,north,2011,08/17/12,2012,8,17,7,15,14,succession,reduced_grazers,SGR,,94.5,87.5,1,8,59,21,6,14,3,,,0,1,,0,,16,0,1,0,,0.5,11,16,0,,,0,0,0,0,0.5,,0,0.5,0,0,4,0,8,0,,0,0,0,0,0,0,0,0,2,,20,4,0,0,
GRnewA2,11,low,north,2012,08/03/12,2012,8,3,7,,14,succession,reduced_grazers,SGR,,100,93,0,22,70,1,7,5,6,,,0,70,,0,,0,0,0,0,,0,0,0,0,,,14,0,0,0,0,,0,0,0,0,0,0,0,0,,0,0,0,0,0,0,0,0,0,,1,2,0,0,
05A,12,low,north,2011,08/17/12,2012,8,17,7,5,14,succession,ambient_grazers,SGA,,102.5,89,9.5,1,69,19,4,15,0,,,0,0,,5,,14,2,0,0.5,,1,7,11,10,,,0,0,0,0,0,,2,0,0,2,0,0,12,0,,1,0,0,0,0,0,0,0,2,,19,0.5,0,0,
06A,13,low,north,2011,08/17/12,2012,8,17,7,6,14,control,ambient_grazers,CGA,,92.5,86,6.5,0,76,10,0,8,0,,,0,0,,2,,0,0,0,0,,0,0,16,5,,,0,36,0,0,0,,0,0,0,0,0,0,11,0,,0,0,0,0,0,0,0,2,4,,10,0,0,0,
GR03A,14,low,north,2011,08/17/12,2012,8,17,7,16,14,succession,reduced_grazers,SGR,,100,92.5,4.5,1,89,3,3,16,1,,,0,4,,4,,10,0,0,0,,0,0,28,4,,,0,0,0,0,0.5,,23,1,1,2,0,0,6,0,,0,0,0,0,0,0,0,1,4,,2,0,0,0,1
SnewA2,15,low,north,2012,08/03/12,2012,8,3,7,,14,succession,ambient_grazers,SGA,,105,6,5,6,0,0,94,1,0,,,0,0,,0,,0,0,0,0,,0,0,0,0,,,6,0,0,0,0,,0,0,0,0,0,0,0,0,,0,0,0,0,0,0,0,0,0,,0,0,0,0,
CnewA2,16,low,north,2012,08/17/12,2012,8,17,7,,14,control,ambient_grazers,CGA,,98.5,93,6.5,0,93,0,0,8,0,,,0,0,,5,,0,1,0,0,,1,0,47,0,,,0,0,0,0,0,,0,0,0,14,0,0,11,0,,0,0,0,0,0,0,0,1,13,,0,0,0,0,
07A,17,low,north,2011,08/17/12,2012,8,17,7,7,14,control,ambient_grazers,CGA,,99.5,85.5,7,0.5,76,9,7,8,0,,,0,0,,0,,14,0,0,0,,2,8,30,9,,,0,0,0,0,0,,13,0,0,0,0,0,0,0,,0,0,0,0,0,0,0,0,0,,9,0.5,0,0,
08A,18,low,north,2011,08/17/12,2012,8,17,7,8,14,succession,ambient_grazers,SGA,,100.5,87.5,5,0.5,74,13,8,12,0,,,0,0,,0,,13,0,0,0.5,,0.5,15,15,7,,,0,0,0,0,0,,4,0,0.5,6,0,0,4,0,,0,0,0,0,0,0,0,0,9,,13,0,0,0,
GR04A,19,low,south,2011,08/18/12,2012,8,12,7,17,14,succession,reduced_grazers,SGR,,101.5,100,0.5,12,75,13,1,12,2,,,0,0,,0,,18,0,0,0,,0,12,2,0,,,0,0,0,0,3,,0,0,0,2,3,0,23,0,,10,0,0,0,0,0,0,0,2,,13,10,0,0,
GRnewA3,20,low,south,2012,08/03/12,2012,8,3,7,,14,succession,reduced_grazers,SGR,,100,98,0,26,71,1,2,5,5,,,0,71,,0,,0,0,0,0,,0,0,0,0,,,15,0,0,0,0,,0,0,0,0,0,0,0,0,,0,0,0,0,0,0,0,0,0,,1,6,0,0,
09A,21,low,south,2011,08/18/12,2012,8,18,7,9,14,succession,ambient_grazers,SGA,,101.5,93,3.5,7,81,5,5,8,0,,,0,0,,0,,34,1,0,0,,0,13,27,0,,,0,0,0,0,0,,0,0,0,0,0,0,0,0,,1,0,0,0,0,5,0,0,0,,5,7,0,0,
10A,22,low,south,2011,08/18/12,2012,8,18,7,10,14,control,ambient_grazers,CGA,,75.5,59.5,10,0,53,7,6,10,0,,,0,0,,1,,11,0,0,0,,11,0,23,0,,,0,0,0,0,0,0.5,2,0,0,1,1,0,0,0,,0,0,0,0,0,0,0,0,2,,7,0,0,0,
GR05A,23,low,south,2011,08/18/12,2012,8,18,7,18,14,succession,reduced_grazers,SGR,,101.5,99.5,0,0,90,10,2,12,0,,,0,0,,0,,10,0,0,0,,10,21,18,0,,,0,23,0,0,0,,0,0,1,1,0,2,0,0,,0,0,0,0,0,0,0,0,3,1,9,0,0,0,0.5
11A,24,low,south,2011,08/18/12,2012,8,18,7,11,14,succession,ambient_grazers,SGA,,111,86,9,0,68,18,16,9,0,,,0,0,,0,,8,0,0,0,,11,10,10,4,,,0,2,0,0,0,,0,0,0,3,0,0,0,0,,0,0,0,0,0,0,0,0,20,,18,0,0,0,
12A,25,low,south,2011,08/18/12,2012,8,18,7,12,14,control,ambient_grazers,CGA,,100,81.5,10.5,0.5,72,9,8,8,0,,,0,0,,0,,3,0,0,0,,0,15,30,0,,,0,0,0,0,0,,4,0,7,0,0,0,0,0,,0,0,0,0,0,0,0,0,13,,9,0.5,0,0,
SnewA3,26,low,south,2012,08/03/12,2012,8,3,7,,14,succession,ambient_grazers,SGA,,104.5,43.5,5,40.5,3,0,56,3,0,,,0,3,,0,,0,0,0,0,,0,0,0,0,,,40,0,0,0,0,,0,0,0,0,0,0,0,0,,0,0,0,0,0,0,0,0,0,,0,0.5,0,0,
CnewA3,27,low,south,2012,08/18/12,2012,8,18,7,,14,control,ambient_grazers,CGA,,100.5,84,9.5,0,73,11,7,9,0,,,0,0,,5,,6,0,0,0,,0,13,11,0,,,0,0,0,0,0,,0,0,4,8,0,0,0,0,,0,0,0,0,0,0,0,22,4,,11,0,0,0,
CnewB1,28,mid,north,2012,08/02/12,2012,8,2,7,,14,control,ambient_grazers,CGA,,98.5,77.5,16,0.5,77,0,5,10,0.5,,,0,0,,0,,4,0,0,0,,1,6,1,0,,,0,0,0,0,10,,0,0,0,0,6,3,0,0,,44,0,0,0,0,2,0,0,0,,0,0,0,0,
SnewB1,29,mid,north,2012,08/18/12,2012,8,18,7,,14,succession,ambient_grazers,SGA,,104,99,5,59,0,0,0,4,20,,,0,0,40,0,,0,0,0,0,,0,0,0,0,,,12,0,0,0,0,,0,0,0,0,0,0,0,0,,0,0,0,0,0,0,0,0,0,,0,27,0,0,
GR00B,30,mid,north,2011,08/18/12,2012,8,18,7,13,14,succession,reduced_grazers,SGR,,100,92,2,68,18,0,6,6,1,,,0,0,6,0,,0,0,0,0,,0,0,0,11,,,5,0,0,0,7,,0,0,0,0,0,0,0,0,,0,0,0,0,0,0,0,0,0,,0,62,0,0,
GRnewB1,31,mid,north,2012,08/18/12,2012,8,18,7,,14,succession,reduced_grazers,SGR,,100,91,0,3,77,0,9,4,1,,,0,77,11,0,,0,0,0,0,,0,0,0,0,,,0,0,0,0,0,,0,0,0,0,0,0,0,0,,0,0,0,0,0,0,0,0,0,,0,2,0,0,
01B,32,mid,north,2011,08/18/12,2012,8,18,7,1,14,succession,ambient_grazers,SGA,,102,86.5,2.5,68,18,1,13,7,0,,,0,0,,0,,0,0,0,0,,0,9,6,0,,,0,0,0,0,0.5,,0,1,0,0,0,0,0,0,,1,0,0,0,1,0,0,0,0,,0,68,0,0,
02B,33,mid,north,2011,08/19/12,2012,8,19,7,2,14,control,ambient_grazers,CGA,,110,88,22,3,73,12,0,8,0,,,0,0,,0,,3,31,0,0,,0,0,18,0,,,0,0,0,0,18,,0,12,0,0,2,0,0,0,,1,0,0,0,0,0,0,0,0,,0,3,0,0,
GR01B,34,mid,north,2011,08/19/12,2012,8,19,7,14,14,succession,reduced_grazers,SGR,,101,87.5,3.5,61,19,3,10,10,20,,,2,0,5,0,,0,0,0,0,,0,0,0,0,,,10,0,0.5,1,3,,0,0,0,0,0,12,0,0,,0,0,0,0,0,0,3,0,0,,0,31,0,0,
03B,35,mid,north,2011,08/19/12,2012,8,19,7,3,14,succession,ambient_grazers,SGA,,100.5,91,4.5,3,84,4,5,8,2,,,0,0,,0,,1,0,0,0,,0,0,3,0,,,0,0,0,0,73,,0,4,0,0,0,5,2,0,,0,0,0,0,0,0,0,0,0,,0,1,0,0,
04B,36,mid,north,2011,08/19/12,2012,8,19,7,4,14,control,ambient_grazers,CGA,,100,89,5,14,74,1,6,7,1,,,0.5,0,,0,,0,0,0,0,,0,0,0,0,,0.5,0,0,0,0,66,,0,0,0,0,0,4,4,0,,0,0,0,0,0,0,0,0,0,,0,13,0,0,
CnewB2,37,mid,north,2012,08/19/12,2012,8,19,7,,14,control,ambient_grazers,CGA,,100,80,15,2,59,19,5,8,0,,,0,0,,0,,20,0,0,0,,0,0,20,4,,,0,0,5,0,9,,0,19,0,0,0,1,0,0,,0,0,0,0,0,0,0,0,0,,0,2,0,0,
SnewB2,38,mid,north,2012,08/19/12,2012,8,19,7,,14,succession,ambient_grazers,SGA,,100,84.5,2.5,78,7,0,13,4,0,,,0,0,,0,,0,0,0,0,,0,0,0,0,,,0,0,0,0,0.5,,0,0,0,0,3,3,0,0,,0,0,0,0,0,0,0,0,0,,0,78,0,0,
GR02B,39,mid,north,2011,08/19/12,2012,8,19,7,15,14,succession,reduced_grazers,SGR,,103,89.5,9.5,57,8,4,4,10,0,,,4,0,14,0,,0,0,0,0,,0,0,0,0,,,52,0,0,0,0.5,0.5,0,0,0,0,4,2,0.5,0,,0,0,0,0,0,0,0,0,0,,0,5,0,7,
05B,41,mid,north,2011,08/17/12,2012,8,17,7,5,14,succession,ambient_grazers,SGA,,108.5,88,7.5,52,36,0,13,11,15,,,0,0,,0,,3,0,0,1,1,0,0,0,0,,,0,0,0,0,4,,0,0,0,0,4,18,3,0,,0,0,0,0,0,0,2,0,0,,0,36,0,0,1
06B,42,mid,north,2011,08/17/12,2012,8,17,7,6,14,control,ambient_grazers,CGA,,103,65,31,24,26,15,7,8,0,,,0,0,,0,,0,0,0,0,,0,0,6,0,,,0,0,0,1,18,,0,14,0,0,1,0.5,0,0,,0,0,0,0,0,0,0.5,0,0,,0,24,0,0,
GR03B,43,mid,north,2011,08/17/12,2012,8,17,7,16,14,succession,reduced_grazers,SGR,,102,84.5,2.5,16,65,4,15,9,0,,,4,0,,0,,0,0,0,0,,0,4,56,0,,,5,0,0,0,0.5,,0,0,0,0,0,2,1,0,,0,0,0,0,0,0,0,0,0,,0,11,0,0,1
07B,44,mid,north,2011,08/17/12,2012,8,17,7,7,14,control,ambient_grazers,CGA,,101,98,2,0,98,1,1,5,0,,,0,0,,0,,3,70,0,0,,0,0,24,0,,,0,0,0,0,0,,0.5,0.5,0,0,0,0,0,0,,0,0,0,0,0,0,0,0,0,,0,0,0,0,
08B,45,mid,north,2011,08/17/12,2012,8,17,7,8,14,succession,ambient_grazers,SGA,,102.5,61.5,30,3.5,54,4,11,9,0,,,0,0,,0,,2,1,0.5,0,,0,15,32,1,,,0,0,0,0,0,,0,4,0,0,0,3,0,0,,0,0,0,0,0,0,0,0,0,,0,3,0,0,
GR04B,46,mid,south,2011,08/19/12,2012,8,19,7,17,14,succession,reduced_grazers,SGR,,101.5,100.5,1,0,101,0,0,3,0,,,0,0,,0,,0,0,0,0,,0,0,0,0,,,0,0,0,0,0.5,,0,0,0,0,0,10,90,0,,0,0,0,0,0,0,0,0,0,,0,0,0,0,
CnewB3,47,mid,south,2012,08/19/12,2012,8,19,7,,14,control,ambient_grazers,CGA,,99.5,89,8.5,3,81,5,2,10,0,,,0,0,,0,,10,0,0,2,,0,7,44,0,,,0,0,0,0,7,,0,5,0,0,2,1,0,0,,10,0,0,0,0,0,0,0,0,,0,1,0,0,
SnewB3,48,mid,south,2012,08/19/12,2012,8,19,7,,14,succession,ambient_grazers,SGA,,99.5,92,0.5,1,88,0,7,3,0,,,0,88,3,0,,0,0,0,0,,0,0,0,0,,,0,0,0,0,0,,0,0,0,0,0,0,0,0,,0,0,0,0,0,0,0,0,0,,0,1,0,0,
09B,49,mid,south,2011,08/19/12,2012,8,19,7,9,14,succession,ambient_grazers,SGA,,106,87.5,10.5,0.5,53,35,8,9,0,,34,0.5,0,,0,,0,0,0,0,,0.5,0,0,0,,,0,0,1,0,31,,0,0,0,0,0,7,11,0,,2,0,0,0,0,0,0,0,0,,0,0.5,0,0,
10B,50,mid,south,2011,08/19/12,2012,8,19,7,10,14,control,ambient_grazers,CGA,,100,86,10,1,78,7,4,10,0,,7,0,0,,0,,1,0,0.5,0,,1,0,7,0,,,0,0,0,0,52,,0,0,0,0,1,0,2,0,,14,0,0,0,0,0,0,0,0,,0,0.5,0,0,
GR05B,51,mid,south,2011,08/19/12,2012,8,19,7,18,14,succession,reduced_grazers,SGR,,96,93,0,2,86,1,3,9,0,,,0,0,4,0,,0,0,0,0,,0,9,9,6,,1,0,0,0,0,4,,0,0,0,0,0,34,24,0,,0,0,0,0,0,0,0,0,0,,0,2,0,0,
GRnewB3,52,mid,south,2012,08/17/12,2012,8,17,7,,14,succession,reduced_grazers,SGR,,100,100,0,0,100,0,0,1,0,,,0,100,,0,,0,0,0,0,,0,0,0,0,,,0,0,0,0,0,,0,0,0,0,0,0,0,0,,0,0,0,0,0,0,0,0,0,,0,0,0,0,
11B,53,mid,south,2011,08/17/12,2012,8,17,7,11,14,succession,ambient_grazers,SGA,,100,77,12,16,61,0,11,4,0,,,0,0,,0,,0,0,0,0,,0,0,0,0,,,0,0,4,0,49,,0,0,0,0,0,0,8,0,,0,0,0,0,0,0,0,0,0,,0,16,0,0,
12B,54,mid,south,2011,08/17/12,2012,8,17,7,12,14,control,ambient_grazers,CGA,,100,63,35,0,63,0,2,5,0,,,0,0,,0,,4,0,0,0,,0,2,46,0,,,0,0,3,0,0,,0,0,0,0,0,0,0,0,,0,0,0,0,8,0,0,0,0,,0,0,0,0,
GR00C,55,high,north,2011,08/17/12,2012,8,17,7,13,14,succession,reduced_grazers,SGR,,99.5,16.5,43,0,11,6,40,4,0,,,0,0,,0,,0,0,0,0,,0,0,0,0,,,0,0,0.5,0,0,,0,0,0,0,1,0,0,9,,0,0,0,6,0,0,0,0,0,,0,0,0,0,
01C,56,high,north,2011,08/17/12,2012,8,17,7,1,14,succession,ambient_grazers,SGA,,100,23,27,0,21,2,50,4,0,,,0,0,,0,,0,0,0,0,,0,0,0,0,,,0,0,5,0,0,,0,0,0,0,0,12,0,4,,0,0,0,2,0,0,0,0,0,,0,0,0,0,
02C,57,high,north,2011,08/17/12,2012,8,17,7,2,14,control,ambient_grazers,CGA,,101,94,5,0,56,38,2,5,0,,,0,0,,0,,0,0,0,0,,0,0,0,0,,,0,0,21,0,0,,0,0,0,0,2,25,0,8,,0,0,0,38,0,0,0,0,0,,0,0,0,0,
GR01C,58,high,north,2011,08/17/12,2012,8,17,7,14,14,succession,reduced_grazers,SGR,,105.5,58,3.5,0,38,20,44,6,0,,,0,0,,0,,0,0,0,0,,0,0,0,0,,,0,0,0,11,0,5,0,0,0,0,1,2,0,30,,0,0,0,9,0,0,0,0,0,,0,0,0,0,
03C,59,high,north,2011,08/17/12,2012,8,17,7,3,14,control,ambient_grazers,CGA,,102,90,7,0,47,43,5,6,0,,,0,0,,0,,0,0,0,0,,0,0,0,0,,,0,0,15,6,0,,0,0,0,0,1,28,0,3,,0,0,0,37,0,0,0,0,0,,0,0,0,0,
04C,60,high,north,2011,08/17/12,2012,8,17,7,4,14,succession,ambient_grazers,SGA,,112.5,27.5,62,0,21,7,23,5,0,,,0,0,,0,,0,0,0,0,,0,0,0,0,,,0,0,12,2,0,,0,0,0,0,2,6.5,0,0,,0,0,0,5,0,0,0,0,0,,0,0,0,0,
GR02C,61,high,north,2011,08/17/12,2012,8,17,7,15,14,succession,reduced_grazers,SGR,,100,65,12,1,33,31,23,7,0,,,0,0,,0,,0,0,0,0,,0,0,0,0,,,0,0,0,27,0,,0,0,0,0,1,3,0,27,,0,0,0,4,0,0,2,0,0,,0,1,0,0,
05C,62,high,north,2011,08/17/12,2012,8,17,7,5,14,succession,ambient_grazers,SGA,,102.5,35,34.5,0,34,1,33,6,0,,,0,0,,0,,0,0,0,0,,0,0,0,0,,,0,0,7,0,0,2,0,0,0,0,1,19,0,5,,0,0,0,1,0,0,0,0,0,,0,0,0,0,
06C,63,high,north,2011,08/17/12,2012,8,17,7,6,14,control,ambient_grazers,CGA,,102,98,2,0,97,1,2,4,0,,,0,0,,0,,0,0,0,0,,0,0,0,0,,,0,0,5,0,0,,0,0,0,0,0,3,0,89,,0,0,0,1,0,0,0,0,0,,0,0,0,0,
GR03C,64,high,north,2011,08/17/12,2012,8,17,7,16,14,succession,reduced_grazers,SGR,,97.5,3.5,27,0,2,2,67,3,0,,,0,0,,0,,0,0,0,0,,0,0,0,0,,,0,0,1,0,0,,0,0,0,0,0,0,0,0.5,,0,0,0,2,0,0,0,0,0,,0,0,0,0,
07C,65,high,north,2011,08/17/12,2012,8,17,7,7,14,control,ambient_grazers,CGA,,100.5,95,1.5,0,82,13,4,4,0,,,0,0,,0,,0,0,0,0,,0,0,0,0,,,0,0,73,0,0,,0,0,0,0,2,0,0,7,,0,0,0,13,0,0,0,0,0,,0,0,0,0,
08C,66,high,north,2011,08/17/12,2012,8,17,7,8,14,succession,ambient_grazers,SGA,,100,8,17,0,8,0,75,2,0,,,0,0,,0,,0,0,0,0,,0,0,0,0,,,0,0,4,0,0,,0,0,0,0,0,0,0,4,,0,0,0,0,0,0,0,0,0,,0,0,0,0,
GR04C,67,high,south,2011,08/18/12,2012,8,18,7,17,14,succession,reduced_grazers,SGR,,91,70.5,2.5,10,55,6,18,9,0,,,0,0,,0,,0,0,0,0,,0,0,0,0,,0.5,0,0,0,2,0,4,0,0,0,0,2,7,11,31,,0,0,0,3,0,0,0,0,0,,0,0,10,0,
09C,68,high,south,2011,08/18/12,2012,8,18,7,9,14,succession,ambient_grazers,SGA,,100.5,84,11.5,10,9,6,5,7,0,,,0,0,59,0,,0,0,0,0,,0,0,0,0,,,0,0,4,0,0,,0,0,0,0,0,3,1,0,,0,0,0,6,0,0,1,0,0,,0,10,0,0,
10C,69,high,south,2011,08/18/12,2012,8,18,7,10,14,control,ambient_grazers,CGA,,99.5,80.5,15,1,70,10,4,9,0,,,0,0,,0,,0,0,0,0,,0,0.5,0,0,,,0,0,40,10,1,3,0,0,0,0,3,10,12,0,,0,0,0,0,0,0,0,0,0,,0,1,0,0,
GR05C,70,high,south,2011,08/18/12,2012,8,18,7,18,14,succession,reduced_grazers,SGR,,100,93,7,77,16,0,0,4,0,,,0,0,,0,,0,0,0,0,,0,0,0,0,,,0,0,0,0,0,,0,0,0,0,4,1,11,0,,0,0,0,0,0,0,0,0,0,,0,0,77,0,
11C,71,high,south,2011,08/18/12,2012,8,18,7,11,14,succession,ambient_grazers,SGA,,99.5,42.5,43,10,33,0,14,6,0,,,0,0,,0,,0,0,0,0,,0,0,0,0,,,0,0,4,0,0,,0,0,0,0,4,12,12,0,,0,0,0,0,0,0,0.5,0,0,,0,0,10,0,
12C,72,high,south,2011,08/18/12,2012,8,18,7,12,14,control,ambient_grazers,CGA,,100,46,47,0,41,5,7,6,0,,,0,0,,0,,0,0,0,0,,0,0,0,0,,,0,0,0,2,0,,0,0,0,0,3,16,8,0,,14,0,0,3,0,0,0,0,0,,0,0,0,0,
