plot,treatdisturbance,treatgrazer,treat,Ceramiaceae,Corallinaceae,Delesseriaceae_Deles,Gigartinaceae,Hildenbrandiaceae,Palmariaceae,Phyllophoraceae,Plocamiaceae,Rhodomelaceae
1,succession,reduced_grazers,SGR,0,8,0,0,0,0,0,0,0
2,succession,reduced_grazers,SGR,11,8,0,8,0,0,0,0,0
3,succession,ambient_grazers,SGA,20,58,0,0,0,0,0,4,1
4,control,ambient_grazers,CGA,9,31,4,0,0,0,0,0,0
5,succession,reduced_grazers,SGR,11,11,0,2,0,0.5,4,0,0
6,control,ambient_grazers,CGA,16.5,15.5,10,26,0,0.5,0,0,0
7,succession,ambient_grazers,SGA,4,22,0,8,1,0,3,0.5,2
8,succession,ambient_grazers,SGA,0,0,0,0,0,0,0,0,0
9,control,ambient_grazers,CGA,29,31,9,13,0,0,0,0,0
10,succession,reduced_grazers,SGR,16,29.5,0,8,0,0.5,4,0,0
11,succession,reduced_grazers,SGR,0,0,0,0,0,0,0,0,0
12,succession,ambient_grazers,SGA,17,38,2,12,0,0,0,0,0
13,control,ambient_grazers,CGA,0,29,0,47,0,0,0,0,0
14,succession,reduced_grazers,SGR,10,44,23,6,0,0.5,0,0,0
15,succession,ambient_grazers,SGA,0,0,0,0,0,0,0,0,0
16,control,ambient_grazers,CGA,1,81,0,11,0,0,0,0,0
17,control,ambient_grazers,CGA,14,49,13,0,0,0,0,0,0
18,succession,ambient_grazers,SGA,13,53,4,4,0,0,0,0,0
19,succession,reduced_grazers,SGR,28,18,0,23,0,3,3,0,0
20,succession,reduced_grazers,SGR,0,0,0,0,0,0,0,0,0
21,succession,ambient_grazers,SGA,36,40,0,0,0,0,0,0,5
22,control,ambient_grazers,CGA,11,60,2,0,0.5,0,1,0,0
23,succession,reduced_grazers,SGR,10,54,0,25,0,0,0,0,0
24,succession,ambient_grazers,SGA,8,58,0,2,0,0,0,0,0
25,control,ambient_grazers,CGA,3,65,4,0,0,0,0,0,0
26,succession,ambient_grazers,SGA,0,0,0,0,0,0,0,0,0
27,control,ambient_grazers,CGA,6,67,0,0,0,0,0,0,0
