plot,Ahnfeltiaceae,Bangiaceae,Callithamniaceae,Ceramiaceae,Corallinaceae,Delesseriaceae_Deles,Dumontiaceae,Endocladiaceae,Gigartinaceae,Hildenbrandiaceae,Palmariaceae,Phyllophoraceae,Plocamiaceae,Rhodomelaceae
1,1,1,1,0,7.5,0,1,1,0,0,0,0,0,0
2,1,1,1,11,8,0,1,1,8,0,0,0,0,0
3,1,1,1,20,58,0,1,1,0,0,0,0,4,1
4,0,0,0,9,31,4,0,0,0,0,0,0,0,0
5,0,0,0,11,11,0,0,0,2,0,0.5,4,0,0
6,0,0,0,16.5,15.5,10,0,0,26,0,0.5,0,0,0
7,0,0,0,4,22,0,0,0,8,1,0,3,0.5,2
8,0,0,0,0,0,0,0,0,0,0,0,0,0,0
9,0,0,0,29,31,9,0,0,13,0,0,0,0,0
10,0,0,0,16,29.5,0,0,0,8,0,0.5,4,0,0
11,0,0,0,0,0,0,0,0,0,0,0,0,0,0
12,0,0,0,17,38,2,0,0,12,0,0,0,0,0
13,0,0,0,0,29,0,0,0,47,0,0,0,0,0
14,0,0,0,10,44,23,0,0,6,0,0.5,0,0,0
15,0,0,0,0,0,0,0,0,0,0,0,0,0,0
16,0,0,0,1,81,0,0,0,11,0,0,0,0,0
17,0,0,0,14,49,13,0,0,0,0,0,0,0,0
18,0,0,0,13,53,4,0,0,4,0,0,0,0,0
19,0,0,0,28,18,0,0,0,23,0,3,3,0,0
20,0,0,0,0,0,0,0,0,0,0,0,0,0,0
21,0,0,0,36,40,0,0,0,0,0,0,0,0,5
22,0,0,0,11,60,2,0,0,0,0.5,0,1,0,0
23,0,0,0,10,54,0,0,0,25,0,0,0,0,0
24,0,0,0,8,58,0,0,0,2,0,0,0,0,0
25,0,0,0,3,65,4,0,0,0,0,0,0,0,0
26,0,0,0,0,0,0,0,0,0,0,0,0,0,0
27,0,0,0,6,67,0,0,0,0,0,0,0,0,0
