plot_name,plot_number,zone,jump,Install,Date,dateyear,datemonth,dateday,interval,treat_disturbance,treat_grazer,treatment,total_cover,algal_cover,non_algal_cover,census,bare rock,Acrosiphonia,Ahnfeltia fastigiata,Alaria marginata,Analipus japonicus,Bangia,Blidingia minima,Bosiella plumosa,Calliarthron tuberculosum,Callithamnion pikeanum,Ceramium pacificum,Cladophora columbiana,Codium setchellii,Corallina cretacea,Corallina officinalis,Corallina frondescens,Corallina vancouveriensis,CAA dead,CAC dead,CAC wintering,Cryptopleura lobiulifera,Cumagloia andersonii,diatoms,Dilsia,Endocladia muricata,Fucus gardneri,Hallosaccion glandiforme,Hildenbrandia,Hymenena,Leathesia difformis,Lithophyllum impressum,Lithothamnion phymatodeum,Mastocarpus crust morph,Mastocarpus,Mazzaella,Mazzaella parksii,Melanosiphon,Microcladia borealis,Odonthalia floccosa,Osmundea spectabilis,Pelvetiopsis limitata,Plocamium,Polysiphonia,Porphyra,Pseudolithophyllum muricatum,Pseudolithophyllum whidbeyense,Ralfsia,Saccharina,Ulva lactuta,Urospora/Blidingia,Urospora wormskioldii,Unknown red 1,,Anthopleura elegantissima,Balanus glandula,Balanus nubilis ,Barnacle small = Balanus,Callistoma ligatum,Chthamalus dalli,Clinocottus embryum,"Flustrellidra corniculata, bryozoan",gunnel,"Halichondria sp (panicea?) sponge yellow, green","Haliclona sp. Sponge purp, pink",Idotea sp.,Katharina tunicata,Lottia spp,Mopalia ciliata,Mopalia lignosa,Mopalia muscosa,Mopalia spp,Mytilus califonianus,Mytilus trossulus,Nucella,Nucella eggs,"Ophlitaspongia pennata, red, orange",Pagurus spp (hermit crab),Phyllospadix scouleri,Pisaster ochraceus,Pollicipes polymerus,Semibalanus cariosus (big),Strongylocentrotus purpuratus,Tonicella lineata,Traskorchestia (amphipod)
GRnewA1,1,low,north,2012,08/02/12,2012,8,2,7,succession,reduced_grazers,SGR,100.5,,,,2,6,,,0,76,,0,0.5,0,0,0,0,,0,0,0,,3,,,,0,0,0,0,0,,0,0,0,0,0,0,0,0,,0,0,0,0,0,0,0,0,4,,0,9,0,0,,,,,,,,,,,,,,,,,,,,,,,,,0.5,,0,,,,,,
GR00A,2,low,north,2011,08/02/12,2012,8,2,7,succession,reduced_grazers,SGR,101,,,,3,47,,,0,0,,0,,8,0,0,0,,2,3,0,,0,,,,0,0,0,0,0,,0,0,0,0,0,0,8,0,,3,0,0,0,0,0,0,0,3,,9,15,0,0,,,,,,,,,,,,,,,,,,,,,,,,,,,0,,,,,,
01A,3,low,north,2011,08/02/12,2012,8,2,7,succession,ambient_grazers,SGA,98,,,,6,0,,,0,0,,7,,20,0,0,0,,2,20,11,,0,,,,0,0,0,0,0,,0,0,0,6,0,0,0,0,,0,0,1,0,4,0,0,0,12,,6,3,0,0,,,,,,,,,,,,,,,,,,,,,,,,,,,0,,,,,,
02A,4,low,north,2011,08/02/12,2012,8,2,7,control,ambient_grazers,CGA,107.5,,,,7,1,,,0,0,,0,,5,0,0,0,,7,8,4,,9,,,,0,0,0,0,0,,4,0,0,0,0,0,0,0,,4,0,0,0,0,0,0,0,3,,55,0.5,0,0,,,,,,,,1,,,,,,,5,,,,,,,,,,,,0,,,,,,
GR01A,5,low,north,2011,08/02/12,2012,8,2,7,succession,reduced_grazers,SGR,93,,,,3,38,,,0,0,,0,,11,0,0,3,,1,4,6,,0,,,,0,2,0,0,0.5,,0,0.5,0,0,2,2,0,0,,0,0,0,0,0,0,0,0,0,,5,15,0,0,,,12,0.5,,,,0.5,,,,,,,,,,,,,,,,,,,0,,,0.5,,,
03A,6,low,north,2011,08/03/12,2012,8,3,7,control,ambient_grazers,CGA,100.5,,,,0,0,,,0,0,,0.5,,0.5,0,0,0,,1,8,6,,0,,,,0,0,0,0,0.5,,10,0,0,0,0,0,26,0,,16,0,0,0,0,0,0,0,0,,26,1,0,0,,,,,,,,,,0.5,,,,,,,,,,,,,,,,,5,,,,,,
04A,7,low,north,2011,08/03/12,2012,8,3,7,succession,ambient_grazers,SGA,93.5,,,,10,3,,,0,0,,4,,4,0,0,1,,6,5,0,,0,,,,0,0,0,0,0,1,0,0,0,1,3,0,8,0,,0,0,0,0,0.5,2,0,2,4,,28,11,0,0,,,,0.5,,,,,,,,,,,6,,,,,,,,,,,,0,,0.5,0.5,,,
SnewA1,8,low,north,2012,08/03/12,2012,8,3,7,succession,ambient_grazers,SGA,100,,,,10,0,,,0,0,,0,,0,0,0,0,,0,0,0,,0,,,,90,0,0,0,0,,0,0,0,0,0,0,0,0,,0,0,0,0,0,0,0,0,0,,0,0,0,0,,,,,,,,,,,,,,,4,,,,,,,,,,,,0,,,,,,
CnewA1,9,low,north,2012,08/03/12,2012,8,3,7,control,ambient_grazers,CGA,93,,,,0,0,,,0,0,,1,,20,0,0,0,,0,0,15,,0,,,,0,0,0,0,0,,9,1,0,0,0,0,13,0,,9,0,0,0,0,0,0,3,12,,9,1,0,0,,,,,,,,,,,,,,,7,,,,,,,,,,,,0,,,,,,
GR02A,10,low,north,2011,08/17/12,2012,8,17,7,succession,reduced_grazers,SGR,93.5,,,,6,3,,,0,1,,0,,16,0,1,0,,0.5,11,16,,0,,,,0,0,0,0,0.5,,0,0.5,0,0,4,0,8,0,,0,0,0,0,0,0,0,0,2,,20,4,0,0,,,,,,,,1,,,,,,,,,,,,,,,,,,,0,,,,,,
GRnewA2,11,low,north,2012,08/03/12,2012,8,3,7,succession,reduced_grazers,SGR,100,,,,7,6,,,0,70,,0,,0,0,0,0,,0,0,0,,0,,,,14,0,0,0,0,,0,0,0,0,0,0,0,0,,0,0,0,0,0,0,0,0,0,,1,2,0,0,,,,,,,,,,,,,,,,,,,,,,,,,,,0,,,,,,
05A,12,low,north,2011,08/17/12,2012,8,17,7,succession,ambient_grazers,SGA,93,,,,4,0,,,0,0,,5,,14,2,0,0.5,,1,7,11,,10,,,,0,0,0,0,0,,2,0,0,2,0,0,12,0,,1,0,0,0,0,0,0,0,2,,19,0.5,0,0,,,0.5,,,,,,,,,,,,8,,,,,,,,,,,,0,,,,1,,
06A,13,low,north,2011,08/17/12,2012,8,17,7,control,ambient_grazers,CGA,86,,,,0,0,,,0,0,,2,,0,0,0,0,,0,0,16,,5,,,,0,36,0,0,0,,0,0,0,0,0,0,11,0,,0,0,0,0,0,0,0,2,4,,10,0,0,0,,,0.5,,,,,,,,,,,,6,,,,,,,,,,,,0,,,,,,
GR03A,14,low,north,2011,08/17/12,2012,8,17,7,succession,reduced_grazers,SGR,95.5,,,,3,1,,,0,4,,4,,10,0,0,0,,0,0,28,,4,,,,0,0,0,0,0.5,,23,1,1,2,0,0,6,0,,0,0,0,0,0,0,0,1,4,,2,0,0,0,1,,4,,,,,,,,,,,,,,,,,,,,,,,,0,,,0.5,,,
SnewA2,15,low,north,2012,08/03/12,2012,8,3,7,succession,ambient_grazers,SGA,100,,,,94,0,,,0,0,,0,,0,0,0,0,,0,0,0,,0,,,,6,0,0,0,0,,0,0,0,0,0,0,0,0,,0,0,0,0,0,0,0,0,0,,0,0,0,0,,,,,,,,,,,,,,,5,,,,,,,,,,,,0,,,,,,
CnewA2,16,low,north,2012,08/17/12,2012,8,17,7,control,ambient_grazers,CGA,98,,,,0,0,,,0,0,,5,,0,1,0,0,,1,0,47,,0,,,,0,0,0,0,0,,0,0,0,14,0,0,11,0,,0,0,0,0,0,0,0,1,13,,0,0,0,0,,,0.5,,,,,,,,,,,,,,,,,,,,,,,,5,,,,,1,
07A,17,low,north,2011,08/17/12,2012,8,17,7,control,ambient_grazers,CGA,92.5,,,,7,0,,,0,0,,0,,14,0,0,0,,2,8,30,,9,,,,0,0,0,0,0,,13,0,0,0,0,0,0,0,,0,0,0,0,0,0,0,0,0,,9,0.5,0,0,,,0.5,,,,,,,0.5,,,,,4,,,,,,,,,,,,0,,,,2,,
08A,18,low,north,2011,08/17/12,2012,8,17,7,succession,ambient_grazers,SGA,95.5,,,,8,0,,,0,0,,0,,13,0,0,0.5,,0.5,15,15,,7,,,,0,0,0,0,0,,4,0,0.5,6,0,0,4,0,,0,0,0,0,0,0,0,0,9,,13,0,0,0,,,,,,,,,,,,,,,2,,,,,,,,,,,,0,,,1,2,,
GR04A,19,low,south,2011,08/18/12,2012,8,12,7,succession,reduced_grazers,SGR,101,,,,1,2,,,0,0,,0,,18,0,0,0,,0,12,2,,0,,,,0,0,0,0,3,,0,0,0,2,3,0,23,0,,10,0,0,0,0,0,0,0,2,,13,10,0,0,,,,0.5,,,,,,,,,,,,,,,,,,,,,,,0,,,,,,
GRnewA3,20,low,south,2012,08/03/12,2012,8,3,7,succession,reduced_grazers,SGR,100,,,,2,5,,,0,71,,0,,0,0,0,0,,0,0,0,,0,,,,15,0,0,0,0,,0,0,0,0,0,0,0,0,,0,0,0,0,0,0,0,0,0,,1,6,0,0,,,,,,,,,,,,,,,,,,,,,,,,,,,0,,,,,,
09A,21,low,south,2011,08/18/12,2012,8,18,7,succession,ambient_grazers,SGA,98,,,,5,0,,,0,0,,0,,34,1,0,0,,0,13,27,,0,,,,0,0,0,0,0,,0,0,0,0,0,0,0,0,,1,0,0,0,0,5,0,0,0,,5,7,0,0,,,1,,,,,0.5,,,,,,,1,,,,,,,,,,,,0,,,1,,,
10A,22,low,south,2011,08/18/12,2012,8,18,7,control,ambient_grazers,CGA,65.5,,,,6,0,,,0,0,,1,,11,0,0,0,,11,0,23,,0,,,,0,0,0,0,0,0.5,2,0,0,1,1,0,0,0,,0,0,0,0,0,0,0,0,2,,7,0,0,0,,,,,,,,0.5,,,,,,,9,,,,,,,,,,,,0,,,0.5,,,
GR05A,23,low,south,2011,08/18/12,2012,8,18,7,succession,reduced_grazers,SGR,101.5,,,,2,0,,,0,0,,0,,10,0,0,0,,10,21,18,,0,,,,0,23,0,0,0,,0,0,1,1,0,2,0,0,,0,0,0,0,0,0,0,0,3,1,9,0,0,0,0.5,,,,,,,,,,,,,,,,,,,,,,,,,,0,,,,,,
11A,24,low,south,2011,08/18/12,2012,8,18,7,succession,ambient_grazers,SGA,102,,,,16,0,,,0,0,,0,,8,0,0,0,,11,10,10,,4,,,,0,2,0,0,0,,0,0,0,3,0,0,0,0,,0,0,0,0,0,0,0,0,20,,18,0,0,0,,,,,,,,,,2,,,,,6,,,,,,,,,,,,0,,1,,,,
12A,25,low,south,2011,08/18/12,2012,8,18,7,control,ambient_grazers,CGA,89.5,,,,8,0,,,0,0,,0,,3,0,0,0,,0,15,30,,0,,,,0,0,0,0,0,,4,0,7,0,0,0,0,0,,0,0,0,0,0,0,0,0,13,,9,0.5,0,0,,,0.5,,,,,,,1,,,,,8,,,,,,,,,,,,0,,1,,,,
SnewA3,26,low,south,2012,08/03/12,2012,8,3,7,succession,ambient_grazers,SGA,99.5,,,,56,0,,,0,3,,0,,0,0,0,0,,0,0,0,,0,,,,40,0,0,0,0,,0,0,0,0,0,0,0,0,,0,0,0,0,0,0,0,0,0,,0,0.5,0,0,,,,,,,,,,,,,,,5,,,,,,,,,,,,0,,,,,,
CnewA3,27,low,south,2012,08/18/12,2012,8,18,7,control,ambient_grazers,CGA,91,,,,7,0,,,0,0,,5,,6,0,0,0,,0,13,11,,0,,,,0,0,0,0,0,,0,0,4,8,0,0,0,0,,0,0,0,0,0,0,0,22,4,,11,0,0,0,,,,,,,,,,0.5,,,,,9,,,,,,,,,,,,0,,,,,,
CnewB1,28,mid,north,2012,08/02/12,2012,8,2,7,control,ambient_grazers,CGA,82.5,,,,5,0.5,,,0,0,,0,,4,0,0,0,,1,6,1,,0,,,,0,0,0,0,10,,0,0,0,0,6,3,0,0,,44,0,0,0,0,2,0,0,0,,0,0,0,0,,,3,,11,,,,,0.5,,,0.5,,,,,,,,,,,,,,0,,,1,,,
SnewB1,29,mid,north,2012,08/18/12,2012,8,18,7,succession,ambient_grazers,SGA,99,,,,0,20,,,0,0,40,0,,0,0,0,0,,0,0,0,,0,,,,12,0,0,0,0,,0,0,0,0,0,0,0,0,,0,0,0,0,0,0,0,0,0,,0,27,0,0,,,1,,,,,,,,,,,,,,,,,,,,,,,,0,,,4,,,
GR00B,30,mid,north,2011,08/18/12,2012,8,18,7,succession,reduced_grazers,SGR,98,,,,6,1,,,0,0,6,0,,0,0,0,0,,0,0,0,,11,,,,5,0,0,0,7,,0,0,0,0,0,0,0,0,,0,0,0,0,0,0,0,0,0,,0,62,0,0,,,,,,,,,,,,,,,,,,,,,,,,,,,0,,,2,,,
GRnewB1,31,mid,north,2012,08/18/12,2012,8,18,7,succession,reduced_grazers,SGR,100,,,,9,1,,,0,77,11,0,,0,0,0,0,,0,0,0,,0,,,,0,0,0,0,0,,0,0,0,0,0,0,0,0,,0,0,0,0,0,0,0,0,0,,0,2,0,0,,,,,,,,,,,,,,,,,,,,,,,,,,,0,,,,,,
01B,32,mid,north,2011,08/18/12,2012,8,18,7,succession,ambient_grazers,SGA,99.5,,,,13,0,,,0,0,,0,,0,0,0,0,,0,9,6,,0,,,,0,0,0,0,0.5,,0,1,0,0,0,0,0,0,,1,0,0,0,1,0,0,0,0,,0,68,0,0,,,,,,,,0.5,,,,,,,,,,,,,0.5,,,,,,0,,0.5,1,,,
02B,33,mid,north,2011,08/19/12,2012,8,19,7,control,ambient_grazers,CGA,88,,,,0,0,,,0,0,,0,,3,31,0,0,,0,0,18,,0,,,,0,0,0,0,18,,0,12,0,0,2,0,0,0,,1,0,0,0,0,0,0,0,0,,0,3,0,0,,,5,,,,,,,,,,,,5,,,,,,1,,,,,,0,,,11,,,
GR01B,34,mid,north,2011,08/19/12,2012,8,19,7,succession,reduced_grazers,SGR,97.5,,,,10,20,,,2,0,5,0,,0,0,0,0,,0,0,0,,0,,,,10,0,0.5,1,3,,0,0,0,0,0,12,0,0,,0,0,0,0,0,0,3,0,0,,0,31,0,0,,,,0.5,,,,1,,,,,,,,,,,,,,,,,,,0,,,2,,,
03B,35,mid,north,2011,08/19/12,2012,8,19,7,succession,ambient_grazers,SGA,96,,,,5,2,,,0,0,,0,,1,0,0,0,,0,0,3,,0,,,,0,0,0,0,73,,0,4,0,0,0,5,2,0,,0,0,0,0,0,0,0,0,0,,0,1,0,0,,,,,,,,,,,,,,,4,,,,,,,,,,,,0,,,0.5,,,
04B,36,mid,north,2011,08/19/12,2012,8,19,7,control,ambient_grazers,CGA,95,,,,6,1,,,0.5,0,,0,,0,0,0,0,,0,0,0,,0,,,0.5,0,0,0,0,66,,0,0,0,0,0,4,4,0,,0,0,0,0,0,0,0,0,0,,0,13,0,0,,,,0.5,,,,,,,,,,,4,,,,,,,,,,,,0,,0.5,,,,
CnewB2,37,mid,north,2012,08/19/12,2012,8,19,7,control,ambient_grazers,CGA,85,,,,5,0,,,0,0,,0,,20,0,0,0,,0,0,20,,4,,,,0,0,5,0,9,,0,19,0,0,0,1,0,0,,0,0,0,0,0,0,0,0,0,,0,2,0,0,,,1,,,,,,,,,,,,,,,,,,,,,,,,0,,,14,,,
SnewB2,38,mid,north,2012,08/19/12,2012,8,19,7,succession,ambient_grazers,SGA,97.5,,,,13,0,,,0,0,,0,,0,0,0,0,,0,0,0,,0,,,,0,0,0,0,0.5,,0,0,0,0,3,3,0,0,,0,0,0,0,0,0,0,0,0,,0,78,0,0,,,0.5,0.5,,,,1,,,,,,,,,,,,,,,,,,,0,,,0.5,,,
GR02B,39,mid,north,2011,08/19/12,2012,8,19,7,succession,reduced_grazers,SGR,93.5,,,,4,0,,,4,0,14,0,,0,0,0,0,,0,0,0,,0,,,,52,0,0,0,0.5,0.5,0,0,0,0,4,2,0.5,0,,0,0,0,0,0,0,0,0,0,,0,5,0,7,,,,8,,,,0.5,,,,,,,,,,,,,,0.5,,,,,0,,,0.5,,,
05B,41,mid,north,2011,08/17/12,2012,8,17,7,succession,ambient_grazers,SGA,101,,,,13,15,,,0,0,,0,,3,0,0,1,1,0,0,0,,0,,,,0,0,0,0,4,,0,0,0,0,4,18,3,0,,0,0,0,0,0,0,2,0,0,,0,36,0,0,1,,0.5,,,,,2,,,,,,,,,,,,,0.5,,,,,,0,,4,0.5,,,
06B,42,mid,north,2011,08/17/12,2012,8,17,7,control,ambient_grazers,CGA,72,,,,7,0,,,0,0,,0,,0,0,0,0,,0,0,6,,0,,,,0,0,0,1,18,,0,14,0,0,1,0.5,0,0,,0,0,0,0,0,0,0.5,0,0,,0,24,0,0,,,2,,,,,,,,,,,,,,,,,,,,,,,,0,,,29,,,
GR03B,43,mid,north,2011,08/17/12,2012,8,17,7,succession,reduced_grazers,SGR,99.5,,,,15,0,,,4,0,,0,,0,0,0,0,,0,4,56,,0,,,,5,0,0,0,0.5,,0,0,0,0,0,2,1,0,,0,0,0,0,0,0,0,0,0,,0,11,0,0,1,,,,0.5,,,,,,,,,,,,,,,,,,,,1,,0,,0.5,0.5,,,
07B,44,mid,north,2011,08/17/12,2012,8,17,7,control,ambient_grazers,CGA,99,,,,1,0,,,0,0,,0,,3,70,0,0,,0,0,24,,0,,,,0,0,0,0,0,,0.5,0.5,0,0,0,0,0,0,,0,0,0,0,0,0,0,0,0,,0,0,0,0,,,,,1,,,,,,,,,,,,,,,,,,,,1,,0,,,,,,
08B,45,mid,north,2011,08/17/12,2012,8,17,7,succession,ambient_grazers,SGA,72.5,,,,11,0,,,0,0,,0,,2,1,0.5,0,,0,15,32,,1,,,,0,0,0,0,0,,0,4,0,0,0,3,0,0,,0,0,0,0,0,0,0,0,0,,0,3,0,0,,,0.5,,0.5,,,18,,,,,,,2,,,,,,,,,,,,0,,2,7,,,
GR04B,46,mid,south,2011,08/19/12,2012,8,19,7,succession,reduced_grazers,SGR,100.5,,,,0,0,,,0,0,,0,,0,0,0,0,,0,0,0,,0,,,,0,0,0,0,0.5,,0,0,0,0,0,10,90,0,,0,0,0,0,0,0,0,0,0,,0,0,0,0,,,,,,,,,,,,,,,,,,,,,,,,,,,0,,0.5,0.5,,,
CnewB3,47,mid,south,2012,08/19/12,2012,8,19,7,control,ambient_grazers,CGA,91,,,,2,0,,,0,0,,0,,10,0,0,2,,0,7,44,,0,,,,0,0,0,0,7,,0,5,0,0,2,1,0,0,,10,0,0,0,0,0,0,0,0,,0,1,0,0,,,0.5,,,,,,,,,4,,,,,,,,,,,,,,,0,,,4,,,
SnewB3,48,mid,south,2012,08/19/12,2012,8,19,7,succession,ambient_grazers,SGA,99,,,,7,0,,,0,88,3,0,,0,0,0,0,,0,0,0,,0,,,,0,0,0,0,0,,0,0,0,0,0,0,0,0,,0,0,0,0,0,0,0,0,0,,0,1,0,0,,,,,,,,0.5,,,,,,,,,,,,,,,,,,,0,,,,,,
09B,49,mid,south,2011,08/19/12,2012,8,19,7,succession,ambient_grazers,SGA,95.5,,,,8,0,,34,0.5,0,,0,,0,0,0,0,,0.5,0,0,,0,,,,0,0,1,0,31,,0,0,0,0,0,7,11,0,,2,0,0,0,0,0,0,0,0,,0,0.5,0,0,,,0.5,0.5,,,,,,,,,,,8,,,,,,,,,,,,0,,1,0.5,,,
10B,50,mid,south,2011,08/19/12,2012,8,19,7,control,ambient_grazers,CGA,90,,,,4,0,,7,0,0,,0,,1,0,0.5,0,,1,0,7,,0,,,,0,0,0,0,52,,0,0,0,0,1,0,2,0,,14,0,0,0,0,0,0,0,0,,0,0.5,0,0,,,,,,,,,,,,,,,,,,,,,2,,,,,,0,,,8,,,
GR05B,51,mid,south,2011,08/19/12,2012,8,19,7,succession,reduced_grazers,SGR,96,,,,3,0,,,0,0,4,0,,0,0,0,0,,0,9,9,,6,,,1,0,0,0,0,4,,0,0,0,0,0,34,24,0,,0,0,0,0,0,0,0,0,0,,0,2,0,0,,,,,,,,,,,,,,,,,,,,,,,,,,,0,,,,,,
GRnewB3,52,mid,south,2012,08/17/12,2012,8,17,7,succession,reduced_grazers,SGR,100,,,,0,0,,,0,100,,0,,0,0,0,0,,0,0,0,,0,,,,0,0,0,0,0,,0,0,0,0,0,0,0,0,,0,0,0,0,0,0,0,0,0,,0,0,0,0,,,,,,,,,,,,,,,,,,,,,,,,,,,0,,,,,,
11B,53,mid,south,2011,08/17/12,2012,8,17,7,succession,ambient_grazers,SGA,88,,,,11,0,,,0,0,,0,,0,0,0,0,,0,0,0,,0,,,,0,0,4,0,49,,0,0,0,0,0,0,8,0,,0,0,0,0,0,0,0,0,0,,0,16,0,0,,,,,,,,,,,,,,,,,,,,,,,,,,,0,,11,1,,,
12B,54,mid,south,2011,08/17/12,2012,8,17,7,control,ambient_grazers,CGA,65,,,,2,0,,,0,0,,0,,4,0,0,0,,0,2,46,,0,,,,0,0,3,0,0,,0,0,0,0,0,0,0,0,,0,0,0,0,8,0,0,0,0,,0,0,0,0,,,,,,,,,,,,6,,,,,,,,,24,,,,,,0,,4,1,,,
GR00C,55,high,north,2011,08/17/12,2012,8,17,7,succession,reduced_grazers,SGR,56.5,,,,40,0,,,0,0,,0,,0,0,0,0,,0,0,0,,0,,,,0,0,0.5,0,0,,0,0,0,0,1,0,0,9,,0,0,0,6,0,0,0,0,0,,0,0,0,0,,,,38,,,,5,,,,,,,,,,,,,,,,,,,0,,,,,,
01C,56,high,north,2011,08/17/12,2012,8,17,7,succession,ambient_grazers,SGA,73,,,,50,0,,,0,0,,0,,0,0,0,0,,0,0,0,,0,,,,0,0,5,0,0,,0,0,0,0,0,12,0,4,,0,0,0,2,0,0,0,0,0,,0,0,0,0,,,,25,,,,2,,,,,,,,,,,,,,,,,,,0,,,,,,
02C,57,high,north,2011,08/17/12,2012,8,17,7,control,ambient_grazers,CGA,96,,,,2,0,,,0,0,,0,,0,0,0,0,,0,0,0,,0,,,,0,0,21,0,0,,0,0,0,0,2,25,0,8,,0,0,0,38,0,0,0,0,0,,0,0,0,0,,,,4,,,,,,,,,,,,,,,,,,1,,,,,0,,,,,,
GR01C,58,high,north,2011,08/17/12,2012,8,17,7,succession,reduced_grazers,SGR,102,,,,44,0,,,0,0,,0,,0,0,0,0,,0,0,0,,0,,,,0,0,0,11,0,5,0,0,0,0,1,2,0,30,,0,0,0,9,0,0,0,0,0,,0,0,0,0,,,,2,,,,0.5,,,,,,,,,,,,,1,,,,,,0,,,,,,
03C,59,high,north,2011,08/17/12,2012,8,17,7,control,ambient_grazers,CGA,95,,,,5,0,,,0,0,,0,,0,0,0,0,,0,0,0,,0,,,,0,0,15,6,0,,0,0,0,0,1,28,0,3,,0,0,0,37,0,0,0,0,0,,0,0,0,0,,,,6,,,,0.5,,,,,,,,,,,,,,0.5,,,,,0,,,,,,
04C,60,high,north,2011,08/17/12,2012,8,17,7,succession,ambient_grazers,SGA,50.5,,,,23,0,,,0,0,,0,,0,0,0,0,,0,0,0,,0,,,,0,0,12,2,0,,0,0,0,0,2,6.5,0,0,,0,0,0,5,0,0,0,0,0,,0,0,0,0,,,,60,,,,2,,,,,,,,,,,,,,,,,,,0,,,,,,
GR02C,61,high,north,2011,08/17/12,2012,8,17,7,succession,reduced_grazers,SGR,88,,,,23,0,,,0,0,,0,,0,0,0,0,,0,0,0,,0,,,,0,0,0,27,0,,0,0,0,0,1,3,0,27,,0,0,0,4,0,0,2,0,0,,0,1,0,0,,,,10,,,,1,,,,,,,,,,,,,0.5,0.5,,,,,0,,,,,,
05C,62,high,north,2011,08/17/12,2012,8,17,7,succession,ambient_grazers,SGA,68,,,,33,0,,,0,0,,0,,0,0,0,0,,0,0,0,,0,,,,0,0,7,0,0,2,0,0,0,0,1,19,0,5,,0,0,0,1,0,0,0,0,0,,0,0,0,0,,,,34,,,,0.5,,,,,,,,,,,,,,,,,,,0,,,,,,
06C,63,high,north,2011,08/17/12,2012,8,17,7,control,ambient_grazers,CGA,100,,,,2,0,,,0,0,,0,,0,0,0,0,,0,0,0,,0,,,,0,0,5,0,0,,0,0,0,0,0,3,0,89,,0,0,0,1,0,0,0,0,0,,0,0,0,0,,,,2,,,,,,,,,,,,,,,,,,,,,,,0,,,,,,
GR03C,64,high,north,2011,08/17/12,2012,8,17,7,succession,reduced_grazers,SGR,70.5,,,,67,0,,,0,0,,0,,0,0,0,0,,0,0,0,,0,,,,0,0,1,0,0,,0,0,0,0,0,0,0,0.5,,0,0,0,2,0,0,0,0,0,,0,0,0,0,,,,26,,,,1,,,,,,,,,,,,,,,,,,,0,,,,,,
07C,65,high,north,2011,08/17/12,2012,8,17,7,control,ambient_grazers,CGA,99,,,,4,0,,,0,0,,0,,0,0,0,0,,0,0,0,,0,,,,0,0,73,0,0,,0,0,0,0,2,0,0,7,,0,0,0,13,0,0,0,0,0,,0,0,0,0,,,,1,,,,0.5,,,,,,,,,,,,,,,,,,,0,,,,,,
08C,66,high,north,2011,08/17/12,2012,8,17,7,succession,ambient_grazers,SGA,83,,,,75,0,,,0,0,,0,,0,0,0,0,,0,0,0,,0,,,,0,0,4,0,0,,0,0,0,0,0,0,0,4,,0,0,0,0,0,0,0,0,0,,0,0,0,0,,,,17,,,,,,,,,,,,,,,,,,,,,,,0,,,,,,
GR04C,67,high,south,2011,08/18/12,2012,8,18,7,succession,reduced_grazers,SGR,88.5,,,,18,0,,,0,0,,0,,0,0,0,0,,0,0,0,,0,,,0.5,0,0,0,2,0,4,0,0,0,0,2,7,11,31,,0,0,0,3,0,0,0,0,0,,0,0,10,0,,,,,,,,0.5,,,,,,,,,,,,,,,,,,,0,,,2,,,
09C,68,high,south,2011,08/18/12,2012,8,18,7,succession,ambient_grazers,SGA,89,,,,5,0,,,0,0,59,0,,0,0,0,0,,0,0,0,,0,,,,0,0,4,0,0,,0,0,0,0,0,3,1,0,,0,0,0,6,0,0,1,0,0,,0,10,0,0,,,,,,,,0.5,,,,,,,,,,,,,,,,,,,0,,,11,,,
10C,69,high,south,2011,08/18/12,2012,8,18,7,control,ambient_grazers,CGA,84.5,,,,4,0,,,0,0,,0,,0,0,0,0,,0,0.5,0,,0,,,,0,0,40,10,1,3,0,0,0,0,3,10,12,0,,0,0,0,0,0,0,0,0,0,,0,1,0,0,,,,,,,,0.5,,,,,,,,,,,,,4,10,,,,,0,,,0.5,,,
GR05C,70,high,south,2011,08/18/12,2012,8,18,7,succession,reduced_grazers,SGR,93,,,,0,0,,,0,0,,0,,0,0,0,0,,0,0,0,,0,,,,0,0,0,0,0,,0,0,0,0,4,1,11,0,,0,0,0,0,0,0,0,0,0,,0,0,77,0,,,,2,,,,,,,,,,,,,,,,,,,,,,,0,,,5,,,
11C,71,high,south,2011,08/18/12,2012,8,18,7,succession,ambient_grazers,SGA,56.5,,,,14,0,,,0,0,,0,,0,0,0,0,,0,0,0,,0,,,,0,0,4,0,0,,0,0,0,0,4,12,12,0,,0,0,0,0,0,0,0.5,0,0,,0,0,10,0,,,,30,,,,1,,,,,,,,,,,,,,,,,,,0,,,12,,,
12C,72,high,south,2011,08/18/12,2012,8,18,7,control,ambient_grazers,CGA,53,,,,7,0,,,0,0,,0,,0,0,0,0,,0,0,0,,0,,,,0,0,0,2,0,,0,0,0,0,3,16,8,0,,14,0,0,3,0,0,0,0,0,,0,0,0,0,,,,16,,,,2,,,,,,,,,,,,,2,25,,,,,0,,,2,,,
